%TF.GenerationSoftware,KiCad,Pcbnew,(5.1.6)-1*%
%TF.CreationDate,2020-08-10T20:18:05-04:00*%
%TF.ProjectId,PhantomPower,5068616e-746f-46d5-906f-7765722e6b69,rev?*%
%TF.SameCoordinates,Original*%
%TF.FileFunction,Legend,Top*%
%TF.FilePolarity,Positive*%
%FSLAX46Y46*%
G04 Gerber Fmt 4.6, Leading zero omitted, Abs format (unit mm)*
G04 Created by KiCad (PCBNEW (5.1.6)-1) date 2020-08-10 20:18:05*
%MOMM*%
%LPD*%
G01*
G04 APERTURE LIST*
%ADD10C,0.100000*%
%ADD11C,0.300000*%
%ADD12C,0.270000*%
%ADD13C,0.150000*%
%ADD14C,0.120000*%
%TA.AperFunction,Profile*%
%ADD15C,0.200000*%
%TD*%
%ADD16C,0.250000*%
%ADD17C,0.200000*%
%ADD18C,0.127000*%
G04 APERTURE END LIST*
D10*
X156014955Y-129322357D02*
X155974776Y-129358071D01*
X155863169Y-129393785D01*
X155791741Y-129393785D01*
X155689062Y-129358071D01*
X155626562Y-129286642D01*
X155599776Y-129215214D01*
X155581919Y-129072357D01*
X155595312Y-128965214D01*
X155648883Y-128822357D01*
X155693526Y-128750928D01*
X155773883Y-128679500D01*
X155885491Y-128643785D01*
X155956919Y-128643785D01*
X156059598Y-128679500D01*
X156090848Y-128715214D01*
X156564062Y-128643785D02*
X156706919Y-128643785D01*
X156773883Y-128679500D01*
X156836383Y-128750928D01*
X156854241Y-128893785D01*
X156822991Y-129143785D01*
X156769419Y-129286642D01*
X156689062Y-129358071D01*
X156613169Y-129393785D01*
X156470312Y-129393785D01*
X156403348Y-129358071D01*
X156340848Y-129286642D01*
X156322991Y-129143785D01*
X156354241Y-128893785D01*
X156407812Y-128750928D01*
X156488169Y-128679500D01*
X156564062Y-128643785D01*
X157113169Y-129393785D02*
X157206919Y-128643785D01*
X157541741Y-129393785D01*
X157635491Y-128643785D01*
X157898883Y-129393785D02*
X157992633Y-128643785D01*
X158327455Y-129393785D01*
X158421205Y-128643785D01*
X158733705Y-129000928D02*
X158983705Y-129000928D01*
X159041741Y-129393785D02*
X158684598Y-129393785D01*
X158778348Y-128643785D01*
X159135491Y-128643785D01*
X159800669Y-129322357D02*
X159760491Y-129358071D01*
X159648883Y-129393785D01*
X159577455Y-129393785D01*
X159474776Y-129358071D01*
X159412276Y-129286642D01*
X159385491Y-129215214D01*
X159367633Y-129072357D01*
X159381026Y-128965214D01*
X159434598Y-128822357D01*
X159479241Y-128750928D01*
X159559598Y-128679500D01*
X159671205Y-128643785D01*
X159742633Y-128643785D01*
X159845312Y-128679500D01*
X159876562Y-128715214D01*
X160099776Y-128643785D02*
X160528348Y-128643785D01*
X160220312Y-129393785D02*
X160314062Y-128643785D01*
X161242633Y-128643785D02*
X161671205Y-128643785D01*
X161363169Y-129393785D02*
X161456919Y-128643785D01*
X162064062Y-128643785D02*
X162206919Y-128643785D01*
X162273883Y-128679500D01*
X162336383Y-128750928D01*
X162354241Y-128893785D01*
X162322991Y-129143785D01*
X162269419Y-129286642D01*
X162189062Y-129358071D01*
X162113169Y-129393785D01*
X161970312Y-129393785D01*
X161903348Y-129358071D01*
X161840848Y-129286642D01*
X161822991Y-129143785D01*
X161854241Y-128893785D01*
X161907812Y-128750928D01*
X161988169Y-128679500D01*
X162064062Y-128643785D01*
X163184598Y-129393785D02*
X163278348Y-128643785D01*
X163564062Y-128643785D01*
X163631026Y-128679500D01*
X163662276Y-128715214D01*
X163689062Y-128786642D01*
X163675669Y-128893785D01*
X163631026Y-128965214D01*
X163590848Y-129000928D01*
X163514955Y-129036642D01*
X163229241Y-129036642D01*
X164171205Y-128643785D02*
X164314062Y-128643785D01*
X164381026Y-128679500D01*
X164443526Y-128750928D01*
X164461383Y-128893785D01*
X164430133Y-129143785D01*
X164376562Y-129286642D01*
X164296205Y-129358071D01*
X164220312Y-129393785D01*
X164077455Y-129393785D01*
X164010491Y-129358071D01*
X163947991Y-129286642D01*
X163930133Y-129143785D01*
X163961383Y-128893785D01*
X164014955Y-128750928D01*
X164095312Y-128679500D01*
X164171205Y-128643785D01*
X164769419Y-129000928D02*
X165019419Y-129000928D01*
X165077455Y-129393785D02*
X164720312Y-129393785D01*
X164814062Y-128643785D01*
X165171205Y-128643785D01*
X165385491Y-128643785D02*
X165814062Y-128643785D01*
X165506026Y-129393785D02*
X165599776Y-128643785D01*
X165939062Y-129358071D02*
X166041741Y-129393785D01*
X166220312Y-129393785D01*
X166296205Y-129358071D01*
X166336383Y-129322357D01*
X166381026Y-129250928D01*
X166389955Y-129179500D01*
X166363169Y-129108071D01*
X166331919Y-129072357D01*
X166264955Y-129036642D01*
X166126562Y-129000928D01*
X166059598Y-128965214D01*
X166028348Y-128929500D01*
X166001562Y-128858071D01*
X166010491Y-128786642D01*
X166055133Y-128715214D01*
X166095312Y-128679500D01*
X166171205Y-128643785D01*
X166349776Y-128643785D01*
X166452455Y-128679500D01*
X167256026Y-129393785D02*
X167349776Y-128643785D01*
X167532812Y-129179500D01*
X167849776Y-128643785D01*
X167756026Y-129393785D01*
X168349776Y-128643785D02*
X168492633Y-128643785D01*
X168559598Y-128679500D01*
X168622098Y-128750928D01*
X168639955Y-128893785D01*
X168608705Y-129143785D01*
X168555133Y-129286642D01*
X168474776Y-129358071D01*
X168398883Y-129393785D01*
X168256026Y-129393785D01*
X168189062Y-129358071D01*
X168126562Y-129286642D01*
X168108705Y-129143785D01*
X168139955Y-128893785D01*
X168193526Y-128750928D01*
X168273883Y-128679500D01*
X168349776Y-128643785D01*
X168898883Y-129393785D02*
X168992633Y-128643785D01*
X169171205Y-128643785D01*
X169273883Y-128679500D01*
X169336383Y-128750928D01*
X169363169Y-128822357D01*
X169381026Y-128965214D01*
X169367633Y-129072357D01*
X169314062Y-129215214D01*
X169269419Y-129286642D01*
X169189062Y-129358071D01*
X169077455Y-129393785D01*
X168898883Y-129393785D01*
X169742633Y-128643785D02*
X169666741Y-129250928D01*
X169693526Y-129322357D01*
X169724776Y-129358071D01*
X169791741Y-129393785D01*
X169934598Y-129393785D01*
X170010491Y-129358071D01*
X170050669Y-129322357D01*
X170095312Y-129250928D01*
X170171205Y-128643785D01*
X170791741Y-129393785D02*
X170434598Y-129393785D01*
X170528348Y-128643785D01*
X171090848Y-129000928D02*
X171340848Y-129000928D01*
X171398883Y-129393785D02*
X171041741Y-129393785D01*
X171135491Y-128643785D01*
X171492633Y-128643785D01*
X159840848Y-130225928D02*
X159590848Y-130225928D01*
X159541741Y-130618785D02*
X159635491Y-129868785D01*
X159992633Y-129868785D01*
X160421205Y-129868785D02*
X160564062Y-129868785D01*
X160631026Y-129904500D01*
X160693526Y-129975928D01*
X160711383Y-130118785D01*
X160680133Y-130368785D01*
X160626562Y-130511642D01*
X160546205Y-130583071D01*
X160470312Y-130618785D01*
X160327455Y-130618785D01*
X160260491Y-130583071D01*
X160197991Y-130511642D01*
X160180133Y-130368785D01*
X160211383Y-130118785D01*
X160264955Y-129975928D01*
X160345312Y-129904500D01*
X160421205Y-129868785D01*
X161398883Y-130618785D02*
X161193526Y-130261642D01*
X160970312Y-130618785D02*
X161064062Y-129868785D01*
X161349776Y-129868785D01*
X161416741Y-129904500D01*
X161447991Y-129940214D01*
X161474776Y-130011642D01*
X161461383Y-130118785D01*
X161416741Y-130190214D01*
X161376562Y-130225928D01*
X161300669Y-130261642D01*
X161014955Y-130261642D01*
X162278348Y-129868785D02*
X162706919Y-129868785D01*
X162398883Y-130618785D02*
X162492633Y-129868785D01*
X162912276Y-130225928D02*
X163162276Y-130225928D01*
X163220312Y-130618785D02*
X162863169Y-130618785D01*
X162956919Y-129868785D01*
X163314062Y-129868785D01*
X163898883Y-130618785D02*
X163541741Y-130618785D01*
X163635491Y-129868785D01*
X164197991Y-130225928D02*
X164447991Y-130225928D01*
X164506026Y-130618785D02*
X164148883Y-130618785D01*
X164242633Y-129868785D01*
X164599776Y-129868785D01*
X164827455Y-130618785D02*
X164921205Y-129868785D01*
X165104241Y-130404500D01*
X165421205Y-129868785D01*
X165327455Y-130618785D01*
X165733705Y-130225928D02*
X165983705Y-130225928D01*
X166041741Y-130618785D02*
X165684598Y-130618785D01*
X165778348Y-129868785D01*
X166135491Y-129868785D01*
X166349776Y-129868785D02*
X166778348Y-129868785D01*
X166470312Y-130618785D02*
X166564062Y-129868785D01*
X167363169Y-130618785D02*
X167157812Y-130261642D01*
X166934598Y-130618785D02*
X167028348Y-129868785D01*
X167314062Y-129868785D01*
X167381026Y-129904500D01*
X167412276Y-129940214D01*
X167439062Y-130011642D01*
X167425669Y-130118785D01*
X167381026Y-130190214D01*
X167340848Y-130225928D01*
X167264955Y-130261642D01*
X166979241Y-130261642D01*
X167872098Y-130261642D02*
X167827455Y-130618785D01*
X167671205Y-129868785D02*
X167872098Y-130261642D01*
X168171205Y-129868785D01*
D11*
X151152642Y-140220000D02*
X151018714Y-140148571D01*
X150804428Y-140148571D01*
X150581214Y-140220000D01*
X150420500Y-140362857D01*
X150331214Y-140505714D01*
X150224071Y-140791428D01*
X150197285Y-141005714D01*
X150233000Y-141291428D01*
X150286571Y-141434285D01*
X150411571Y-141577142D01*
X150616928Y-141648571D01*
X150759785Y-141648571D01*
X150983000Y-141577142D01*
X151063357Y-141505714D01*
X151125857Y-141005714D01*
X150840142Y-141005714D01*
X151688357Y-141648571D02*
X151875857Y-140148571D01*
X152545500Y-141648571D01*
X152733000Y-140148571D01*
X153259785Y-141648571D02*
X153447285Y-140148571D01*
X153804428Y-140148571D01*
X154009785Y-140220000D01*
X154134785Y-140362857D01*
X154188357Y-140505714D01*
X154224071Y-140791428D01*
X154197285Y-141005714D01*
X154090142Y-141291428D01*
X154000857Y-141434285D01*
X153840142Y-141577142D01*
X153616928Y-141648571D01*
X153259785Y-141648571D01*
D10*
X134376333Y-120677750D02*
X134376333Y-121011083D01*
X134176333Y-120586083D02*
X134876333Y-120906916D01*
X134176333Y-121052750D01*
X134643000Y-121344416D02*
X134176333Y-121286083D01*
X134576333Y-121336083D02*
X134609666Y-121373583D01*
X134643000Y-121444416D01*
X134643000Y-121544416D01*
X134609666Y-121606916D01*
X134543000Y-121631916D01*
X134176333Y-121586083D01*
X134176333Y-122219416D02*
X134876333Y-122306916D01*
X134209666Y-122223583D02*
X134176333Y-122152750D01*
X134176333Y-122019416D01*
X134209666Y-121956916D01*
X134243000Y-121927750D01*
X134309666Y-121902750D01*
X134509666Y-121927750D01*
X134576333Y-121969416D01*
X134609666Y-122006916D01*
X134643000Y-122077750D01*
X134643000Y-122211083D01*
X134609666Y-122273583D01*
X134176333Y-123186083D02*
X134209666Y-123123583D01*
X134276333Y-123098583D01*
X134876333Y-123173583D01*
X134176333Y-123452750D02*
X134643000Y-123511083D01*
X134876333Y-123540250D02*
X134843000Y-123502750D01*
X134809666Y-123531916D01*
X134843000Y-123569416D01*
X134876333Y-123540250D01*
X134809666Y-123531916D01*
X134176333Y-123786083D02*
X134876333Y-123873583D01*
X134443000Y-123886083D02*
X134176333Y-124052750D01*
X134643000Y-124111083D02*
X134376333Y-123811083D01*
X134209666Y-124623583D02*
X134176333Y-124552750D01*
X134176333Y-124419416D01*
X134209666Y-124356916D01*
X134276333Y-124331916D01*
X134543000Y-124365250D01*
X134609666Y-124406916D01*
X134643000Y-124477750D01*
X134643000Y-124611083D01*
X134609666Y-124673583D01*
X134543000Y-124698583D01*
X134476333Y-124690250D01*
X134409666Y-124348583D01*
X134643000Y-125444416D02*
X134643000Y-125711083D01*
X134876333Y-125573583D02*
X134276333Y-125498583D01*
X134209666Y-125523583D01*
X134176333Y-125586083D01*
X134176333Y-125652750D01*
X134176333Y-125886083D02*
X134876333Y-125973583D01*
X134176333Y-126186083D02*
X134543000Y-126231916D01*
X134609666Y-126206916D01*
X134643000Y-126144416D01*
X134643000Y-126044416D01*
X134609666Y-125973583D01*
X134576333Y-125936083D01*
X134209666Y-126790250D02*
X134176333Y-126719416D01*
X134176333Y-126586083D01*
X134209666Y-126523583D01*
X134276333Y-126498583D01*
X134543000Y-126531916D01*
X134609666Y-126573583D01*
X134643000Y-126644416D01*
X134643000Y-126777750D01*
X134609666Y-126840250D01*
X134543000Y-126865250D01*
X134476333Y-126856916D01*
X134409666Y-126515250D01*
X134176333Y-127119416D02*
X134643000Y-127177750D01*
X134509666Y-127161083D02*
X134576333Y-127202750D01*
X134609666Y-127240250D01*
X134643000Y-127311083D01*
X134643000Y-127377750D01*
X134209666Y-127823583D02*
X134176333Y-127752750D01*
X134176333Y-127619416D01*
X134209666Y-127556916D01*
X134276333Y-127531916D01*
X134543000Y-127565250D01*
X134609666Y-127606916D01*
X134643000Y-127677750D01*
X134643000Y-127811083D01*
X134609666Y-127873583D01*
X134543000Y-127898583D01*
X134476333Y-127890250D01*
X134409666Y-127548583D01*
X134876333Y-128273583D02*
X134743000Y-128190250D01*
X134209666Y-128456916D02*
X134176333Y-128519416D01*
X134176333Y-128652750D01*
X134209666Y-128723583D01*
X134276333Y-128765250D01*
X134309666Y-128769416D01*
X134376333Y-128744416D01*
X134409666Y-128681916D01*
X134409666Y-128581916D01*
X134443000Y-128519416D01*
X134509666Y-128494416D01*
X134543000Y-128498583D01*
X134609666Y-128540250D01*
X134643000Y-128611083D01*
X134643000Y-128711083D01*
X134609666Y-128773583D01*
X134643000Y-129644416D02*
X134176333Y-129586083D01*
X134576333Y-129636083D02*
X134609666Y-129673583D01*
X134643000Y-129744416D01*
X134643000Y-129844416D01*
X134609666Y-129906916D01*
X134543000Y-129931916D01*
X134176333Y-129886083D01*
X134176333Y-130319416D02*
X134209666Y-130256916D01*
X134243000Y-130227750D01*
X134309666Y-130202750D01*
X134509666Y-130227750D01*
X134576333Y-130269416D01*
X134609666Y-130306916D01*
X134643000Y-130377750D01*
X134643000Y-130477750D01*
X134609666Y-130540250D01*
X134576333Y-130569416D01*
X134509666Y-130594416D01*
X134309666Y-130569416D01*
X134243000Y-130527750D01*
X134209666Y-130490250D01*
X134176333Y-130419416D01*
X134176333Y-130319416D01*
X134643000Y-130811083D02*
X134643000Y-131077750D01*
X134876333Y-130940250D02*
X134276333Y-130865250D01*
X134209666Y-130890250D01*
X134176333Y-130952750D01*
X134176333Y-131019416D01*
X134176333Y-131252750D02*
X134876333Y-131340250D01*
X134176333Y-131552750D02*
X134543000Y-131598583D01*
X134609666Y-131573583D01*
X134643000Y-131511083D01*
X134643000Y-131411083D01*
X134609666Y-131340250D01*
X134576333Y-131302750D01*
X134176333Y-131886083D02*
X134643000Y-131944416D01*
X134876333Y-131973583D02*
X134843000Y-131936083D01*
X134809666Y-131965250D01*
X134843000Y-132002750D01*
X134876333Y-131973583D01*
X134809666Y-131965250D01*
X134643000Y-132277750D02*
X134176333Y-132219416D01*
X134576333Y-132269416D02*
X134609666Y-132306916D01*
X134643000Y-132377750D01*
X134643000Y-132477750D01*
X134609666Y-132540250D01*
X134543000Y-132565250D01*
X134176333Y-132519416D01*
X134643000Y-133211083D02*
X134076333Y-133140250D01*
X134009666Y-133098583D01*
X133976333Y-133061083D01*
X133943000Y-132990250D01*
X133943000Y-132890250D01*
X133976333Y-132827750D01*
X134209666Y-133156916D02*
X134176333Y-133086083D01*
X134176333Y-132952750D01*
X134209666Y-132890250D01*
X134243000Y-132861083D01*
X134309666Y-132836083D01*
X134509666Y-132861083D01*
X134576333Y-132902750D01*
X134609666Y-132940250D01*
X134643000Y-133011083D01*
X134643000Y-133144416D01*
X134609666Y-133206916D01*
X134176333Y-134119416D02*
X134209666Y-134056916D01*
X134243000Y-134027750D01*
X134309666Y-134002750D01*
X134509666Y-134027750D01*
X134576333Y-134069416D01*
X134609666Y-134106916D01*
X134643000Y-134177750D01*
X134643000Y-134277750D01*
X134609666Y-134340250D01*
X134576333Y-134369416D01*
X134509666Y-134394416D01*
X134309666Y-134369416D01*
X134243000Y-134327750D01*
X134209666Y-134290250D01*
X134176333Y-134219416D01*
X134176333Y-134119416D01*
X134643000Y-134711083D02*
X134176333Y-134652750D01*
X134576333Y-134702750D02*
X134609666Y-134740250D01*
X134643000Y-134811083D01*
X134643000Y-134911083D01*
X134609666Y-134973583D01*
X134543000Y-134998583D01*
X134176333Y-134952750D01*
D12*
X135479333Y-104634000D02*
X137229333Y-104634000D01*
X137229333Y-105300666D01*
X137146000Y-105467333D01*
X137062666Y-105550666D01*
X136896000Y-105634000D01*
X136646000Y-105634000D01*
X136479333Y-105550666D01*
X136396000Y-105467333D01*
X136312666Y-105300666D01*
X136312666Y-104634000D01*
X135479333Y-106384000D02*
X137229333Y-106384000D01*
X136396000Y-106384000D02*
X136396000Y-107384000D01*
X135479333Y-107384000D02*
X137229333Y-107384000D01*
X135979333Y-108134000D02*
X135979333Y-108967333D01*
X135479333Y-107967333D02*
X137229333Y-108550666D01*
X135479333Y-109134000D01*
X135479333Y-109717333D02*
X137229333Y-109717333D01*
X135479333Y-110717333D01*
X137229333Y-110717333D01*
X137229333Y-111300666D02*
X137229333Y-112300666D01*
X135479333Y-111800666D02*
X137229333Y-111800666D01*
X137229333Y-113217333D02*
X137229333Y-113550666D01*
X137146000Y-113717333D01*
X136979333Y-113884000D01*
X136646000Y-113967333D01*
X136062666Y-113967333D01*
X135729333Y-113884000D01*
X135562666Y-113717333D01*
X135479333Y-113550666D01*
X135479333Y-113217333D01*
X135562666Y-113050666D01*
X135729333Y-112884000D01*
X136062666Y-112800666D01*
X136646000Y-112800666D01*
X136979333Y-112884000D01*
X137146000Y-113050666D01*
X137229333Y-113217333D01*
X135479333Y-114717333D02*
X137229333Y-114717333D01*
X135979333Y-115300666D01*
X137229333Y-115884000D01*
X135479333Y-115884000D01*
X135479333Y-118050666D02*
X137229333Y-118050666D01*
X137229333Y-118717333D01*
X137146000Y-118884000D01*
X137062666Y-118967333D01*
X136896000Y-119050666D01*
X136646000Y-119050666D01*
X136479333Y-118967333D01*
X136396000Y-118884000D01*
X136312666Y-118717333D01*
X136312666Y-118050666D01*
X137229333Y-120134000D02*
X137229333Y-120467333D01*
X137146000Y-120634000D01*
X136979333Y-120800666D01*
X136646000Y-120884000D01*
X136062666Y-120884000D01*
X135729333Y-120800666D01*
X135562666Y-120634000D01*
X135479333Y-120467333D01*
X135479333Y-120134000D01*
X135562666Y-119967333D01*
X135729333Y-119800666D01*
X136062666Y-119717333D01*
X136646000Y-119717333D01*
X136979333Y-119800666D01*
X137146000Y-119967333D01*
X137229333Y-120134000D01*
X137229333Y-121467333D02*
X135479333Y-121884000D01*
X136729333Y-122217333D01*
X135479333Y-122550666D01*
X137229333Y-122967333D01*
X136396000Y-123634000D02*
X136396000Y-124217333D01*
X135479333Y-124467333D02*
X135479333Y-123634000D01*
X137229333Y-123634000D01*
X137229333Y-124467333D01*
X135479333Y-126217333D02*
X136312666Y-125634000D01*
X135479333Y-125217333D02*
X137229333Y-125217333D01*
X137229333Y-125884000D01*
X137146000Y-126050666D01*
X137062666Y-126134000D01*
X136896000Y-126217333D01*
X136646000Y-126217333D01*
X136479333Y-126134000D01*
X136396000Y-126050666D01*
X136312666Y-125884000D01*
X136312666Y-125217333D01*
X137229333Y-128050666D02*
X135479333Y-128634000D01*
X137229333Y-129217333D01*
X135479333Y-130717333D02*
X135479333Y-129717333D01*
X135479333Y-130217333D02*
X137229333Y-130217333D01*
X136979333Y-130050666D01*
X136812666Y-129884000D01*
X136729333Y-129717333D01*
X135646000Y-131467333D02*
X135562666Y-131550666D01*
X135479333Y-131467333D01*
X135562666Y-131384000D01*
X135646000Y-131467333D01*
X135479333Y-131467333D01*
X137229333Y-132634000D02*
X137229333Y-132800666D01*
X137146000Y-132967333D01*
X137062666Y-133050666D01*
X136896000Y-133134000D01*
X136562666Y-133217333D01*
X136146000Y-133217333D01*
X135812666Y-133134000D01*
X135646000Y-133050666D01*
X135562666Y-132967333D01*
X135479333Y-132800666D01*
X135479333Y-132634000D01*
X135562666Y-132467333D01*
X135646000Y-132384000D01*
X135812666Y-132300666D01*
X136146000Y-132217333D01*
X136562666Y-132217333D01*
X136896000Y-132300666D01*
X137062666Y-132384000D01*
X137146000Y-132467333D01*
X137229333Y-132634000D01*
X135979333Y-133884000D02*
X135979333Y-134717333D01*
X135479333Y-133717333D02*
X137229333Y-134300666D01*
X135479333Y-134884000D01*
D10*
X138099000Y-104815250D02*
X138065666Y-104911083D01*
X138032333Y-104940250D01*
X137965666Y-104965250D01*
X137865666Y-104952750D01*
X137799000Y-104911083D01*
X137765666Y-104873583D01*
X137732333Y-104802750D01*
X137732333Y-104536083D01*
X138432333Y-104623583D01*
X138432333Y-104856916D01*
X138399000Y-104919416D01*
X138365666Y-104948583D01*
X138299000Y-104973583D01*
X138232333Y-104965250D01*
X138165666Y-104923583D01*
X138132333Y-104886083D01*
X138099000Y-104815250D01*
X138099000Y-104581916D01*
X137732333Y-105336083D02*
X137765666Y-105273583D01*
X137832333Y-105248583D01*
X138432333Y-105323583D01*
X137732333Y-105902750D02*
X138099000Y-105948583D01*
X138165666Y-105923583D01*
X138199000Y-105861083D01*
X138199000Y-105727750D01*
X138165666Y-105656916D01*
X137765666Y-105906916D02*
X137732333Y-105836083D01*
X137732333Y-105669416D01*
X137765666Y-105606916D01*
X137832333Y-105581916D01*
X137899000Y-105590250D01*
X137965666Y-105631916D01*
X137999000Y-105702750D01*
X137999000Y-105869416D01*
X138032333Y-105940250D01*
X137765666Y-106540250D02*
X137732333Y-106469416D01*
X137732333Y-106336083D01*
X137765666Y-106273583D01*
X137799000Y-106244416D01*
X137865666Y-106219416D01*
X138065666Y-106244416D01*
X138132333Y-106286083D01*
X138165666Y-106323583D01*
X138199000Y-106394416D01*
X138199000Y-106527750D01*
X138165666Y-106590250D01*
X137732333Y-106836083D02*
X138432333Y-106923583D01*
X137999000Y-106936083D02*
X137732333Y-107102750D01*
X138199000Y-107161083D02*
X137932333Y-106861083D01*
X137732333Y-108036083D02*
X137765666Y-107973583D01*
X137799000Y-107944416D01*
X137865666Y-107919416D01*
X138065666Y-107944416D01*
X138132333Y-107986083D01*
X138165666Y-108023583D01*
X138199000Y-108094416D01*
X138199000Y-108194416D01*
X138165666Y-108256916D01*
X138132333Y-108286083D01*
X138065666Y-108311083D01*
X137865666Y-108286083D01*
X137799000Y-108244416D01*
X137765666Y-108206916D01*
X137732333Y-108136083D01*
X137732333Y-108036083D01*
X138199000Y-108927750D02*
X137732333Y-108869416D01*
X138199000Y-108627750D02*
X137832333Y-108581916D01*
X137765666Y-108606916D01*
X137732333Y-108669416D01*
X137732333Y-108769416D01*
X137765666Y-108840250D01*
X137799000Y-108877750D01*
X138199000Y-109161083D02*
X138199000Y-109427750D01*
X138432333Y-109290250D02*
X137832333Y-109215250D01*
X137765666Y-109240250D01*
X137732333Y-109302750D01*
X137732333Y-109369416D01*
X138199000Y-110094416D02*
X138199000Y-110361083D01*
X138432333Y-110223583D02*
X137832333Y-110148583D01*
X137765666Y-110173583D01*
X137732333Y-110236083D01*
X137732333Y-110302750D01*
X137732333Y-110636083D02*
X137765666Y-110573583D01*
X137799000Y-110544416D01*
X137865666Y-110519416D01*
X138065666Y-110544416D01*
X138132333Y-110586083D01*
X138165666Y-110623583D01*
X138199000Y-110694416D01*
X138199000Y-110794416D01*
X138165666Y-110856916D01*
X138132333Y-110886083D01*
X138065666Y-110911083D01*
X137865666Y-110886083D01*
X137799000Y-110844416D01*
X137765666Y-110806916D01*
X137732333Y-110736083D01*
X137732333Y-110636083D01*
X138199000Y-111661083D02*
X138199000Y-111927750D01*
X138432333Y-111790250D02*
X137832333Y-111715250D01*
X137765666Y-111740250D01*
X137732333Y-111802750D01*
X137732333Y-111869416D01*
X137732333Y-112102750D02*
X138432333Y-112190250D01*
X137732333Y-112402750D02*
X138099000Y-112448583D01*
X138165666Y-112423583D01*
X138199000Y-112361083D01*
X138199000Y-112261083D01*
X138165666Y-112190250D01*
X138132333Y-112152750D01*
X137765666Y-113006916D02*
X137732333Y-112936083D01*
X137732333Y-112802750D01*
X137765666Y-112740250D01*
X137832333Y-112715250D01*
X138099000Y-112748583D01*
X138165666Y-112790250D01*
X138199000Y-112861083D01*
X138199000Y-112994416D01*
X138165666Y-113056916D01*
X138099000Y-113081916D01*
X138032333Y-113073583D01*
X137965666Y-112731916D01*
D11*
X165750857Y-143970428D02*
X165750857Y-144637095D01*
X164703238Y-144922809D02*
X164703238Y-143970428D01*
X166703238Y-143970428D01*
X166703238Y-144922809D01*
X165941238Y-144049714D02*
X164512666Y-144049714D01*
X164226952Y-143954476D01*
X164036476Y-143764000D01*
X163941238Y-143478285D01*
X163941238Y-143287809D01*
D10*
X216410023Y-105969571D02*
X216383238Y-105993380D01*
X216308833Y-106017190D01*
X216261214Y-106017190D01*
X216192761Y-105993380D01*
X216151095Y-105945761D01*
X216133238Y-105898142D01*
X216121333Y-105802904D01*
X216130261Y-105731476D01*
X216165976Y-105636238D01*
X216195738Y-105588619D01*
X216249309Y-105541000D01*
X216323714Y-105517190D01*
X216371333Y-105517190D01*
X216439785Y-105541000D01*
X216460619Y-105564809D01*
X216689785Y-106017190D02*
X216645142Y-105993380D01*
X216627285Y-105945761D01*
X216680857Y-105517190D01*
X216951690Y-106017190D02*
X216907047Y-105993380D01*
X216886214Y-105969571D01*
X216868357Y-105921952D01*
X216886214Y-105779095D01*
X216915976Y-105731476D01*
X216942761Y-105707666D01*
X216993357Y-105683857D01*
X217064785Y-105683857D01*
X217109428Y-105707666D01*
X217130261Y-105731476D01*
X217148119Y-105779095D01*
X217130261Y-105921952D01*
X217100500Y-105969571D01*
X217073714Y-105993380D01*
X217023119Y-106017190D01*
X216951690Y-106017190D01*
X217311809Y-105993380D02*
X217356452Y-106017190D01*
X217451690Y-106017190D01*
X217502285Y-105993380D01*
X217532047Y-105945761D01*
X217535023Y-105921952D01*
X217517166Y-105874333D01*
X217472523Y-105850523D01*
X217401095Y-105850523D01*
X217356452Y-105826714D01*
X217338595Y-105779095D01*
X217341571Y-105755285D01*
X217371333Y-105707666D01*
X217421928Y-105683857D01*
X217493357Y-105683857D01*
X217538000Y-105707666D01*
X217930857Y-105993380D02*
X217880261Y-106017190D01*
X217785023Y-106017190D01*
X217740380Y-105993380D01*
X217722523Y-105945761D01*
X217746333Y-105755285D01*
X217776095Y-105707666D01*
X217826690Y-105683857D01*
X217921928Y-105683857D01*
X217966571Y-105707666D01*
X217984428Y-105755285D01*
X217978476Y-105802904D01*
X217734428Y-105850523D01*
X218517166Y-105683857D02*
X218707642Y-105683857D01*
X218546928Y-106017190D02*
X218600500Y-105588619D01*
X218630261Y-105541000D01*
X218680857Y-105517190D01*
X218728476Y-105517190D01*
X218904071Y-106017190D02*
X218859428Y-105993380D01*
X218838595Y-105969571D01*
X218820738Y-105921952D01*
X218838595Y-105779095D01*
X218868357Y-105731476D01*
X218895142Y-105707666D01*
X218945738Y-105683857D01*
X219017166Y-105683857D01*
X219061809Y-105707666D01*
X219082642Y-105731476D01*
X219100500Y-105779095D01*
X219082642Y-105921952D01*
X219052880Y-105969571D01*
X219026095Y-105993380D01*
X218975500Y-106017190D01*
X218904071Y-106017190D01*
X219285023Y-106017190D02*
X219326690Y-105683857D01*
X219314785Y-105779095D02*
X219344547Y-105731476D01*
X219371333Y-105707666D01*
X219421928Y-105683857D01*
X219469547Y-105683857D01*
X219975500Y-106017190D02*
X220017166Y-105683857D01*
X220038000Y-105517190D02*
X220011214Y-105541000D01*
X220032047Y-105564809D01*
X220058833Y-105541000D01*
X220038000Y-105517190D01*
X220032047Y-105564809D01*
X220246333Y-105564809D02*
X220273119Y-105541000D01*
X220323714Y-105517190D01*
X220442761Y-105517190D01*
X220487404Y-105541000D01*
X220508238Y-105564809D01*
X220526095Y-105612428D01*
X220520142Y-105660047D01*
X220487404Y-105731476D01*
X220165976Y-106017190D01*
X220475500Y-106017190D01*
X220907047Y-105993380D02*
X220856452Y-106017190D01*
X220761214Y-106017190D01*
X220716571Y-105993380D01*
X220695738Y-105969571D01*
X220677880Y-105921952D01*
X220695738Y-105779095D01*
X220725500Y-105731476D01*
X220752285Y-105707666D01*
X220802880Y-105683857D01*
X220898119Y-105683857D01*
X220942761Y-105707666D01*
X221540976Y-105683857D02*
X221478476Y-106183857D01*
X221538000Y-105707666D02*
X221588595Y-105683857D01*
X221683833Y-105683857D01*
X221728476Y-105707666D01*
X221749309Y-105731476D01*
X221767166Y-105779095D01*
X221749309Y-105921952D01*
X221719547Y-105969571D01*
X221692761Y-105993380D01*
X221642166Y-106017190D01*
X221546928Y-106017190D01*
X221502285Y-105993380D01*
X222207642Y-105683857D02*
X222165976Y-106017190D01*
X221993357Y-105683857D02*
X221960619Y-105945761D01*
X221978476Y-105993380D01*
X222023119Y-106017190D01*
X222094547Y-106017190D01*
X222145142Y-105993380D01*
X222171928Y-105969571D01*
X222475500Y-106017190D02*
X222430857Y-105993380D01*
X222413000Y-105945761D01*
X222466571Y-105517190D01*
X222737404Y-106017190D02*
X222692761Y-105993380D01*
X222674904Y-105945761D01*
X222728476Y-105517190D01*
X222951690Y-105826714D02*
X223332642Y-105826714D01*
X223802880Y-105683857D02*
X223761214Y-106017190D01*
X223588595Y-105683857D02*
X223555857Y-105945761D01*
X223573714Y-105993380D01*
X223618357Y-106017190D01*
X223689785Y-106017190D01*
X223740380Y-105993380D01*
X223767166Y-105969571D01*
X224040976Y-105683857D02*
X223978476Y-106183857D01*
X224038000Y-105707666D02*
X224088595Y-105683857D01*
X224183833Y-105683857D01*
X224228476Y-105707666D01*
X224249309Y-105731476D01*
X224267166Y-105779095D01*
X224249309Y-105921952D01*
X224219547Y-105969571D01*
X224192761Y-105993380D01*
X224142166Y-106017190D01*
X224046928Y-106017190D01*
X224002285Y-105993380D01*
D13*
X211288380Y-101298333D02*
X211288380Y-100631666D01*
X212288380Y-101298333D01*
X212288380Y-100631666D01*
D14*
X212232634Y-99949000D02*
G75*
G03*
X212232634Y-99949000I-523634J0D01*
G01*
X211328000Y-96901000D02*
X211709000Y-96520000D01*
X211709000Y-99949000D02*
X211709000Y-96520000D01*
X211709000Y-96520000D02*
X212090000Y-96901000D01*
X212090000Y-96901000D02*
X211328000Y-96901000D01*
D13*
X212891619Y-97710666D02*
X211891619Y-98377333D01*
X212891619Y-98377333D02*
X211891619Y-97710666D01*
X209827809Y-99314000D02*
X209351619Y-99314000D01*
X210351619Y-98980666D02*
X209827809Y-99314000D01*
X210351619Y-99647333D01*
D14*
X208661000Y-100330000D02*
X208280000Y-99949000D01*
X208661000Y-99568000D02*
X208661000Y-100330000D01*
X208280000Y-99949000D02*
X208661000Y-99568000D01*
X211709000Y-99949000D02*
X208280000Y-99949000D01*
D13*
X155195252Y-131214761D02*
X155332157Y-131262380D01*
X155570252Y-131262380D01*
X155671443Y-131214761D01*
X155725014Y-131167142D01*
X155784538Y-131071904D01*
X155796443Y-130976666D01*
X155760729Y-130881428D01*
X155719062Y-130833809D01*
X155629776Y-130786190D01*
X155445252Y-130738571D01*
X155355967Y-130690952D01*
X155314300Y-130643333D01*
X155278586Y-130548095D01*
X155290491Y-130452857D01*
X155350014Y-130357619D01*
X155403586Y-130310000D01*
X155504776Y-130262380D01*
X155742872Y-130262380D01*
X155879776Y-130310000D01*
X148591252Y-131214761D02*
X148728157Y-131262380D01*
X148966252Y-131262380D01*
X149067443Y-131214761D01*
X149121014Y-131167142D01*
X149180538Y-131071904D01*
X149192443Y-130976666D01*
X149156729Y-130881428D01*
X149115062Y-130833809D01*
X149025776Y-130786190D01*
X148841252Y-130738571D01*
X148751967Y-130690952D01*
X148710300Y-130643333D01*
X148674586Y-130548095D01*
X148686491Y-130452857D01*
X148746014Y-130357619D01*
X148799586Y-130310000D01*
X148900776Y-130262380D01*
X149138872Y-130262380D01*
X149275776Y-130310000D01*
X177949127Y-99226619D02*
X177758651Y-99226619D01*
X177669366Y-99179000D01*
X177586032Y-99083761D01*
X177562223Y-98893285D01*
X177603889Y-98559952D01*
X177675318Y-98369476D01*
X177782461Y-98274238D01*
X177883651Y-98226619D01*
X178074127Y-98226619D01*
X178163413Y-98274238D01*
X178246747Y-98369476D01*
X178270556Y-98559952D01*
X178228889Y-98893285D01*
X178157461Y-99083761D01*
X178050318Y-99179000D01*
X177949127Y-99226619D01*
X177216985Y-98226619D02*
X177091985Y-99226619D01*
X176645556Y-98226619D01*
X176520556Y-99226619D01*
X176121747Y-98607571D02*
X175359842Y-98607571D01*
X174883651Y-98607571D02*
X174121747Y-98607571D01*
X173645556Y-98607571D02*
X172883651Y-98607571D01*
X172139604Y-99226619D02*
X171949127Y-99226619D01*
X171859842Y-99179000D01*
X171776508Y-99083761D01*
X171752699Y-98893285D01*
X171794366Y-98559952D01*
X171865794Y-98369476D01*
X171972937Y-98274238D01*
X172074127Y-98226619D01*
X172264604Y-98226619D01*
X172353889Y-98274238D01*
X172437223Y-98369476D01*
X172461032Y-98559952D01*
X172419366Y-98893285D01*
X172347937Y-99083761D01*
X172240794Y-99179000D01*
X172139604Y-99226619D01*
X171008651Y-98750428D02*
X171341985Y-98750428D01*
X171407461Y-98226619D02*
X171282461Y-99226619D01*
X170806270Y-99226619D01*
X170151508Y-98750428D02*
X170484842Y-98750428D01*
X170550318Y-98226619D02*
X170425318Y-99226619D01*
X169949127Y-99226619D01*
X144105380Y-105989380D02*
X143772047Y-105513190D01*
X143533952Y-105989380D02*
X143533952Y-104989380D01*
X143914904Y-104989380D01*
X144010142Y-105037000D01*
X144057761Y-105084619D01*
X144105380Y-105179857D01*
X144105380Y-105322714D01*
X144057761Y-105417952D01*
X144010142Y-105465571D01*
X143914904Y-105513190D01*
X143533952Y-105513190D01*
X144486333Y-105941761D02*
X144629190Y-105989380D01*
X144867285Y-105989380D01*
X144962523Y-105941761D01*
X145010142Y-105894142D01*
X145057761Y-105798904D01*
X145057761Y-105703666D01*
X145010142Y-105608428D01*
X144962523Y-105560809D01*
X144867285Y-105513190D01*
X144676809Y-105465571D01*
X144581571Y-105417952D01*
X144533952Y-105370333D01*
X144486333Y-105275095D01*
X144486333Y-105179857D01*
X144533952Y-105084619D01*
X144581571Y-105037000D01*
X144676809Y-104989380D01*
X144914904Y-104989380D01*
X145057761Y-105037000D01*
X145343476Y-104989380D02*
X145914904Y-104989380D01*
X145629190Y-105989380D02*
X145629190Y-104989380D01*
D11*
X174768190Y-138414142D02*
X175434857Y-138414142D01*
X175720571Y-139461761D02*
X174768190Y-139461761D01*
X174768190Y-137461761D01*
X175720571Y-137461761D01*
X176577714Y-139461761D02*
X176577714Y-137461761D01*
X177244380Y-138890333D01*
X177911047Y-137461761D01*
X177911047Y-139461761D01*
X178672952Y-137461761D02*
X179911047Y-137461761D01*
X179244380Y-138223666D01*
X179530095Y-138223666D01*
X179720571Y-138318904D01*
X179815809Y-138414142D01*
X179911047Y-138604619D01*
X179911047Y-139080809D01*
X179815809Y-139271285D01*
X179720571Y-139366523D01*
X179530095Y-139461761D01*
X178958666Y-139461761D01*
X178768190Y-139366523D01*
X178672952Y-139271285D01*
X186325190Y-138414142D02*
X186991857Y-138414142D01*
X187277571Y-139461761D02*
X186325190Y-139461761D01*
X186325190Y-137461761D01*
X187277571Y-137461761D01*
X188134714Y-139461761D02*
X188134714Y-137461761D01*
X188801380Y-138890333D01*
X189468047Y-137461761D01*
X189468047Y-139461761D01*
X190325190Y-137652238D02*
X190420428Y-137557000D01*
X190610904Y-137461761D01*
X191087095Y-137461761D01*
X191277571Y-137557000D01*
X191372809Y-137652238D01*
X191468047Y-137842714D01*
X191468047Y-138033190D01*
X191372809Y-138318904D01*
X190229952Y-139461761D01*
X191468047Y-139461761D01*
X198390190Y-138414142D02*
X199056857Y-138414142D01*
X199342571Y-139461761D02*
X198390190Y-139461761D01*
X198390190Y-137461761D01*
X199342571Y-137461761D01*
X200199714Y-139461761D02*
X200199714Y-137461761D01*
X200866380Y-138890333D01*
X201533047Y-137461761D01*
X201533047Y-139461761D01*
X203533047Y-139461761D02*
X202390190Y-139461761D01*
X202961619Y-139461761D02*
X202961619Y-137461761D01*
X202771142Y-137747476D01*
X202580666Y-137937952D01*
X202390190Y-138033190D01*
D15*
X130810000Y-143382999D02*
G75*
G02*
X129345534Y-139847466I3535533J3535533D01*
G01*
X137073455Y-147575388D02*
G75*
G02*
X133537922Y-146110922I1J4999999D01*
G01*
X137073456Y-147575388D02*
X221617611Y-147575388D01*
X229345534Y-139847466D02*
X229345534Y-101303311D01*
X130810000Y-97767777D02*
X133537922Y-95039855D01*
X227881067Y-97767777D02*
X225153145Y-95039855D01*
X225153145Y-146110922D02*
G75*
G02*
X221617611Y-147575388I-3535534J3535534D01*
G01*
X227881067Y-143383000D02*
X225153145Y-146110922D01*
X129345534Y-101303310D02*
G75*
G02*
X130810000Y-97767777I4999999J-1D01*
G01*
X129345534Y-139847466D02*
X129345534Y-101303311D01*
X133537922Y-95039855D02*
G75*
G02*
X137073456Y-93575389I3535534J-3535534D01*
G01*
X137073456Y-93575388D02*
X221617611Y-93575388D01*
X227881067Y-97767777D02*
G75*
G02*
X229345533Y-101303311I-3535534J-3535534D01*
G01*
X221617611Y-93575389D02*
G75*
G02*
X225153145Y-95039855I0J-5000000D01*
G01*
X229345533Y-139847466D02*
G75*
G02*
X227881067Y-143383000I-5000000J0D01*
G01*
X130810000Y-143383000D02*
X133537922Y-146110922D01*
D16*
%TO.C,U2*%
X215660000Y-105053000D02*
G75*
G03*
X215660000Y-105053000I-125000J0D01*
G01*
D13*
X214360000Y-104253000D02*
X214910000Y-104253000D01*
X211810000Y-104253000D02*
X212360000Y-104253000D01*
X211810000Y-108553000D02*
X211810000Y-108853000D01*
X211810000Y-104253000D02*
X211810000Y-104553000D01*
X214360000Y-108853000D02*
X214910000Y-108853000D01*
X211810000Y-108853000D02*
X212360000Y-108853000D01*
X214910000Y-108553000D02*
X214910000Y-108853000D01*
X214910000Y-104253000D02*
X214910000Y-104553000D01*
D14*
%TO.C,S2*%
X177546000Y-93484700D02*
X177546000Y-96024700D01*
X168656000Y-93484700D02*
X177546000Y-93484700D01*
X168656000Y-96024700D02*
X168656000Y-93484700D01*
X177546000Y-96024700D02*
X168656000Y-96024700D01*
D17*
%TO.C,S1*%
X140834000Y-108055000D02*
X140834000Y-108055000D01*
X140934000Y-108055000D02*
X140934000Y-108055000D01*
X140834000Y-108055000D02*
X140834000Y-108055000D01*
D10*
X142484000Y-110855000D02*
X142484000Y-108855000D01*
X142484000Y-110855000D02*
X142484000Y-110855000D01*
X142484000Y-108855000D02*
X142484000Y-110855000D01*
X142484000Y-108855000D02*
X142484000Y-108855000D01*
X147584000Y-110855000D02*
X147584000Y-108855000D01*
X147584000Y-110855000D02*
X147584000Y-110855000D01*
X147584000Y-108855000D02*
X147584000Y-110855000D01*
X147584000Y-108855000D02*
X147584000Y-108855000D01*
X143034000Y-112405000D02*
X143034000Y-112405000D01*
X147034000Y-112405000D02*
X143034000Y-112405000D01*
X147034000Y-112405000D02*
X147034000Y-112405000D01*
X143034000Y-112405000D02*
X147034000Y-112405000D01*
X143034000Y-107305000D02*
X143034000Y-107305000D01*
X147034000Y-107305000D02*
X143034000Y-107305000D01*
X147034000Y-107305000D02*
X147034000Y-107305000D01*
X143034000Y-107305000D02*
X147034000Y-107305000D01*
D17*
X140934000Y-108055000D02*
G75*
G02*
X140834000Y-108055000I-50000J0D01*
G01*
X140834000Y-108055000D02*
G75*
G02*
X140934000Y-108055000I50000J0D01*
G01*
X140934000Y-108055000D02*
G75*
G02*
X140834000Y-108055000I-50000J0D01*
G01*
D14*
%TO.C,D1*%
X211217000Y-130013000D02*
X213217000Y-130013000D01*
X213217000Y-130013000D02*
X213217000Y-126113000D01*
X211217000Y-130013000D02*
X211217000Y-126113000D01*
D18*
%TO.C,BZ1*%
X154660000Y-119343000D02*
X154660000Y-128943000D01*
X145060000Y-126543000D02*
X145060000Y-119343000D01*
X147460000Y-128943000D02*
X148260000Y-128943000D01*
X154660000Y-119343000D02*
X151460000Y-119343000D01*
X145060000Y-119343000D02*
X148260000Y-119343000D01*
X151460000Y-128943000D02*
X154660000Y-128943000D01*
X145060000Y-126543000D02*
X147460000Y-128943000D01*
D14*
%TO.C,J2*%
X160296000Y-131240000D02*
X160296000Y-132490000D01*
X161546000Y-131240000D02*
X160296000Y-131240000D01*
X167656000Y-135650000D02*
X167656000Y-135150000D01*
X167756000Y-135150000D02*
X167756000Y-135650000D01*
X167556000Y-135150000D02*
X167756000Y-135150000D01*
X167556000Y-135650000D02*
X167556000Y-135150000D01*
X165656000Y-135650000D02*
X165656000Y-135150000D01*
X165756000Y-135150000D02*
X165756000Y-135650000D01*
X165556000Y-135150000D02*
X165756000Y-135150000D01*
X165556000Y-135650000D02*
X165556000Y-135150000D01*
X163656000Y-135650000D02*
X163656000Y-135150000D01*
X163756000Y-135150000D02*
X163756000Y-135650000D01*
X163556000Y-135150000D02*
X163756000Y-135150000D01*
X163556000Y-135650000D02*
X163556000Y-135150000D01*
X170716000Y-134150000D02*
X170106000Y-134150000D01*
X170716000Y-132850000D02*
X170106000Y-132850000D01*
X160596000Y-134150000D02*
X161206000Y-134150000D01*
X160596000Y-132850000D02*
X161206000Y-132850000D01*
X168156000Y-132150000D02*
X168156000Y-131540000D01*
X170106000Y-132150000D02*
X168156000Y-132150000D01*
X170106000Y-135650000D02*
X170106000Y-132150000D01*
X161206000Y-135650000D02*
X170106000Y-135650000D01*
X161206000Y-132150000D02*
X161206000Y-135650000D01*
X163156000Y-132150000D02*
X161206000Y-132150000D01*
X163156000Y-131540000D02*
X163156000Y-132150000D01*
X162356000Y-131440000D02*
X162056000Y-131440000D01*
X162056000Y-131340000D02*
X162056000Y-131540000D01*
X162356000Y-131340000D02*
X162056000Y-131340000D01*
X162356000Y-131540000D02*
X162356000Y-131340000D01*
X170716000Y-131540000D02*
X160596000Y-131540000D01*
X170716000Y-136260000D02*
X170716000Y-131540000D01*
X160596000Y-136260000D02*
X170716000Y-136260000D01*
X160596000Y-131540000D02*
X160596000Y-136260000D01*
D10*
%TO.C,J4*%
X171975000Y-128688000D02*
X172475000Y-128688000D01*
X171975000Y-128688000D02*
X171975000Y-129188000D01*
X171975000Y-135988000D02*
X171975000Y-136488000D01*
X171975000Y-136488000D02*
X172475000Y-136488000D01*
X182353000Y-136008000D02*
X182353000Y-136508000D01*
X182353000Y-136508000D02*
X181853000Y-136508000D01*
X182363000Y-128688000D02*
X182363000Y-129188000D01*
X182363000Y-128688000D02*
X181863000Y-128688000D01*
%TO.C,J3*%
X183659000Y-128688000D02*
X184159000Y-128688000D01*
X183659000Y-128688000D02*
X183659000Y-129188000D01*
X183659000Y-135988000D02*
X183659000Y-136488000D01*
X183659000Y-136488000D02*
X184159000Y-136488000D01*
X194037000Y-136008000D02*
X194037000Y-136508000D01*
X194037000Y-136508000D02*
X193537000Y-136508000D01*
X194047000Y-128688000D02*
X194047000Y-129188000D01*
X194047000Y-128688000D02*
X193547000Y-128688000D01*
%TO.C,J1*%
X195470000Y-128815000D02*
X195970000Y-128815000D01*
X195470000Y-128815000D02*
X195470000Y-129315000D01*
X195470000Y-136115000D02*
X195470000Y-136615000D01*
X195470000Y-136615000D02*
X195970000Y-136615000D01*
X205848000Y-136135000D02*
X205848000Y-136635000D01*
X205848000Y-136635000D02*
X205348000Y-136635000D01*
X205858000Y-128815000D02*
X205858000Y-129315000D01*
X205858000Y-128815000D02*
X205358000Y-128815000D01*
%TO.C,U4*%
X219535000Y-124380000D02*
X220175000Y-124380000D01*
X220175000Y-126600000D02*
X220175000Y-127080000D01*
X219535000Y-127080000D02*
X220175000Y-127080000D01*
X217975000Y-124380000D02*
X218615000Y-124380000D01*
X217975000Y-127080000D02*
X218615000Y-127080000D01*
X217975000Y-126600000D02*
X217975000Y-127080000D01*
X217975000Y-124380000D02*
X217975000Y-124860000D01*
D14*
%TO.C,J6*%
X147514000Y-132147000D02*
X148844000Y-132147000D01*
X147514000Y-133477000D02*
X147514000Y-132147000D01*
X147514000Y-134747000D02*
X150174000Y-134747000D01*
X150174000Y-134747000D02*
X150174000Y-139887000D01*
X147514000Y-134747000D02*
X147514000Y-139887000D01*
X147514000Y-139887000D02*
X150174000Y-139887000D01*
%TO.C,J5*%
X153991000Y-132147000D02*
X155321000Y-132147000D01*
X153991000Y-133477000D02*
X153991000Y-132147000D01*
X153991000Y-134747000D02*
X156651000Y-134747000D01*
X156651000Y-134747000D02*
X156651000Y-139887000D01*
X153991000Y-134747000D02*
X153991000Y-139887000D01*
X153991000Y-139887000D02*
X156651000Y-139887000D01*
%TO.C,U3*%
X215345000Y-118992000D02*
X215345000Y-120492000D01*
X210125000Y-117492000D02*
X210125000Y-120492000D01*
%TO.C,Q4*%
X151836000Y-114187000D02*
X152766000Y-114187000D01*
X154996000Y-114187000D02*
X154066000Y-114187000D01*
X154996000Y-114187000D02*
X154996000Y-112027000D01*
X151836000Y-114187000D02*
X151836000Y-112727000D01*
%TO.C,Q3*%
X217114000Y-131967000D02*
X218044000Y-131967000D01*
X220274000Y-131967000D02*
X219344000Y-131967000D01*
X220274000Y-131967000D02*
X220274000Y-129807000D01*
X217114000Y-131967000D02*
X217114000Y-130507000D01*
%TO.C,Q2*%
X207716000Y-134745000D02*
X208646000Y-134745000D01*
X210876000Y-134745000D02*
X209946000Y-134745000D01*
X210876000Y-134745000D02*
X210876000Y-132585000D01*
X207716000Y-134745000D02*
X207716000Y-133285000D01*
%TO.C,Q1*%
X207573000Y-129096000D02*
X208503000Y-129096000D01*
X210733000Y-129096000D02*
X209803000Y-129096000D01*
X210733000Y-129096000D02*
X210733000Y-126936000D01*
X207573000Y-129096000D02*
X207573000Y-127636000D01*
%TO.C,JP2*%
X221349000Y-108982000D02*
X221349000Y-110982000D01*
X218549000Y-108982000D02*
X221349000Y-108982000D01*
X218549000Y-110982000D02*
X218549000Y-108982000D01*
X221349000Y-110982000D02*
X218549000Y-110982000D01*
%TO.C,JP1*%
X221349000Y-106442000D02*
X221349000Y-108442000D01*
X218549000Y-106442000D02*
X221349000Y-106442000D01*
X218549000Y-108442000D02*
X218549000Y-106442000D01*
X221349000Y-108442000D02*
X218549000Y-108442000D01*
%TO.C,D2*%
X211344000Y-135855000D02*
X213344000Y-135855000D01*
X213344000Y-135855000D02*
X213344000Y-131955000D01*
X211344000Y-135855000D02*
X211344000Y-131955000D01*
%TD*%
%TO.C,S2*%
D13*
X170561095Y-103155761D02*
X170703952Y-103203380D01*
X170942047Y-103203380D01*
X171037285Y-103155761D01*
X171084904Y-103108142D01*
X171132523Y-103012904D01*
X171132523Y-102917666D01*
X171084904Y-102822428D01*
X171037285Y-102774809D01*
X170942047Y-102727190D01*
X170751571Y-102679571D01*
X170656333Y-102631952D01*
X170608714Y-102584333D01*
X170561095Y-102489095D01*
X170561095Y-102393857D01*
X170608714Y-102298619D01*
X170656333Y-102251000D01*
X170751571Y-102203380D01*
X170989666Y-102203380D01*
X171132523Y-102251000D01*
X171513476Y-102298619D02*
X171561095Y-102251000D01*
X171656333Y-102203380D01*
X171894428Y-102203380D01*
X171989666Y-102251000D01*
X172037285Y-102298619D01*
X172084904Y-102393857D01*
X172084904Y-102489095D01*
X172037285Y-102631952D01*
X171465857Y-103203380D01*
X172084904Y-103203380D01*
%TD*%
M02*
