%!PS-Adobe-3.0
%%Creator: PCBNEW
%%CreationDate: Mon Aug 10 20:18:59 2020
%%Title: C:\Users\space\Documents\RocketProjects\phantom-power\Phantom_Power_Avionics_Rev_A\Manufacturing\PhantomPower-drl_map.ps
%%Pages: 1
%%PageOrder: Ascend
%%BoundingBox: 0 0 596 842
%%DocumentMedia: A4 595 842 0 () ()
%%Orientation: Landscape
%%EndComments
%%BeginProlog
/line { newpath moveto lineto stroke } bind def
/cir0 { newpath 0 360 arc stroke } bind def
/cir1 { newpath 0 360 arc gsave fill grestore stroke } bind def
/cir2 { newpath 0 360 arc gsave fill grestore stroke } bind def
/arc0 { newpath arc stroke } bind def
/arc1 { newpath 4 index 4 index moveto arc closepath gsave fill
    grestore stroke } bind def
/arc2 { newpath 4 index 4 index moveto arc closepath gsave fill
    grestore stroke } bind def
/poly0 { stroke } bind def
/poly1 { closepath gsave fill grestore stroke } bind def
/poly2 { closepath gsave fill grestore stroke } bind def
/rect0 { rectstroke } bind def
/rect1 { rectfill } bind def
/rect2 { rectfill } bind def
/linemode0 { 0 setlinecap 0 setlinejoin 0 setlinewidth } bind def
/linemode1 { 1 setlinecap 1 setlinejoin } bind def
/dashedline { [200] 100 setdash } bind def
/solidline { [] 0 setdash } bind def
/phantomshow { moveto
    /KicadFont findfont 0.000001 scalefont setfont
    show } bind def
/textshow { gsave
    findfont exch scalefont setfont concat 1 scale 0 0 moveto show
    } bind def
/reencodefont {
  findfont dup length dict begin
  { 1 index /FID ne
    { def }
    { pop pop } ifelse
  } forall
  /Encoding ISOLatin1Encoding def
  currentdict
  end } bind def
/KicadFont /Helvetica reencodefont definefont pop
/KicadFont-Bold /Helvetica-Bold reencodefont definefont pop
/KicadFont-Oblique /Helvetica-Oblique reencodefont definefont pop
/KicadFont-BoldOblique /Helvetica-BoldOblique reencodefont definefont pop
%%EndProlog
%%Page: 1 1
%%BeginPageSetup
gsave
0.0072 0.0072 scale
linemode1
82680 0 translate 90 rotate
97.79 setlinewidth
%%EndPageSetup
0 0 0 setrgbcolor
154 setlinewidth
23815 43036.5 3850 180 225 arc0
0 0 0 setrgbcolor
25915.5 40936 3850 -135 -90 arc0
0 0 0 setrgbcolor
newpath
25915.5 37086 moveto
91014.5 37086 lineto
stroke
0 0 0 setrgbcolor
newpath
96965 43036.5 moveto
96965 72715.5 lineto
stroke
0 0 0 setrgbcolor
newpath
21092.7 75437.9 moveto
23193.2 77538.4 lineto
stroke
0 0 0 setrgbcolor
newpath
95837.3 75437.9 moveto
93736.8 77538.4 lineto
stroke
0 0 0 setrgbcolor
91014.5 40936 3850 -90 -45 arc0
0 0 0 setrgbcolor
newpath
95837.3 40314.1 moveto
93736.8 38213.6 lineto
stroke
0 0 0 setrgbcolor
23815 72715.5 3850 135 180 arc0
0 0 0 setrgbcolor
newpath
19965 43036.5 moveto
19965 72715.5 lineto
stroke
0 0 0 setrgbcolor
25915.5 74816 3850 90 135 arc0
0 0 0 setrgbcolor
newpath
25915.5 78666 moveto
91014.5 78666 lineto
stroke
0 0 0 setrgbcolor
93115 72715.5 3850 -0 45 arc0
0 0 0 setrgbcolor
91014.5 74816 3850 45 90 arc0
0 0 0 setrgbcolor
93115 43036.5 3850 -45 -0 arc0
0 0 0 setrgbcolor
newpath
21092.7 40314.1 moveto
23193.2 38213.6 lineto
stroke
78.7394 setlinewidth
newpath
24165.7 63546.6 moveto
24473.7 63238.6 lineto
stroke
newpath
24473.7 63546.6 moveto
24165.7 63238.6 lineto
stroke
newpath
25143.6 63546.6 moveto
25451.6 63238.6 lineto
stroke
newpath
25451.6 63546.6 moveto
25143.6 63238.6 lineto
stroke
newpath
31108.8 65502.4 moveto
31416.8 65194.4 lineto
stroke
newpath
31416.8 65502.4 moveto
31108.8 65194.4 lineto
stroke
newpath
33358 62959.8 moveto
33666 62651.8 lineto
stroke
newpath
33666 62959.8 moveto
33358 62651.8 lineto
stroke
newpath
35313.8 65600.2 moveto
35621.8 65292.2 lineto
stroke
newpath
35621.8 65600.2 moveto
35313.8 65292.2 lineto
stroke
newpath
35704.9 54281.9 moveto
36012.9 53973.9 lineto
stroke
newpath
36012.9 54281.9 moveto
35704.9 53973.9 lineto
stroke
newpath
36682.8 64328.9 moveto
36990.8 64020.9 lineto
stroke
newpath
36990.8 64328.9 moveto
36682.8 64020.9 lineto
stroke
newpath
37660.7 66871.4 moveto
37968.7 66563.4 lineto
stroke
newpath
37968.7 66871.4 moveto
37660.7 66563.4 lineto
stroke
newpath
38247.5 67556 moveto
38555.5 67248 lineto
stroke
newpath
38555.5 67556 moveto
38247.5 67248 lineto
stroke
newpath
38932 68240.5 moveto
39240 67932.5 lineto
stroke
newpath
39240 68240.5 moveto
38932 67932.5 lineto
stroke
newpath
73549.7 59928.3 moveto
73857.7 59620.3 lineto
stroke
newpath
73857.7 59928.3 moveto
73549.7 59620.3 lineto
stroke
newpath
79417.1 51616.2 moveto
79725.1 51308.2 lineto
stroke
newpath
79725.1 51616.2 moveto
79417.1 51308.2 lineto
stroke
newpath
79417.1 50833.9 moveto
79725.1 50525.9 lineto
stroke
newpath
79725.1 50833.9 moveto
79417.1 50525.9 lineto
stroke
newpath
79612.6 58461.5 moveto
79920.6 58153.5 lineto
stroke
newpath
79920.6 58461.5 moveto
79612.6 58153.5 lineto
stroke
newpath
80199.4 50833.9 moveto
80507.4 50525.9 lineto
stroke
newpath
80507.4 50833.9 moveto
80199.4 50525.9 lineto
stroke
newpath
80199.4 50051.6 moveto
80507.4 49743.6 lineto
stroke
newpath
80507.4 50051.6 moveto
80199.4 49743.6 lineto
stroke
newpath
80297.2 58461.5 moveto
80605.2 58153.5 lineto
stroke
newpath
80605.2 58461.5 moveto
80297.2 58153.5 lineto
stroke
newpath
80688.3 71565.4 moveto
80996.3 71257.4 lineto
stroke
newpath
80996.3 71565.4 moveto
80688.3 71257.4 lineto
stroke
newpath
80981.7 58461.5 moveto
81289.7 58153.5 lineto
stroke
newpath
81289.7 58461.5 moveto
80981.7 58153.5 lineto
stroke
newpath
80981.7 50442.7 moveto
81289.7 50134.7 lineto
stroke
newpath
81289.7 50442.7 moveto
80981.7 50134.7 lineto
stroke
newpath
81568.4 69414 moveto
81876.4 69106 lineto
stroke
newpath
81876.4 69414 moveto
81568.4 69106 lineto
stroke
newpath
82104.3 48474.6 moveto
82412.3 48166.6 lineto
stroke
newpath
82412.3 48474.6 moveto
82104.3 48166.6 lineto
stroke
newpath
82791.2 48535.4 moveto
83099.2 48227.4 lineto
stroke
newpath
83099.2 48535.4 moveto
82791.2 48227.4 lineto
stroke
newpath
82839.7 70880.8 moveto
83147.7 70572.8 lineto
stroke
newpath
83147.7 70880.8 moveto
82839.7 70572.8 lineto
stroke
newpath
83084.9 53229 moveto
83392.9 52921 lineto
stroke
newpath
83392.9 53229 moveto
83084.9 52921 lineto
stroke
newpath
83328.6 61395.2 moveto
83636.6 61087.2 lineto
stroke
newpath
83636.6 61395.2 moveto
83328.6 61087.2 lineto
stroke
newpath
83622 53767.6 moveto
83930 53459.6 lineto
stroke
newpath
83930 53767.6 moveto
83622 53459.6 lineto
stroke
newpath
83622 51225.8 moveto
83930 50917.8 lineto
stroke
newpath
83930 51225.8 moveto
83622 50917.8 lineto
stroke
newpath
84502.1 71565.4 moveto
84810.1 71257.4 lineto
stroke
newpath
84810.1 71565.4 moveto
84502.1 71257.4 lineto
stroke
newpath
84811.5 55345.3 moveto
85119.5 55037.3 lineto
stroke
newpath
85119.5 55345.3 moveto
84811.5 55037.3 lineto
stroke
newpath
85088.9 51322.8 moveto
85396.9 51014.8 lineto
stroke
newpath
85396.9 51322.8 moveto
85088.9 51014.8 lineto
stroke
newpath
85382.2 71565.4 moveto
85690.2 71257.4 lineto
stroke
newpath
85690.2 71565.4 moveto
85382.2 71257.4 lineto
stroke
newpath
85480 57385.8 moveto
85788 57077.8 lineto
stroke
newpath
85788 57385.8 moveto
85480 57077.8 lineto
stroke
newpath
85577.8 50833.9 moveto
85885.8 50525.9 lineto
stroke
newpath
85885.8 50833.9 moveto
85577.8 50525.9 lineto
stroke
newpath
86066.8 50247.1 moveto
86374.8 49939.1 lineto
stroke
newpath
86374.8 50247.1 moveto
86066.8 49939.1 lineto
stroke
newpath
86360.1 48291.3 moveto
86668.1 47983.3 lineto
stroke
newpath
86668.1 48291.3 moveto
86360.1 47983.3 lineto
stroke
newpath
86555.7 49660.4 moveto
86863.7 49352.4 lineto
stroke
newpath
86863.7 49660.4 moveto
86555.7 49352.4 lineto
stroke
newpath
86946.9 52202.9 moveto
87254.9 51894.9 lineto
stroke
newpath
87254.9 52202.9 moveto
86946.9 51894.9 lineto
stroke
newpath
87338 55136.6 moveto
87646 54828.6 lineto
stroke
newpath
87646 55136.6 moveto
87338 54828.6 lineto
stroke
newpath
87729.2 48878.1 moveto
88037.2 48570.1 lineto
stroke
newpath
88037.2 48878.1 moveto
87729.2 48570.1 lineto
stroke
newpath
87729.2 48193.6 moveto
88037.2 47885.6 lineto
stroke
newpath
88037.2 48193.6 moveto
87729.2 47885.6 lineto
stroke
newpath
88165 66133.8 moveto
88473 65825.8 lineto
stroke
newpath
88473 66133.8 moveto
88165 65825.8 lineto
stroke
newpath
88169.3 67018.1 moveto
88477.3 66710.1 lineto
stroke
newpath
88477.3 67018.1 moveto
88169.3 66710.1 lineto
stroke
newpath
88218.1 56505.7 moveto
88526.1 56197.7 lineto
stroke
newpath
88526.1 56505.7 moveto
88218.1 56197.7 lineto
stroke
newpath
88609.3 48193.6 moveto
88917.3 47885.6 lineto
stroke
newpath
88917.3 48193.6 moveto
88609.3 47885.6 lineto
stroke
newpath
88902.7 52594.1 moveto
89210.7 52286.1 lineto
stroke
newpath
89210.7 52594.1 moveto
88902.7 52286.1 lineto
stroke
newpath
89489.4 61884.1 moveto
89797.4 61576.1 lineto
stroke
newpath
89797.4 61884.1 moveto
89489.4 61576.1 lineto
stroke
newpath
89489.4 61199.6 moveto
89797.4 60891.6 lineto
stroke
newpath
89797.4 61199.6 moveto
89489.4 60891.6 lineto
stroke
newpath
89489.4 60515.1 moveto
89797.4 60207.1 lineto
stroke
newpath
89797.4 60515.1 moveto
89489.4 60207.1 lineto
stroke
newpath
89489.4 48878.1 moveto
89797.4 48570.1 lineto
stroke
newpath
89797.4 48878.1 moveto
89489.4 48570.1 lineto
stroke
newpath
89489.4 48193.6 moveto
89797.4 47885.6 lineto
stroke
newpath
89797.4 48193.6 moveto
89489.4 47885.6 lineto
stroke
newpath
90760.7 52887.5 moveto
91068.7 52579.5 lineto
stroke
newpath
91068.7 52887.5 moveto
90760.7 52579.5 lineto
stroke
newpath
91640.8 55136.6 moveto
91948.8 54828.6 lineto
stroke
newpath
91948.8 55136.6 moveto
91640.8 54828.6 lineto
stroke
newpath
92814.3 53474.2 moveto
93122.3 53166.2 lineto
stroke
newpath
93122.3 53474.2 moveto
92814.3 53166.2 lineto
stroke
newpath
92814.3 52594.1 moveto
93122.3 52286.1 lineto
stroke
newpath
93122.3 52594.1 moveto
92814.3 52286.1 lineto
stroke
45614.1 48039.6 288.75 cir0
47154.1 48039.6 288.75 cir0
48694.1 48039.6 288.75 cir0
50234.1 48039.6 288.75 cir0
newpath
45442.4 54493.7 moveto
45442.4 53907 lineto
stroke
newpath
45149 54200.3 moveto
45735.7 54200.3 lineto
stroke
newpath
47398.2 54493.7 moveto
47398.2 53907 lineto
stroke
newpath
47104.8 54200.3 moveto
47691.5 54200.3 lineto
stroke
newpath
49354 54493.7 moveto
49354 53907 lineto
stroke
newpath
49060.6 54200.3 moveto
49647.3 54200.3 lineto
stroke
newpath
51309.8 54493.7 moveto
51309.8 53907 lineto
stroke
newpath
51016.4 54200.3 moveto
51603.1 54200.3 lineto
stroke
newpath
53265.6 70140.1 moveto
53265.6 69553.3 lineto
stroke
newpath
52972.2 69846.7 moveto
53558.9 69846.7 lineto
stroke
newpath
53265.6 54493.7 moveto
53265.6 53907 lineto
stroke
newpath
52972.2 54200.3 moveto
53558.9 54200.3 lineto
stroke
newpath
55221.4 70140.1 moveto
55221.4 69553.3 lineto
stroke
newpath
54928 69846.7 moveto
55514.7 69846.7 lineto
stroke
newpath
55221.4 54493.7 moveto
55221.4 53907 lineto
stroke
newpath
54928 54200.3 moveto
55514.7 54200.3 lineto
stroke
newpath
57177.1 70140.1 moveto
57177.1 69553.3 lineto
stroke
newpath
56883.8 69846.7 moveto
57470.5 69846.7 lineto
stroke
newpath
57177.1 54493.7 moveto
57177.1 53907 lineto
stroke
newpath
56883.8 54200.3 moveto
57470.5 54200.3 lineto
stroke
newpath
59132.9 70140.1 moveto
59132.9 69553.3 lineto
stroke
newpath
58839.6 69846.7 moveto
59426.3 69846.7 lineto
stroke
newpath
59132.9 54493.7 moveto
59132.9 53907 lineto
stroke
newpath
58839.6 54200.3 moveto
59426.3 54200.3 lineto
stroke
newpath
61088.7 70140.1 moveto
61088.7 69553.3 lineto
stroke
newpath
60795.4 69846.7 moveto
61382.1 69846.7 lineto
stroke
newpath
61088.7 54493.7 moveto
61088.7 53907 lineto
stroke
newpath
60795.4 54200.3 moveto
61382.1 54200.3 lineto
stroke
newpath
63044.5 70140.1 moveto
63044.5 69553.3 lineto
stroke
newpath
62751.2 69846.7 moveto
63337.9 69846.7 lineto
stroke
newpath
63044.5 54493.7 moveto
63044.5 53907 lineto
stroke
newpath
62751.2 54200.3 moveto
63337.9 54200.3 lineto
stroke
newpath
65000.3 70140.1 moveto
65000.3 69553.3 lineto
stroke
newpath
64707 69846.7 moveto
65293.7 69846.7 lineto
stroke
newpath
65000.3 54493.7 moveto
65000.3 53907 lineto
stroke
newpath
64707 54200.3 moveto
65293.7 54200.3 lineto
stroke
newpath
66956.1 70140.1 moveto
66956.1 69553.3 lineto
stroke
newpath
66662.8 69846.7 moveto
67249.5 69846.7 lineto
stroke
newpath
66956.1 54493.7 moveto
66956.1 53907 lineto
stroke
newpath
66662.8 54200.3 moveto
67249.5 54200.3 lineto
stroke
newpath
68911.9 70140.1 moveto
68911.9 69553.3 lineto
stroke
newpath
68618.6 69846.7 moveto
69205.3 69846.7 lineto
stroke
newpath
68911.9 54493.7 moveto
68911.9 53907 lineto
stroke
newpath
68618.6 54200.3 moveto
69205.3 54200.3 lineto
stroke
newpath
70867.7 70140.1 moveto
70867.7 69553.3 lineto
stroke
newpath
70574.4 69846.7 moveto
71161.1 69846.7 lineto
stroke
newpath
70867.7 54493.7 moveto
70867.7 53907 lineto
stroke
newpath
70574.4 54200.3 moveto
71161.1 54200.3 lineto
stroke
newpath
72823.5 70140.1 moveto
72823.5 69553.3 lineto
stroke
newpath
72530.2 69846.7 moveto
73116.9 69846.7 lineto
stroke
newpath
72823.5 54493.7 moveto
72823.5 53907 lineto
stroke
newpath
72530.2 54200.3 moveto
73116.9 54200.3 lineto
stroke
newpath
74779.3 70140.1 moveto
74779.3 69553.3 lineto
stroke
newpath
74486 69846.7 moveto
75072.7 69846.7 lineto
stroke
newpath
74779.3 54493.7 moveto
74779.3 53907 lineto
stroke
newpath
74486 54200.3 moveto
75072.7 54200.3 lineto
stroke
newpath
40238.4 47669.5 moveto
40238.4 48214 lineto
39693.9 48214 lineto
39693.9 47669.5 lineto
40238.4 47669.5 lineto
poly0
newpath
40238.4 45713.7 moveto
40238.4 46258.2 lineto
39693.9 46258.2 lineto
39693.9 45713.7 lineto
40238.4 45713.7 lineto
poly0
newpath
40238.4 43757.9 moveto
40238.4 44302.4 lineto
39693.9 44302.4 lineto
39693.9 43757.9 lineto
40238.4 43757.9 lineto
poly0
newpath
35251.1 47669.5 moveto
35251.1 48214 lineto
34706.6 48214 lineto
34706.6 47669.5 lineto
35251.1 47669.5 lineto
poly0
newpath
35251.1 45713.7 moveto
35251.1 46258.2 lineto
34706.6 46258.2 lineto
34706.6 45713.7 lineto
35251.1 45713.7 lineto
poly0
newpath
35251.1 43757.9 moveto
35251.1 44302.4 lineto
34706.6 44302.4 lineto
34706.6 43757.9 lineto
35251.1 43757.9 lineto
poly0
newpath
72921.3 48028 moveto
73421.8 48528.5 lineto
72921.3 49029 lineto
72420.8 48528.5 lineto
72921.3 48028 lineto
poly0
newpath
76832.9 48028 moveto
77333.4 48528.5 lineto
76832.9 49029 lineto
76332.4 48528.5 lineto
76832.9 48028 lineto
poly0
newpath
63826.9 48125.8 moveto
64327.4 48626.3 lineto
63826.9 49126.8 lineto
63326.4 48626.3 lineto
63826.9 48125.8 lineto
poly0
newpath
67738.5 48125.8 moveto
68239 48626.3 lineto
67738.5 49126.8 lineto
67238 48626.3 lineto
67738.5 48125.8 lineto
poly0
newpath
54830.2 48125.8 moveto
55330.7 48626.3 lineto
54830.2 49126.8 lineto
54329.7 48626.3 lineto
54830.2 48125.8 lineto
poly0
newpath
58741.8 48125.8 moveto
59242.3 48626.3 lineto
58741.8 49126.8 lineto
58241.3 48626.3 lineto
58741.8 48125.8 lineto
poly0
newpath
41530.8 69846.7 moveto
43486.6 67890.9 lineto
stroke
newpath
43486.6 69846.7 moveto
41530.8 67890.9 lineto
stroke
42508.7 68868.8 977.9 cir0
newpath
41530.8 56156.1 moveto
43486.6 54200.3 lineto
stroke
newpath
43486.6 56156.1 moveto
41530.8 54200.3 lineto
stroke
42508.7 55178.2 977.9 cir0
newpath
76735.1 69846.7 moveto
78690.9 67890.9 lineto
stroke
newpath
78690.9 69846.7 moveto
76735.1 67890.9 lineto
stroke
77713 68868.8 977.9 cir0
newpath
76735.1 56156.1 moveto
78690.9 54200.3 lineto
stroke
newpath
78690.9 56156.1 moveto
76735.1 54200.3 lineto
stroke
77713 55178.2 977.9 cir0
newpath
88500.7 75781.1 moveto
92350.7 71931.1 lineto
stroke
newpath
92350.7 75781.1 moveto
88500.7 71931.1 lineto
stroke
newpath
90425.7 75781.1 moveto
90425.7 71931.1 lineto
stroke
newpath
88500.7 73856.1 moveto
92350.7 73856.1 lineto
stroke
newpath
24252.7 43999.4 moveto
28102.7 40149.4 lineto
stroke
newpath
28102.7 43999.4 moveto
24252.7 40149.4 lineto
stroke
newpath
26177.7 43999.4 moveto
26177.7 40149.4 lineto
stroke
newpath
24252.7 42074.4 moveto
28102.7 42074.4 lineto
stroke
newpath
88500.7 43999.4 moveto
92350.7 40149.4 lineto
stroke
newpath
92350.7 43999.4 moveto
88500.7 40149.4 lineto
stroke
newpath
90425.7 43999.4 moveto
90425.7 40149.4 lineto
stroke
newpath
88500.7 42074.4 moveto
92350.7 42074.4 lineto
stroke
newpath
24252.7 75781.1 moveto
28102.7 71931.1 lineto
stroke
newpath
28102.7 75781.1 moveto
24252.7 71931.1 lineto
stroke
newpath
26177.7 75781.1 moveto
26177.7 71931.1 lineto
stroke
newpath
24252.7 73856.1 moveto
28102.7 73856.1 lineto
stroke
118.11 setlinewidth
0 0 0 setrgbcolor
0 0 0 setrgbcolor
newpath
21015.7 35175.5 moveto
21015.7 36356.6 lineto
21296.9 36356.6 lineto
21465.6 36300.3 lineto
21578.1 36187.9 lineto
21634.4 36075.4 lineto
21690.6 35850.4 lineto
21690.6 35681.7 lineto
21634.4 35456.7 lineto
21578.1 35344.2 lineto
21465.6 35231.7 lineto
21296.9 35175.5 lineto
21015.7 35175.5 lineto
stroke
newpath
22196.8 35175.5 moveto
22196.8 35962.9 lineto
stroke
newpath
22196.8 35737.9 moveto
22253 35850.4 lineto
22309.3 35906.6 lineto
22421.8 35962.9 lineto
22534.2 35962.9 lineto
stroke
newpath
22927.9 35175.5 moveto
22927.9 35962.9 lineto
stroke
newpath
22927.9 36356.6 moveto
22871.7 36300.3 lineto
22927.9 36244.1 lineto
22984.2 36300.3 lineto
22927.9 36356.6 lineto
22927.9 36244.1 lineto
stroke
newpath
23659.1 35175.5 moveto
23546.6 35231.7 lineto
23490.4 35344.2 lineto
23490.4 36356.6 lineto
stroke
newpath
24277.8 35175.5 moveto
24165.3 35231.7 lineto
24109.1 35344.2 lineto
24109.1 36356.6 lineto
stroke
newpath
25627.6 35175.5 moveto
25627.6 36356.6 lineto
26021.3 35512.9 lineto
26415 36356.6 lineto
26415 35175.5 lineto
stroke
newpath
27483.6 35175.5 moveto
27483.6 35794.2 lineto
27427.4 35906.6 lineto
27314.9 35962.9 lineto
27089.9 35962.9 lineto
26977.4 35906.6 lineto
stroke
newpath
27483.6 35231.7 moveto
27371.1 35175.5 lineto
27089.9 35175.5 lineto
26977.4 35231.7 lineto
26921.2 35344.2 lineto
26921.2 35456.7 lineto
26977.4 35569.2 lineto
27089.9 35625.4 lineto
27371.1 35625.4 lineto
27483.6 35681.7 lineto
stroke
newpath
28046.1 35962.9 moveto
28046.1 34781.8 lineto
stroke
newpath
28046.1 35906.6 moveto
28158.5 35962.9 lineto
28383.5 35962.9 lineto
28496 35906.6 lineto
28552.2 35850.4 lineto
28608.5 35737.9 lineto
28608.5 35400.5 lineto
28552.2 35288 lineto
28496 35231.7 lineto
28383.5 35175.5 lineto
28158.5 35175.5 lineto
28046.1 35231.7 lineto
stroke
newpath
29114.7 35288 moveto
29170.9 35231.7 lineto
29114.7 35175.5 lineto
29058.4 35231.7 lineto
29114.7 35288 lineto
29114.7 35175.5 lineto
stroke
newpath
29114.7 35906.6 moveto
29170.9 35850.4 lineto
29114.7 35794.2 lineto
29058.4 35850.4 lineto
29114.7 35906.6 lineto
29114.7 35794.2 lineto
stroke
newpath
19580 33383.5 moveto
19888 33075.5 lineto
stroke
newpath
19888 33383.5 moveto
19580 33075.5 lineto
stroke
0 0 0 setrgbcolor
0 0 0 setrgbcolor
newpath
21240.7 33876.3 moveto
21353.1 33876.3 lineto
21465.6 33820 lineto
21521.9 33763.8 lineto
21578.1 33651.3 lineto
21634.4 33426.3 lineto
21634.4 33145.1 lineto
21578.1 32920.1 lineto
21521.9 32807.7 lineto
21465.6 32751.4 lineto
21353.1 32695.2 lineto
21240.7 32695.2 lineto
21128.2 32751.4 lineto
21071.9 32807.7 lineto
21015.7 32920.1 lineto
20959.4 33145.1 lineto
20959.4 33426.3 lineto
21015.7 33651.3 lineto
21071.9 33763.8 lineto
21128.2 33820 lineto
21240.7 33876.3 lineto
stroke
newpath
22140.5 32807.7 moveto
22196.8 32751.4 lineto
22140.5 32695.2 lineto
22084.3 32751.4 lineto
22140.5 32807.7 lineto
22140.5 32695.2 lineto
stroke
newpath
23209.2 33482.6 moveto
23209.2 32695.2 lineto
stroke
newpath
22927.9 33932.5 moveto
22646.7 33088.9 lineto
23377.9 33088.9 lineto
stroke
newpath
24052.8 33876.3 moveto
24165.3 33876.3 lineto
24277.8 33820 lineto
24334 33763.8 lineto
24390.3 33651.3 lineto
24446.5 33426.3 lineto
24446.5 33145.1 lineto
24390.3 32920.1 lineto
24334 32807.7 lineto
24277.8 32751.4 lineto
24165.3 32695.2 lineto
24052.8 32695.2 lineto
23940.3 32751.4 lineto
23884.1 32807.7 lineto
23827.8 32920.1 lineto
23771.6 33145.1 lineto
23771.6 33426.3 lineto
23827.8 33651.3 lineto
23884.1 33763.8 lineto
23940.3 33820 lineto
24052.8 33876.3 lineto
stroke
newpath
24952.7 32695.2 moveto
24952.7 33482.6 lineto
stroke
newpath
24952.7 33370.1 moveto
25008.9 33426.3 lineto
25121.4 33482.6 lineto
25290.2 33482.6 lineto
25402.6 33426.3 lineto
25458.9 33313.8 lineto
25458.9 32695.2 lineto
stroke
newpath
25458.9 33313.8 moveto
25515.1 33426.3 lineto
25627.6 33482.6 lineto
25796.3 33482.6 lineto
25908.8 33426.3 lineto
25965.1 33313.8 lineto
25965.1 32695.2 lineto
stroke
newpath
26527.5 32695.2 moveto
26527.5 33482.6 lineto
stroke
newpath
26527.5 33370.1 moveto
26583.7 33426.3 lineto
26696.2 33482.6 lineto
26865 33482.6 lineto
26977.4 33426.3 lineto
27033.7 33313.8 lineto
27033.7 32695.2 lineto
stroke
newpath
27033.7 33313.8 moveto
27089.9 33426.3 lineto
27202.4 33482.6 lineto
27371.1 33482.6 lineto
27483.6 33426.3 lineto
27539.9 33313.8 lineto
27539.9 32695.2 lineto
stroke
newpath
29845.8 33932.5 moveto
28833.5 32414 lineto
stroke
newpath
31364.4 33876.3 moveto
31476.9 33876.3 lineto
31589.4 33820 lineto
31645.6 33763.8 lineto
31701.9 33651.3 lineto
31758.1 33426.3 lineto
31758.1 33145.1 lineto
31701.9 32920.1 lineto
31645.6 32807.7 lineto
31589.4 32751.4 lineto
31476.9 32695.2 lineto
31364.4 32695.2 lineto
31251.9 32751.4 lineto
31195.7 32807.7 lineto
31139.4 32920.1 lineto
31083.2 33145.1 lineto
31083.2 33426.3 lineto
31139.4 33651.3 lineto
31195.7 33763.8 lineto
31251.9 33820 lineto
31364.4 33876.3 lineto
stroke
newpath
32264.3 32807.7 moveto
32320.5 32751.4 lineto
32264.3 32695.2 lineto
32208 32751.4 lineto
32264.3 32807.7 lineto
32264.3 32695.2 lineto
stroke
newpath
33051.7 33876.3 moveto
33164.2 33876.3 lineto
33276.7 33820 lineto
33332.9 33763.8 lineto
33389.1 33651.3 lineto
33445.4 33426.3 lineto
33445.4 33145.1 lineto
33389.1 32920.1 lineto
33332.9 32807.7 lineto
33276.7 32751.4 lineto
33164.2 32695.2 lineto
33051.7 32695.2 lineto
32939.2 32751.4 lineto
32883 32807.7 lineto
32826.7 32920.1 lineto
32770.5 33145.1 lineto
32770.5 33426.3 lineto
32826.7 33651.3 lineto
32883 33763.8 lineto
32939.2 33820 lineto
33051.7 33876.3 lineto
stroke
newpath
34570.2 32695.2 moveto
33895.3 32695.2 lineto
stroke
newpath
34232.8 32695.2 moveto
34232.8 33876.3 lineto
34120.3 33707.5 lineto
34007.8 33595.1 lineto
33895.3 33538.8 lineto
stroke
newpath
35582.6 33876.3 moveto
35357.6 33876.3 lineto
35245.2 33820 lineto
35188.9 33763.8 lineto
35076.4 33595.1 lineto
35020.2 33370.1 lineto
35020.2 32920.1 lineto
35076.4 32807.7 lineto
35132.7 32751.4 lineto
35245.2 32695.2 lineto
35470.1 32695.2 lineto
35582.6 32751.4 lineto
35638.9 32807.7 lineto
35695.1 32920.1 lineto
35695.1 33201.4 lineto
35638.9 33313.8 lineto
35582.6 33370.1 lineto
35470.1 33426.3 lineto
35245.2 33426.3 lineto
35132.7 33370.1 lineto
35076.4 33313.8 lineto
35020.2 33201.4 lineto
stroke
newpath
36145 33876.3 moveto
36145 33651.3 lineto
stroke
newpath
36595 33876.3 moveto
36595 33651.3 lineto
stroke
newpath
38338.5 32245.2 moveto
38282.3 32301.5 lineto
38169.8 32470.2 lineto
38113.6 32582.7 lineto
38057.3 32751.4 lineto
38001.1 33032.6 lineto
38001.1 33257.6 lineto
38057.3 33538.8 lineto
38113.6 33707.5 lineto
38169.8 33820 lineto
38282.3 33988.8 lineto
38338.5 34045 lineto
stroke
newpath
39350.9 33876.3 moveto
38788.5 33876.3 lineto
38732.2 33313.8 lineto
38788.5 33370.1 lineto
38901 33426.3 lineto
39182.2 33426.3 lineto
39294.7 33370.1 lineto
39350.9 33313.8 lineto
39407.1 33201.4 lineto
39407.1 32920.1 lineto
39350.9 32807.7 lineto
39294.7 32751.4 lineto
39182.2 32695.2 lineto
38901 32695.2 lineto
38788.5 32751.4 lineto
38732.2 32807.7 lineto
stroke
newpath
40475.8 33876.3 moveto
39913.3 33876.3 lineto
39857.1 33313.8 lineto
39913.3 33370.1 lineto
40025.8 33426.3 lineto
40307 33426.3 lineto
40419.5 33370.1 lineto
40475.8 33313.8 lineto
40532 33201.4 lineto
40532 32920.1 lineto
40475.8 32807.7 lineto
40419.5 32751.4 lineto
40307 32695.2 lineto
40025.8 32695.2 lineto
39913.3 32751.4 lineto
39857.1 32807.7 lineto
stroke
newpath
41938.1 32695.2 moveto
41938.1 33876.3 lineto
stroke
newpath
42444.3 32695.2 moveto
42444.3 33313.8 lineto
42388 33426.3 lineto
42275.5 33482.6 lineto
42106.8 33482.6 lineto
41994.3 33426.3 lineto
41938.1 33370.1 lineto
stroke
newpath
43175.4 32695.2 moveto
43062.9 32751.4 lineto
43006.7 32807.7 lineto
42950.4 32920.1 lineto
42950.4 33257.6 lineto
43006.7 33370.1 lineto
43062.9 33426.3 lineto
43175.4 33482.6 lineto
43344.1 33482.6 lineto
43456.6 33426.3 lineto
43512.9 33370.1 lineto
43569.1 33257.6 lineto
43569.1 32920.1 lineto
43512.9 32807.7 lineto
43456.6 32751.4 lineto
43344.1 32695.2 lineto
43175.4 32695.2 lineto
stroke
newpath
44244 32695.2 moveto
44131.5 32751.4 lineto
44075.3 32863.9 lineto
44075.3 33876.3 lineto
stroke
newpath
45143.9 32751.4 moveto
45031.4 32695.2 lineto
44806.5 32695.2 lineto
44694 32751.4 lineto
44637.7 32863.9 lineto
44637.7 33313.8 lineto
44694 33426.3 lineto
44806.5 33482.6 lineto
45031.4 33482.6 lineto
45143.9 33426.3 lineto
45200.2 33313.8 lineto
45200.2 33201.4 lineto
44637.7 33088.9 lineto
stroke
newpath
45650.1 32751.4 moveto
45762.6 32695.2 lineto
45987.6 32695.2 lineto
46100.1 32751.4 lineto
46156.3 32863.9 lineto
46156.3 32920.1 lineto
46100.1 33032.6 lineto
45987.6 33088.9 lineto
45818.8 33088.9 lineto
45706.4 33145.1 lineto
45650.1 33257.6 lineto
45650.1 33313.8 lineto
45706.4 33426.3 lineto
45818.8 33482.6 lineto
45987.6 33482.6 lineto
46100.1 33426.3 lineto
stroke
newpath
46550 32245.2 moveto
46606.2 32301.5 lineto
46718.7 32470.2 lineto
46775 32582.7 lineto
46831.2 32751.4 lineto
46887.5 33032.6 lineto
46887.5 33257.6 lineto
46831.2 33538.8 lineto
46775 33707.5 lineto
46718.7 33820 lineto
46606.2 33988.8 lineto
46550 34045 lineto
stroke
19599.3 31670.4 288.75 cir0
0 0 0 setrgbcolor
0 0 0 setrgbcolor
newpath
21240.7 32317.2 moveto
21353.1 32317.2 lineto
21465.6 32261 lineto
21521.9 32204.7 lineto
21578.1 32092.2 lineto
21634.4 31867.3 lineto
21634.4 31586.1 lineto
21578.1 31361.1 lineto
21521.9 31248.6 lineto
21465.6 31192.4 lineto
21353.1 31136.1 lineto
21240.7 31136.1 lineto
21128.2 31192.4 lineto
21071.9 31248.6 lineto
21015.7 31361.1 lineto
20959.4 31586.1 lineto
20959.4 31867.3 lineto
21015.7 32092.2 lineto
21071.9 32204.7 lineto
21128.2 32261 lineto
21240.7 32317.2 lineto
stroke
newpath
22140.5 31248.6 moveto
22196.8 31192.4 lineto
22140.5 31136.1 lineto
22084.3 31192.4 lineto
22140.5 31248.6 lineto
22140.5 31136.1 lineto
stroke
newpath
22590.5 32317.2 moveto
23377.9 32317.2 lineto
22871.7 31136.1 lineto
stroke
newpath
24390.3 32317.2 moveto
23827.8 32317.2 lineto
23771.6 31754.8 lineto
23827.8 31811 lineto
23940.3 31867.3 lineto
24221.5 31867.3 lineto
24334 31811 lineto
24390.3 31754.8 lineto
24446.5 31642.3 lineto
24446.5 31361.1 lineto
24390.3 31248.6 lineto
24334 31192.4 lineto
24221.5 31136.1 lineto
23940.3 31136.1 lineto
23827.8 31192.4 lineto
23771.6 31248.6 lineto
stroke
newpath
24952.7 31136.1 moveto
24952.7 31923.5 lineto
stroke
newpath
24952.7 31811 moveto
25008.9 31867.3 lineto
25121.4 31923.5 lineto
25290.2 31923.5 lineto
25402.6 31867.3 lineto
25458.9 31754.8 lineto
25458.9 31136.1 lineto
stroke
newpath
25458.9 31754.8 moveto
25515.1 31867.3 lineto
25627.6 31923.5 lineto
25796.3 31923.5 lineto
25908.8 31867.3 lineto
25965.1 31754.8 lineto
25965.1 31136.1 lineto
stroke
newpath
26527.5 31136.1 moveto
26527.5 31923.5 lineto
stroke
newpath
26527.5 31811 moveto
26583.7 31867.3 lineto
26696.2 31923.5 lineto
26865 31923.5 lineto
26977.4 31867.3 lineto
27033.7 31754.8 lineto
27033.7 31136.1 lineto
stroke
newpath
27033.7 31754.8 moveto
27089.9 31867.3 lineto
27202.4 31923.5 lineto
27371.1 31923.5 lineto
27483.6 31867.3 lineto
27539.9 31754.8 lineto
27539.9 31136.1 lineto
stroke
newpath
29845.8 32373.5 moveto
28833.5 30854.9 lineto
stroke
newpath
31364.4 32317.2 moveto
31476.9 32317.2 lineto
31589.4 32261 lineto
31645.6 32204.7 lineto
31701.9 32092.2 lineto
31758.1 31867.3 lineto
31758.1 31586.1 lineto
31701.9 31361.1 lineto
31645.6 31248.6 lineto
31589.4 31192.4 lineto
31476.9 31136.1 lineto
31364.4 31136.1 lineto
31251.9 31192.4 lineto
31195.7 31248.6 lineto
31139.4 31361.1 lineto
31083.2 31586.1 lineto
31083.2 31867.3 lineto
31139.4 32092.2 lineto
31195.7 32204.7 lineto
31251.9 32261 lineto
31364.4 32317.2 lineto
stroke
newpath
32264.3 31248.6 moveto
32320.5 31192.4 lineto
32264.3 31136.1 lineto
32208 31192.4 lineto
32264.3 31248.6 lineto
32264.3 31136.1 lineto
stroke
newpath
33051.7 32317.2 moveto
33164.2 32317.2 lineto
33276.7 32261 lineto
33332.9 32204.7 lineto
33389.1 32092.2 lineto
33445.4 31867.3 lineto
33445.4 31586.1 lineto
33389.1 31361.1 lineto
33332.9 31248.6 lineto
33276.7 31192.4 lineto
33164.2 31136.1 lineto
33051.7 31136.1 lineto
32939.2 31192.4 lineto
32883 31248.6 lineto
32826.7 31361.1 lineto
32770.5 31586.1 lineto
32770.5 31867.3 lineto
32826.7 32092.2 lineto
32883 32204.7 lineto
32939.2 32261 lineto
33051.7 32317.2 lineto
stroke
newpath
33839.1 32317.2 moveto
34570.2 32317.2 lineto
34176.5 31867.3 lineto
34345.3 31867.3 lineto
34457.8 31811 lineto
34514 31754.8 lineto
34570.2 31642.3 lineto
34570.2 31361.1 lineto
34514 31248.6 lineto
34457.8 31192.4 lineto
34345.3 31136.1 lineto
34007.8 31136.1 lineto
33895.3 31192.4 lineto
33839.1 31248.6 lineto
stroke
newpath
35301.4 32317.2 moveto
35413.9 32317.2 lineto
35526.4 32261 lineto
35582.6 32204.7 lineto
35638.9 32092.2 lineto
35695.1 31867.3 lineto
35695.1 31586.1 lineto
35638.9 31361.1 lineto
35582.6 31248.6 lineto
35526.4 31192.4 lineto
35413.9 31136.1 lineto
35301.4 31136.1 lineto
35188.9 31192.4 lineto
35132.7 31248.6 lineto
35076.4 31361.1 lineto
35020.2 31586.1 lineto
35020.2 31867.3 lineto
35076.4 32092.2 lineto
35132.7 32204.7 lineto
35188.9 32261 lineto
35301.4 32317.2 lineto
stroke
newpath
36145 32317.2 moveto
36145 32092.2 lineto
stroke
newpath
36595 32317.2 moveto
36595 32092.2 lineto
stroke
newpath
38338.5 30686.2 moveto
38282.3 30742.4 lineto
38169.8 30911.1 lineto
38113.6 31023.6 lineto
38057.3 31192.4 lineto
38001.1 31473.6 lineto
38001.1 31698.5 lineto
38057.3 31979.8 lineto
38113.6 32148.5 lineto
38169.8 32261 lineto
38282.3 32429.7 lineto
38338.5 32485.9 lineto
stroke
newpath
39294.7 31923.5 moveto
39294.7 31136.1 lineto
stroke
newpath
39013.4 32373.5 moveto
38732.2 31529.8 lineto
39463.4 31529.8 lineto
stroke
newpath
40813.2 31136.1 moveto
40813.2 32317.2 lineto
stroke
newpath
41319.4 31136.1 moveto
41319.4 31754.8 lineto
41263.2 31867.3 lineto
41150.7 31923.5 lineto
40981.9 31923.5 lineto
40869.5 31867.3 lineto
40813.2 31811 lineto
stroke
newpath
42050.6 31136.1 moveto
41938.1 31192.4 lineto
41881.8 31248.6 lineto
41825.6 31361.1 lineto
41825.6 31698.5 lineto
41881.8 31811 lineto
41938.1 31867.3 lineto
42050.6 31923.5 lineto
42219.3 31923.5 lineto
42331.8 31867.3 lineto
42388 31811 lineto
42444.3 31698.5 lineto
42444.3 31361.1 lineto
42388 31248.6 lineto
42331.8 31192.4 lineto
42219.3 31136.1 lineto
42050.6 31136.1 lineto
stroke
newpath
43119.2 31136.1 moveto
43006.7 31192.4 lineto
42950.4 31304.8 lineto
42950.4 32317.2 lineto
stroke
newpath
44019.1 31192.4 moveto
43906.6 31136.1 lineto
43681.6 31136.1 lineto
43569.1 31192.4 lineto
43512.9 31304.8 lineto
43512.9 31754.8 lineto
43569.1 31867.3 lineto
43681.6 31923.5 lineto
43906.6 31923.5 lineto
44019.1 31867.3 lineto
44075.3 31754.8 lineto
44075.3 31642.3 lineto
43512.9 31529.8 lineto
stroke
newpath
44525.3 31192.4 moveto
44637.7 31136.1 lineto
44862.7 31136.1 lineto
44975.2 31192.4 lineto
45031.4 31304.8 lineto
45031.4 31361.1 lineto
44975.2 31473.6 lineto
44862.7 31529.8 lineto
44694 31529.8 lineto
44581.5 31586.1 lineto
44525.3 31698.5 lineto
44525.3 31754.8 lineto
44581.5 31867.3 lineto
44694 31923.5 lineto
44862.7 31923.5 lineto
44975.2 31867.3 lineto
stroke
newpath
45425.1 30686.2 moveto
45481.4 30742.4 lineto
45593.9 30911.1 lineto
45650.1 31023.6 lineto
45706.4 31192.4 lineto
45762.6 31473.6 lineto
45762.6 31698.5 lineto
45706.4 31979.8 lineto
45650.1 32148.5 lineto
45593.9 32261 lineto
45481.4 32429.7 lineto
45425.1 32485.9 lineto
stroke
newpath
19594.6 30404.7 moveto
19594.6 29818 lineto
stroke
newpath
19301.3 30111.4 moveto
19888 30111.4 lineto
stroke
0 0 0 setrgbcolor
0 0 0 setrgbcolor
newpath
21240.7 30758.2 moveto
21353.1 30758.2 lineto
21465.6 30701.9 lineto
21521.9 30645.7 lineto
21578.1 30533.2 lineto
21634.4 30308.2 lineto
21634.4 30027 lineto
21578.1 29802 lineto
21521.9 29689.5 lineto
21465.6 29633.3 lineto
21353.1 29577.1 lineto
21240.7 29577.1 lineto
21128.2 29633.3 lineto
21071.9 29689.5 lineto
21015.7 29802 lineto
20959.4 30027 lineto
20959.4 30308.2 lineto
21015.7 30533.2 lineto
21071.9 30645.7 lineto
21128.2 30701.9 lineto
21240.7 30758.2 lineto
stroke
newpath
22140.5 29689.5 moveto
22196.8 29633.3 lineto
22140.5 29577.1 lineto
22084.3 29633.3 lineto
22140.5 29689.5 lineto
22140.5 29577.1 lineto
stroke
newpath
22590.5 30758.2 moveto
23377.9 30758.2 lineto
22871.7 29577.1 lineto
stroke
newpath
24334 30758.2 moveto
24109.1 30758.2 lineto
23996.6 30701.9 lineto
23940.3 30645.7 lineto
23827.8 30476.9 lineto
23771.6 30252 lineto
23771.6 29802 lineto
23827.8 29689.5 lineto
23884.1 29633.3 lineto
23996.6 29577.1 lineto
24221.5 29577.1 lineto
24334 29633.3 lineto
24390.3 29689.5 lineto
24446.5 29802 lineto
24446.5 30083.2 lineto
24390.3 30195.7 lineto
24334 30252 lineto
24221.5 30308.2 lineto
23996.6 30308.2 lineto
23884.1 30252 lineto
23827.8 30195.7 lineto
23771.6 30083.2 lineto
stroke
newpath
24952.7 29577.1 moveto
24952.7 30364.5 lineto
stroke
newpath
24952.7 30252 moveto
25008.9 30308.2 lineto
25121.4 30364.5 lineto
25290.2 30364.5 lineto
25402.6 30308.2 lineto
25458.9 30195.7 lineto
25458.9 29577.1 lineto
stroke
newpath
25458.9 30195.7 moveto
25515.1 30308.2 lineto
25627.6 30364.5 lineto
25796.3 30364.5 lineto
25908.8 30308.2 lineto
25965.1 30195.7 lineto
25965.1 29577.1 lineto
stroke
newpath
26527.5 29577.1 moveto
26527.5 30364.5 lineto
stroke
newpath
26527.5 30252 moveto
26583.7 30308.2 lineto
26696.2 30364.5 lineto
26865 30364.5 lineto
26977.4 30308.2 lineto
27033.7 30195.7 lineto
27033.7 29577.1 lineto
stroke
newpath
27033.7 30195.7 moveto
27089.9 30308.2 lineto
27202.4 30364.5 lineto
27371.1 30364.5 lineto
27483.6 30308.2 lineto
27539.9 30195.7 lineto
27539.9 29577.1 lineto
stroke
newpath
29845.8 30814.4 moveto
28833.5 29295.8 lineto
stroke
newpath
31364.4 30758.2 moveto
31476.9 30758.2 lineto
31589.4 30701.9 lineto
31645.6 30645.7 lineto
31701.9 30533.2 lineto
31758.1 30308.2 lineto
31758.1 30027 lineto
31701.9 29802 lineto
31645.6 29689.5 lineto
31589.4 29633.3 lineto
31476.9 29577.1 lineto
31364.4 29577.1 lineto
31251.9 29633.3 lineto
31195.7 29689.5 lineto
31139.4 29802 lineto
31083.2 30027 lineto
31083.2 30308.2 lineto
31139.4 30533.2 lineto
31195.7 30645.7 lineto
31251.9 30701.9 lineto
31364.4 30758.2 lineto
stroke
newpath
32264.3 29689.5 moveto
32320.5 29633.3 lineto
32264.3 29577.1 lineto
32208 29633.3 lineto
32264.3 29689.5 lineto
32264.3 29577.1 lineto
stroke
newpath
33051.7 30758.2 moveto
33164.2 30758.2 lineto
33276.7 30701.9 lineto
33332.9 30645.7 lineto
33389.1 30533.2 lineto
33445.4 30308.2 lineto
33445.4 30027 lineto
33389.1 29802 lineto
33332.9 29689.5 lineto
33276.7 29633.3 lineto
33164.2 29577.1 lineto
33051.7 29577.1 lineto
32939.2 29633.3 lineto
32883 29689.5 lineto
32826.7 29802 lineto
32770.5 30027 lineto
32770.5 30308.2 lineto
32826.7 30533.2 lineto
32883 30645.7 lineto
32939.2 30701.9 lineto
33051.7 30758.2 lineto
stroke
newpath
33839.1 30758.2 moveto
34570.2 30758.2 lineto
34176.5 30308.2 lineto
34345.3 30308.2 lineto
34457.8 30252 lineto
34514 30195.7 lineto
34570.2 30083.2 lineto
34570.2 29802 lineto
34514 29689.5 lineto
34457.8 29633.3 lineto
34345.3 29577.1 lineto
34007.8 29577.1 lineto
33895.3 29633.3 lineto
33839.1 29689.5 lineto
stroke
newpath
35301.4 30758.2 moveto
35413.9 30758.2 lineto
35526.4 30701.9 lineto
35582.6 30645.7 lineto
35638.9 30533.2 lineto
35695.1 30308.2 lineto
35695.1 30027 lineto
35638.9 29802 lineto
35582.6 29689.5 lineto
35526.4 29633.3 lineto
35413.9 29577.1 lineto
35301.4 29577.1 lineto
35188.9 29633.3 lineto
35132.7 29689.5 lineto
35076.4 29802 lineto
35020.2 30027 lineto
35020.2 30308.2 lineto
35076.4 30533.2 lineto
35132.7 30645.7 lineto
35188.9 30701.9 lineto
35301.4 30758.2 lineto
stroke
newpath
36145 30758.2 moveto
36145 30533.2 lineto
stroke
newpath
36595 30758.2 moveto
36595 30533.2 lineto
stroke
newpath
38338.5 29127.1 moveto
38282.3 29183.4 lineto
38169.8 29352.1 lineto
38113.6 29464.6 lineto
38057.3 29633.3 lineto
38001.1 29914.5 lineto
38001.1 30139.5 lineto
38057.3 30420.7 lineto
38113.6 30589.4 lineto
38169.8 30701.9 lineto
38282.3 30870.7 lineto
38338.5 30926.9 lineto
stroke
newpath
38732.2 30645.7 moveto
38788.5 30701.9 lineto
38901 30758.2 lineto
39182.2 30758.2 lineto
39294.7 30701.9 lineto
39350.9 30645.7 lineto
39407.1 30533.2 lineto
39407.1 30420.7 lineto
39350.9 30252 lineto
38676 29577.1 lineto
39407.1 29577.1 lineto
stroke
newpath
40082.1 30252 moveto
39969.6 30308.2 lineto
39913.3 30364.5 lineto
39857.1 30476.9 lineto
39857.1 30533.2 lineto
39913.3 30645.7 lineto
39969.6 30701.9 lineto
40082.1 30758.2 lineto
40307 30758.2 lineto
40419.5 30701.9 lineto
40475.8 30645.7 lineto
40532 30533.2 lineto
40532 30476.9 lineto
40475.8 30364.5 lineto
40419.5 30308.2 lineto
40307 30252 lineto
40082.1 30252 lineto
39969.6 30195.7 lineto
39913.3 30139.5 lineto
39857.1 30027 lineto
39857.1 29802 lineto
39913.3 29689.5 lineto
39969.6 29633.3 lineto
40082.1 29577.1 lineto
40307 29577.1 lineto
40419.5 29633.3 lineto
40475.8 29689.5 lineto
40532 29802 lineto
40532 30027 lineto
40475.8 30139.5 lineto
40419.5 30195.7 lineto
40307 30252 lineto
stroke
newpath
41938.1 29577.1 moveto
41938.1 30758.2 lineto
stroke
newpath
42444.3 29577.1 moveto
42444.3 30195.7 lineto
42388 30308.2 lineto
42275.5 30364.5 lineto
42106.8 30364.5 lineto
41994.3 30308.2 lineto
41938.1 30252 lineto
stroke
newpath
43175.4 29577.1 moveto
43062.9 29633.3 lineto
43006.7 29689.5 lineto
42950.4 29802 lineto
42950.4 30139.5 lineto
43006.7 30252 lineto
43062.9 30308.2 lineto
43175.4 30364.5 lineto
43344.1 30364.5 lineto
43456.6 30308.2 lineto
43512.9 30252 lineto
43569.1 30139.5 lineto
43569.1 29802 lineto
43512.9 29689.5 lineto
43456.6 29633.3 lineto
43344.1 29577.1 lineto
43175.4 29577.1 lineto
stroke
newpath
44244 29577.1 moveto
44131.5 29633.3 lineto
44075.3 29745.8 lineto
44075.3 30758.2 lineto
stroke
newpath
45143.9 29633.3 moveto
45031.4 29577.1 lineto
44806.5 29577.1 lineto
44694 29633.3 lineto
44637.7 29745.8 lineto
44637.7 30195.7 lineto
44694 30308.2 lineto
44806.5 30364.5 lineto
45031.4 30364.5 lineto
45143.9 30308.2 lineto
45200.2 30195.7 lineto
45200.2 30083.2 lineto
44637.7 29970.8 lineto
stroke
newpath
45650.1 29633.3 moveto
45762.6 29577.1 lineto
45987.6 29577.1 lineto
46100.1 29633.3 lineto
46156.3 29745.8 lineto
46156.3 29802 lineto
46100.1 29914.5 lineto
45987.6 29970.8 lineto
45818.8 29970.8 lineto
45706.4 30027 lineto
45650.1 30139.5 lineto
45650.1 30195.7 lineto
45706.4 30308.2 lineto
45818.8 30364.5 lineto
45987.6 30364.5 lineto
46100.1 30308.2 lineto
stroke
newpath
46550 29127.1 moveto
46606.2 29183.4 lineto
46718.7 29352.1 lineto
46775 29464.6 lineto
46831.2 29633.3 lineto
46887.5 29914.5 lineto
46887.5 30139.5 lineto
46831.2 30420.7 lineto
46775 30589.4 lineto
46718.7 30701.9 lineto
46606.2 30870.7 lineto
46550 30926.9 lineto
stroke
newpath
19775.3 28280.1 moveto
19775.3 28824.6 lineto
19230.8 28824.6 lineto
19230.8 28280.1 lineto
19775.3 28280.1 lineto
poly0
0 0 0 setrgbcolor
0 0 0 setrgbcolor
newpath
21634.4 28018 moveto
20959.4 28018 lineto
stroke
newpath
21296.9 28018 moveto
21296.9 29199.1 lineto
21184.4 29030.4 lineto
21071.9 28917.9 lineto
20959.4 28861.7 lineto
stroke
newpath
22140.5 28130.5 moveto
22196.8 28074.2 lineto
22140.5 28018 lineto
22084.3 28074.2 lineto
22140.5 28130.5 lineto
22140.5 28018 lineto
stroke
newpath
22927.9 29199.1 moveto
23040.4 29199.1 lineto
23152.9 29142.9 lineto
23209.2 29086.6 lineto
23265.4 28974.1 lineto
23321.6 28749.2 lineto
23321.6 28467.9 lineto
23265.4 28243 lineto
23209.2 28130.5 lineto
23152.9 28074.2 lineto
23040.4 28018 lineto
22927.9 28018 lineto
22815.5 28074.2 lineto
22759.2 28130.5 lineto
22703 28243 lineto
22646.7 28467.9 lineto
22646.7 28749.2 lineto
22703 28974.1 lineto
22759.2 29086.6 lineto
22815.5 29142.9 lineto
22927.9 29199.1 lineto
stroke
newpath
24052.8 29199.1 moveto
24165.3 29199.1 lineto
24277.8 29142.9 lineto
24334 29086.6 lineto
24390.3 28974.1 lineto
24446.5 28749.2 lineto
24446.5 28467.9 lineto
24390.3 28243 lineto
24334 28130.5 lineto
24277.8 28074.2 lineto
24165.3 28018 lineto
24052.8 28018 lineto
23940.3 28074.2 lineto
23884.1 28130.5 lineto
23827.8 28243 lineto
23771.6 28467.9 lineto
23771.6 28749.2 lineto
23827.8 28974.1 lineto
23884.1 29086.6 lineto
23940.3 29142.9 lineto
24052.8 29199.1 lineto
stroke
newpath
24952.7 28018 moveto
24952.7 28805.4 lineto
stroke
newpath
24952.7 28692.9 moveto
25008.9 28749.2 lineto
25121.4 28805.4 lineto
25290.2 28805.4 lineto
25402.6 28749.2 lineto
25458.9 28636.7 lineto
25458.9 28018 lineto
stroke
newpath
25458.9 28636.7 moveto
25515.1 28749.2 lineto
25627.6 28805.4 lineto
25796.3 28805.4 lineto
25908.8 28749.2 lineto
25965.1 28636.7 lineto
25965.1 28018 lineto
stroke
newpath
26527.5 28018 moveto
26527.5 28805.4 lineto
stroke
newpath
26527.5 28692.9 moveto
26583.7 28749.2 lineto
26696.2 28805.4 lineto
26865 28805.4 lineto
26977.4 28749.2 lineto
27033.7 28636.7 lineto
27033.7 28018 lineto
stroke
newpath
27033.7 28636.7 moveto
27089.9 28749.2 lineto
27202.4 28805.4 lineto
27371.1 28805.4 lineto
27483.6 28749.2 lineto
27539.9 28636.7 lineto
27539.9 28018 lineto
stroke
newpath
29845.8 29255.4 moveto
28833.5 27736.8 lineto
stroke
newpath
31364.4 29199.1 moveto
31476.9 29199.1 lineto
31589.4 29142.9 lineto
31645.6 29086.6 lineto
31701.9 28974.1 lineto
31758.1 28749.2 lineto
31758.1 28467.9 lineto
31701.9 28243 lineto
31645.6 28130.5 lineto
31589.4 28074.2 lineto
31476.9 28018 lineto
31364.4 28018 lineto
31251.9 28074.2 lineto
31195.7 28130.5 lineto
31139.4 28243 lineto
31083.2 28467.9 lineto
31083.2 28749.2 lineto
31139.4 28974.1 lineto
31195.7 29086.6 lineto
31251.9 29142.9 lineto
31364.4 29199.1 lineto
stroke
newpath
32264.3 28130.5 moveto
32320.5 28074.2 lineto
32264.3 28018 lineto
32208 28074.2 lineto
32264.3 28130.5 lineto
32264.3 28018 lineto
stroke
newpath
33051.7 29199.1 moveto
33164.2 29199.1 lineto
33276.7 29142.9 lineto
33332.9 29086.6 lineto
33389.1 28974.1 lineto
33445.4 28749.2 lineto
33445.4 28467.9 lineto
33389.1 28243 lineto
33332.9 28130.5 lineto
33276.7 28074.2 lineto
33164.2 28018 lineto
33051.7 28018 lineto
32939.2 28074.2 lineto
32883 28130.5 lineto
32826.7 28243 lineto
32770.5 28467.9 lineto
32770.5 28749.2 lineto
32826.7 28974.1 lineto
32883 29086.6 lineto
32939.2 29142.9 lineto
33051.7 29199.1 lineto
stroke
newpath
33839.1 29199.1 moveto
34570.2 29199.1 lineto
34176.5 28749.2 lineto
34345.3 28749.2 lineto
34457.8 28692.9 lineto
34514 28636.7 lineto
34570.2 28524.2 lineto
34570.2 28243 lineto
34514 28130.5 lineto
34457.8 28074.2 lineto
34345.3 28018 lineto
34007.8 28018 lineto
33895.3 28074.2 lineto
33839.1 28130.5 lineto
stroke
newpath
35132.7 28018 moveto
35357.6 28018 lineto
35470.1 28074.2 lineto
35526.4 28130.5 lineto
35638.9 28299.2 lineto
35695.1 28524.2 lineto
35695.1 28974.1 lineto
35638.9 29086.6 lineto
35582.6 29142.9 lineto
35470.1 29199.1 lineto
35245.2 29199.1 lineto
35132.7 29142.9 lineto
35076.4 29086.6 lineto
35020.2 28974.1 lineto
35020.2 28692.9 lineto
35076.4 28580.4 lineto
35132.7 28524.2 lineto
35245.2 28467.9 lineto
35470.1 28467.9 lineto
35582.6 28524.2 lineto
35638.9 28580.4 lineto
35695.1 28692.9 lineto
stroke
newpath
36145 29199.1 moveto
36145 28974.1 lineto
stroke
newpath
36595 29199.1 moveto
36595 28974.1 lineto
stroke
newpath
38338.5 27568.1 moveto
38282.3 27624.3 lineto
38169.8 27793 lineto
38113.6 27905.5 lineto
38057.3 28074.2 lineto
38001.1 28355.5 lineto
38001.1 28580.4 lineto
38057.3 28861.7 lineto
38113.6 29030.4 lineto
38169.8 29142.9 lineto
38282.3 29311.6 lineto
38338.5 29367.8 lineto
stroke
newpath
39294.7 29199.1 moveto
39069.7 29199.1 lineto
38957.2 29142.9 lineto
38901 29086.6 lineto
38788.5 28917.9 lineto
38732.2 28692.9 lineto
38732.2 28243 lineto
38788.5 28130.5 lineto
38844.7 28074.2 lineto
38957.2 28018 lineto
39182.2 28018 lineto
39294.7 28074.2 lineto
39350.9 28130.5 lineto
39407.1 28243 lineto
39407.1 28524.2 lineto
39350.9 28636.7 lineto
39294.7 28692.9 lineto
39182.2 28749.2 lineto
38957.2 28749.2 lineto
38844.7 28692.9 lineto
38788.5 28636.7 lineto
38732.2 28524.2 lineto
stroke
newpath
40813.2 28018 moveto
40813.2 29199.1 lineto
stroke
newpath
41319.4 28018 moveto
41319.4 28636.7 lineto
41263.2 28749.2 lineto
41150.7 28805.4 lineto
40981.9 28805.4 lineto
40869.5 28749.2 lineto
40813.2 28692.9 lineto
stroke
newpath
42050.6 28018 moveto
41938.1 28074.2 lineto
41881.8 28130.5 lineto
41825.6 28243 lineto
41825.6 28580.4 lineto
41881.8 28692.9 lineto
41938.1 28749.2 lineto
42050.6 28805.4 lineto
42219.3 28805.4 lineto
42331.8 28749.2 lineto
42388 28692.9 lineto
42444.3 28580.4 lineto
42444.3 28243 lineto
42388 28130.5 lineto
42331.8 28074.2 lineto
42219.3 28018 lineto
42050.6 28018 lineto
stroke
newpath
43119.2 28018 moveto
43006.7 28074.2 lineto
42950.4 28186.7 lineto
42950.4 29199.1 lineto
stroke
newpath
44019.1 28074.2 moveto
43906.6 28018 lineto
43681.6 28018 lineto
43569.1 28074.2 lineto
43512.9 28186.7 lineto
43512.9 28636.7 lineto
43569.1 28749.2 lineto
43681.6 28805.4 lineto
43906.6 28805.4 lineto
44019.1 28749.2 lineto
44075.3 28636.7 lineto
44075.3 28524.2 lineto
43512.9 28411.7 lineto
stroke
newpath
44525.3 28074.2 moveto
44637.7 28018 lineto
44862.7 28018 lineto
44975.2 28074.2 lineto
45031.4 28186.7 lineto
45031.4 28243 lineto
44975.2 28355.5 lineto
44862.7 28411.7 lineto
44694 28411.7 lineto
44581.5 28467.9 lineto
44525.3 28580.4 lineto
44525.3 28636.7 lineto
44581.5 28749.2 lineto
44694 28805.4 lineto
44862.7 28805.4 lineto
44975.2 28749.2 lineto
stroke
newpath
45425.1 27568.1 moveto
45481.4 27624.3 lineto
45593.9 27793 lineto
45650.1 27905.5 lineto
45706.4 28074.2 lineto
45762.6 28355.5 lineto
45762.6 28580.4 lineto
45706.4 28861.7 lineto
45650.1 29030.4 lineto
45593.9 29142.9 lineto
45481.4 29311.6 lineto
45425.1 29367.8 lineto
stroke
newpath
19387.5 26492.8 moveto
19888 26993.3 lineto
19387.5 27493.8 lineto
18887 26993.3 lineto
19387.5 26492.8 lineto
poly0
0 0 0 setrgbcolor
0 0 0 setrgbcolor
newpath
21634.4 26459 moveto
20959.4 26459 lineto
stroke
newpath
21296.9 26459 moveto
21296.9 27640.1 lineto
21184.4 27471.3 lineto
21071.9 27358.8 lineto
20959.4 27302.6 lineto
stroke
newpath
22140.5 26571.4 moveto
22196.8 26515.2 lineto
22140.5 26459 lineto
22084.3 26515.2 lineto
22140.5 26571.4 lineto
22140.5 26459 lineto
stroke
newpath
22590.5 27640.1 moveto
23321.6 27640.1 lineto
22927.9 27190.1 lineto
23096.7 27190.1 lineto
23209.2 27133.9 lineto
23265.4 27077.6 lineto
23321.6 26965.1 lineto
23321.6 26683.9 lineto
23265.4 26571.4 lineto
23209.2 26515.2 lineto
23096.7 26459 lineto
22759.2 26459 lineto
22646.7 26515.2 lineto
22590.5 26571.4 lineto
stroke
newpath
24052.8 27640.1 moveto
24165.3 27640.1 lineto
24277.8 27583.8 lineto
24334 27527.6 lineto
24390.3 27415.1 lineto
24446.5 27190.1 lineto
24446.5 26908.9 lineto
24390.3 26683.9 lineto
24334 26571.4 lineto
24277.8 26515.2 lineto
24165.3 26459 lineto
24052.8 26459 lineto
23940.3 26515.2 lineto
23884.1 26571.4 lineto
23827.8 26683.9 lineto
23771.6 26908.9 lineto
23771.6 27190.1 lineto
23827.8 27415.1 lineto
23884.1 27527.6 lineto
23940.3 27583.8 lineto
24052.8 27640.1 lineto
stroke
newpath
24952.7 26459 moveto
24952.7 27246.4 lineto
stroke
newpath
24952.7 27133.9 moveto
25008.9 27190.1 lineto
25121.4 27246.4 lineto
25290.2 27246.4 lineto
25402.6 27190.1 lineto
25458.9 27077.6 lineto
25458.9 26459 lineto
stroke
newpath
25458.9 27077.6 moveto
25515.1 27190.1 lineto
25627.6 27246.4 lineto
25796.3 27246.4 lineto
25908.8 27190.1 lineto
25965.1 27077.6 lineto
25965.1 26459 lineto
stroke
newpath
26527.5 26459 moveto
26527.5 27246.4 lineto
stroke
newpath
26527.5 27133.9 moveto
26583.7 27190.1 lineto
26696.2 27246.4 lineto
26865 27246.4 lineto
26977.4 27190.1 lineto
27033.7 27077.6 lineto
27033.7 26459 lineto
stroke
newpath
27033.7 27077.6 moveto
27089.9 27190.1 lineto
27202.4 27246.4 lineto
27371.1 27246.4 lineto
27483.6 27190.1 lineto
27539.9 27077.6 lineto
27539.9 26459 lineto
stroke
newpath
29845.8 27696.3 moveto
28833.5 26177.7 lineto
stroke
newpath
31364.4 27640.1 moveto
31476.9 27640.1 lineto
31589.4 27583.8 lineto
31645.6 27527.6 lineto
31701.9 27415.1 lineto
31758.1 27190.1 lineto
31758.1 26908.9 lineto
31701.9 26683.9 lineto
31645.6 26571.4 lineto
31589.4 26515.2 lineto
31476.9 26459 lineto
31364.4 26459 lineto
31251.9 26515.2 lineto
31195.7 26571.4 lineto
31139.4 26683.9 lineto
31083.2 26908.9 lineto
31083.2 27190.1 lineto
31139.4 27415.1 lineto
31195.7 27527.6 lineto
31251.9 27583.8 lineto
31364.4 27640.1 lineto
stroke
newpath
32264.3 26571.4 moveto
32320.5 26515.2 lineto
32264.3 26459 lineto
32208 26515.2 lineto
32264.3 26571.4 lineto
32264.3 26459 lineto
stroke
newpath
33051.7 27640.1 moveto
33164.2 27640.1 lineto
33276.7 27583.8 lineto
33332.9 27527.6 lineto
33389.1 27415.1 lineto
33445.4 27190.1 lineto
33445.4 26908.9 lineto
33389.1 26683.9 lineto
33332.9 26571.4 lineto
33276.7 26515.2 lineto
33164.2 26459 lineto
33051.7 26459 lineto
32939.2 26515.2 lineto
32883 26571.4 lineto
32826.7 26683.9 lineto
32770.5 26908.9 lineto
32770.5 27190.1 lineto
32826.7 27415.1 lineto
32883 27527.6 lineto
32939.2 27583.8 lineto
33051.7 27640.1 lineto
stroke
newpath
34514 27640.1 moveto
33951.6 27640.1 lineto
33895.3 27077.6 lineto
33951.6 27133.9 lineto
34064.1 27190.1 lineto
34345.3 27190.1 lineto
34457.8 27133.9 lineto
34514 27077.6 lineto
34570.2 26965.1 lineto
34570.2 26683.9 lineto
34514 26571.4 lineto
34457.8 26515.2 lineto
34345.3 26459 lineto
34064.1 26459 lineto
33951.6 26515.2 lineto
33895.3 26571.4 lineto
stroke
newpath
35695.1 26459 moveto
35020.2 26459 lineto
stroke
newpath
35357.6 26459 moveto
35357.6 27640.1 lineto
35245.2 27471.3 lineto
35132.7 27358.8 lineto
35020.2 27302.6 lineto
stroke
newpath
36145 27640.1 moveto
36145 27415.1 lineto
stroke
newpath
36595 27640.1 moveto
36595 27415.1 lineto
stroke
newpath
38338.5 26009 moveto
38282.3 26065.2 lineto
38169.8 26234 lineto
38113.6 26346.5 lineto
38057.3 26515.2 lineto
38001.1 26796.4 lineto
38001.1 27021.4 lineto
38057.3 27302.6 lineto
38113.6 27471.3 lineto
38169.8 27583.8 lineto
38282.3 27752.5 lineto
38338.5 27808.8 lineto
stroke
newpath
39294.7 27640.1 moveto
39069.7 27640.1 lineto
38957.2 27583.8 lineto
38901 27527.6 lineto
38788.5 27358.8 lineto
38732.2 27133.9 lineto
38732.2 26683.9 lineto
38788.5 26571.4 lineto
38844.7 26515.2 lineto
38957.2 26459 lineto
39182.2 26459 lineto
39294.7 26515.2 lineto
39350.9 26571.4 lineto
39407.1 26683.9 lineto
39407.1 26965.1 lineto
39350.9 27077.6 lineto
39294.7 27133.9 lineto
39182.2 27190.1 lineto
38957.2 27190.1 lineto
38844.7 27133.9 lineto
38788.5 27077.6 lineto
38732.2 26965.1 lineto
stroke
newpath
40813.2 26459 moveto
40813.2 27640.1 lineto
stroke
newpath
41319.4 26459 moveto
41319.4 27077.6 lineto
41263.2 27190.1 lineto
41150.7 27246.4 lineto
40981.9 27246.4 lineto
40869.5 27190.1 lineto
40813.2 27133.9 lineto
stroke
newpath
42050.6 26459 moveto
41938.1 26515.2 lineto
41881.8 26571.4 lineto
41825.6 26683.9 lineto
41825.6 27021.4 lineto
41881.8 27133.9 lineto
41938.1 27190.1 lineto
42050.6 27246.4 lineto
42219.3 27246.4 lineto
42331.8 27190.1 lineto
42388 27133.9 lineto
42444.3 27021.4 lineto
42444.3 26683.9 lineto
42388 26571.4 lineto
42331.8 26515.2 lineto
42219.3 26459 lineto
42050.6 26459 lineto
stroke
newpath
43119.2 26459 moveto
43006.7 26515.2 lineto
42950.4 26627.7 lineto
42950.4 27640.1 lineto
stroke
newpath
44019.1 26515.2 moveto
43906.6 26459 lineto
43681.6 26459 lineto
43569.1 26515.2 lineto
43512.9 26627.7 lineto
43512.9 27077.6 lineto
43569.1 27190.1 lineto
43681.6 27246.4 lineto
43906.6 27246.4 lineto
44019.1 27190.1 lineto
44075.3 27077.6 lineto
44075.3 26965.1 lineto
43512.9 26852.7 lineto
stroke
newpath
44525.3 26515.2 moveto
44637.7 26459 lineto
44862.7 26459 lineto
44975.2 26515.2 lineto
45031.4 26627.7 lineto
45031.4 26683.9 lineto
44975.2 26796.4 lineto
44862.7 26852.7 lineto
44694 26852.7 lineto
44581.5 26908.9 lineto
44525.3 27021.4 lineto
44525.3 27077.6 lineto
44581.5 27190.1 lineto
44694 27246.4 lineto
44862.7 27246.4 lineto
44975.2 27190.1 lineto
stroke
newpath
45425.1 26009 moveto
45481.4 26065.2 lineto
45593.9 26234 lineto
45650.1 26346.5 lineto
45706.4 26515.2 lineto
45762.6 26796.4 lineto
45762.6 27021.4 lineto
45706.4 27302.6 lineto
45650.1 27471.3 lineto
45593.9 27583.8 lineto
45481.4 27752.5 lineto
45425.1 27808.8 lineto
stroke
newpath
17932.2 26412.1 moveto
19888 24456.3 lineto
stroke
newpath
19888 26412.1 moveto
17932.2 24456.3 lineto
stroke
18910.1 25434.2 977.9 cir0
0 0 0 setrgbcolor
0 0 0 setrgbcolor
newpath
20959.4 25968.5 moveto
21015.7 26024.8 lineto
21128.2 26081 lineto
21409.4 26081 lineto
21521.9 26024.8 lineto
21578.1 25968.5 lineto
21634.4 25856 lineto
21634.4 25743.5 lineto
21578.1 25574.8 lineto
20903.2 24899.9 lineto
21634.4 24899.9 lineto
stroke
newpath
22140.5 25012.4 moveto
22196.8 24956.1 lineto
22140.5 24899.9 lineto
22084.3 24956.1 lineto
22140.5 25012.4 lineto
22140.5 24899.9 lineto
stroke
newpath
23265.4 26081 moveto
22703 26081 lineto
22646.7 25518.6 lineto
22703 25574.8 lineto
22815.5 25631.1 lineto
23096.7 25631.1 lineto
23209.2 25574.8 lineto
23265.4 25518.6 lineto
23321.6 25406.1 lineto
23321.6 25124.9 lineto
23265.4 25012.4 lineto
23209.2 24956.1 lineto
23096.7 24899.9 lineto
22815.5 24899.9 lineto
22703 24956.1 lineto
22646.7 25012.4 lineto
stroke
newpath
24334 25687.3 moveto
24334 24899.9 lineto
stroke
newpath
24052.8 26137.2 moveto
23771.6 25293.6 lineto
24502.8 25293.6 lineto
stroke
newpath
24952.7 24899.9 moveto
24952.7 25687.3 lineto
stroke
newpath
24952.7 25574.8 moveto
25008.9 25631.1 lineto
25121.4 25687.3 lineto
25290.2 25687.3 lineto
25402.6 25631.1 lineto
25458.9 25518.6 lineto
25458.9 24899.9 lineto
stroke
newpath
25458.9 25518.6 moveto
25515.1 25631.1 lineto
25627.6 25687.3 lineto
25796.3 25687.3 lineto
25908.8 25631.1 lineto
25965.1 25518.6 lineto
25965.1 24899.9 lineto
stroke
newpath
26527.5 24899.9 moveto
26527.5 25687.3 lineto
stroke
newpath
26527.5 25574.8 moveto
26583.7 25631.1 lineto
26696.2 25687.3 lineto
26865 25687.3 lineto
26977.4 25631.1 lineto
27033.7 25518.6 lineto
27033.7 24899.9 lineto
stroke
newpath
27033.7 25518.6 moveto
27089.9 25631.1 lineto
27202.4 25687.3 lineto
27371.1 25687.3 lineto
27483.6 25631.1 lineto
27539.9 25518.6 lineto
27539.9 24899.9 lineto
stroke
newpath
29845.8 26137.2 moveto
28833.5 24618.7 lineto
stroke
newpath
31364.4 26081 moveto
31476.9 26081 lineto
31589.4 26024.8 lineto
31645.6 25968.5 lineto
31701.9 25856 lineto
31758.1 25631.1 lineto
31758.1 25349.8 lineto
31701.9 25124.9 lineto
31645.6 25012.4 lineto
31589.4 24956.1 lineto
31476.9 24899.9 lineto
31364.4 24899.9 lineto
31251.9 24956.1 lineto
31195.7 25012.4 lineto
31139.4 25124.9 lineto
31083.2 25349.8 lineto
31083.2 25631.1 lineto
31139.4 25856 lineto
31195.7 25968.5 lineto
31251.9 26024.8 lineto
31364.4 26081 lineto
stroke
newpath
32264.3 25012.4 moveto
32320.5 24956.1 lineto
32264.3 24899.9 lineto
32208 24956.1 lineto
32264.3 25012.4 lineto
32264.3 24899.9 lineto
stroke
newpath
33445.4 24899.9 moveto
32770.5 24899.9 lineto
stroke
newpath
33107.9 24899.9 moveto
33107.9 26081 lineto
32995.4 25912.3 lineto
32883 25799.8 lineto
32770.5 25743.5 lineto
stroke
newpath
34176.5 26081 moveto
34289 26081 lineto
34401.5 26024.8 lineto
34457.8 25968.5 lineto
34514 25856 lineto
34570.2 25631.1 lineto
34570.2 25349.8 lineto
34514 25124.9 lineto
34457.8 25012.4 lineto
34401.5 24956.1 lineto
34289 24899.9 lineto
34176.5 24899.9 lineto
34064.1 24956.1 lineto
34007.8 25012.4 lineto
33951.6 25124.9 lineto
33895.3 25349.8 lineto
33895.3 25631.1 lineto
33951.6 25856 lineto
34007.8 25968.5 lineto
34064.1 26024.8 lineto
34176.5 26081 lineto
stroke
newpath
35301.4 26081 moveto
35413.9 26081 lineto
35526.4 26024.8 lineto
35582.6 25968.5 lineto
35638.9 25856 lineto
35695.1 25631.1 lineto
35695.1 25349.8 lineto
35638.9 25124.9 lineto
35582.6 25012.4 lineto
35526.4 24956.1 lineto
35413.9 24899.9 lineto
35301.4 24899.9 lineto
35188.9 24956.1 lineto
35132.7 25012.4 lineto
35076.4 25124.9 lineto
35020.2 25349.8 lineto
35020.2 25631.1 lineto
35076.4 25856 lineto
35132.7 25968.5 lineto
35188.9 26024.8 lineto
35301.4 26081 lineto
stroke
newpath
36145 26081 moveto
36145 25856 lineto
stroke
newpath
36595 26081 moveto
36595 25856 lineto
stroke
newpath
38338.5 24450 moveto
38282.3 24506.2 lineto
38169.8 24674.9 lineto
38113.6 24787.4 lineto
38057.3 24956.1 lineto
38001.1 25237.4 lineto
38001.1 25462.3 lineto
38057.3 25743.5 lineto
38113.6 25912.3 lineto
38169.8 26024.8 lineto
38282.3 26193.5 lineto
38338.5 26249.7 lineto
stroke
newpath
39294.7 25687.3 moveto
39294.7 24899.9 lineto
stroke
newpath
39013.4 26137.2 moveto
38732.2 25293.6 lineto
39463.4 25293.6 lineto
stroke
newpath
40813.2 24899.9 moveto
40813.2 26081 lineto
stroke
newpath
41319.4 24899.9 moveto
41319.4 25518.6 lineto
41263.2 25631.1 lineto
41150.7 25687.3 lineto
40981.9 25687.3 lineto
40869.5 25631.1 lineto
40813.2 25574.8 lineto
stroke
newpath
42050.6 24899.9 moveto
41938.1 24956.1 lineto
41881.8 25012.4 lineto
41825.6 25124.9 lineto
41825.6 25462.3 lineto
41881.8 25574.8 lineto
41938.1 25631.1 lineto
42050.6 25687.3 lineto
42219.3 25687.3 lineto
42331.8 25631.1 lineto
42388 25574.8 lineto
42444.3 25462.3 lineto
42444.3 25124.9 lineto
42388 25012.4 lineto
42331.8 24956.1 lineto
42219.3 24899.9 lineto
42050.6 24899.9 lineto
stroke
newpath
43119.2 24899.9 moveto
43006.7 24956.1 lineto
42950.4 25068.6 lineto
42950.4 26081 lineto
stroke
newpath
44019.1 24956.1 moveto
43906.6 24899.9 lineto
43681.6 24899.9 lineto
43569.1 24956.1 lineto
43512.9 25068.6 lineto
43512.9 25518.6 lineto
43569.1 25631.1 lineto
43681.6 25687.3 lineto
43906.6 25687.3 lineto
44019.1 25631.1 lineto
44075.3 25518.6 lineto
44075.3 25406.1 lineto
43512.9 25293.6 lineto
stroke
newpath
44525.3 24956.1 moveto
44637.7 24899.9 lineto
44862.7 24899.9 lineto
44975.2 24956.1 lineto
45031.4 25068.6 lineto
45031.4 25124.9 lineto
44975.2 25237.4 lineto
44862.7 25293.6 lineto
44694 25293.6 lineto
44581.5 25349.8 lineto
44525.3 25462.3 lineto
44525.3 25518.6 lineto
44581.5 25631.1 lineto
44694 25687.3 lineto
44862.7 25687.3 lineto
44975.2 25631.1 lineto
stroke
newpath
45425.1 24450 moveto
45481.4 24506.2 lineto
45593.9 24674.9 lineto
45650.1 24787.4 lineto
45706.4 24956.1 lineto
45762.6 25237.4 lineto
45762.6 25462.3 lineto
45706.4 25743.5 lineto
45650.1 25912.3 lineto
45593.9 26024.8 lineto
45481.4 26193.5 lineto
45425.1 26249.7 lineto
stroke
newpath
47562.4 24450 moveto
47506.1 24506.2 lineto
47393.6 24674.9 lineto
47337.4 24787.4 lineto
47281.2 24956.1 lineto
47224.9 25237.4 lineto
47224.9 25462.3 lineto
47281.2 25743.5 lineto
47337.4 25912.3 lineto
47393.6 26024.8 lineto
47506.1 26193.5 lineto
47562.4 26249.7 lineto
stroke
newpath
48012.3 25687.3 moveto
48012.3 24899.9 lineto
stroke
newpath
48012.3 25574.8 moveto
48068.6 25631.1 lineto
48181 25687.3 lineto
48349.8 25687.3 lineto
48462.3 25631.1 lineto
48518.5 25518.6 lineto
48518.5 24899.9 lineto
stroke
newpath
49249.7 24899.9 moveto
49137.2 24956.1 lineto
49080.9 25012.4 lineto
49024.7 25124.9 lineto
49024.7 25462.3 lineto
49080.9 25574.8 lineto
49137.2 25631.1 lineto
49249.7 25687.3 lineto
49418.4 25687.3 lineto
49530.9 25631.1 lineto
49587.1 25574.8 lineto
49643.4 25462.3 lineto
49643.4 25124.9 lineto
49587.1 25012.4 lineto
49530.9 24956.1 lineto
49418.4 24899.9 lineto
49249.7 24899.9 lineto
stroke
newpath
49980.8 25687.3 moveto
50430.8 25687.3 lineto
stroke
newpath
50149.5 26081 moveto
50149.5 25068.6 lineto
50205.8 24956.1 lineto
50318.3 24899.9 lineto
50430.8 24899.9 lineto
stroke
newpath
51724.4 25687.3 moveto
51724.4 24506.2 lineto
stroke
newpath
51724.4 25631.1 moveto
51836.8 25687.3 lineto
52061.8 25687.3 lineto
52174.3 25631.1 lineto
52230.5 25574.8 lineto
52286.8 25462.3 lineto
52286.8 25124.9 lineto
52230.5 25012.4 lineto
52174.3 24956.1 lineto
52061.8 24899.9 lineto
51836.8 24899.9 lineto
51724.4 24956.1 lineto
stroke
newpath
52961.7 24899.9 moveto
52849.2 24956.1 lineto
52793 25068.6 lineto
52793 26081 lineto
stroke
newpath
53917.8 24899.9 moveto
53917.8 25518.6 lineto
53861.6 25631.1 lineto
53749.1 25687.3 lineto
53524.1 25687.3 lineto
53411.6 25631.1 lineto
stroke
newpath
53917.8 24956.1 moveto
53805.3 24899.9 lineto
53524.1 24899.9 lineto
53411.6 24956.1 lineto
53355.4 25068.6 lineto
53355.4 25181.1 lineto
53411.6 25293.6 lineto
53524.1 25349.8 lineto
53805.3 25349.8 lineto
53917.8 25406.1 lineto
stroke
newpath
54311.5 25687.3 moveto
54761.5 25687.3 lineto
stroke
newpath
54480.3 26081 moveto
54480.3 25068.6 lineto
54536.5 24956.1 lineto
54649 24899.9 lineto
54761.5 24899.9 lineto
stroke
newpath
55605.1 24956.1 moveto
55492.6 24899.9 lineto
55267.7 24899.9 lineto
55155.2 24956.1 lineto
55098.9 25068.6 lineto
55098.9 25518.6 lineto
55155.2 25631.1 lineto
55267.7 25687.3 lineto
55492.6 25687.3 lineto
55605.1 25631.1 lineto
55661.4 25518.6 lineto
55661.4 25406.1 lineto
55098.9 25293.6 lineto
stroke
newpath
56673.7 24899.9 moveto
56673.7 26081 lineto
stroke
newpath
56673.7 24956.1 moveto
56561.2 24899.9 lineto
56336.3 24899.9 lineto
56223.8 24956.1 lineto
56167.5 25012.4 lineto
56111.3 25124.9 lineto
56111.3 25462.3 lineto
56167.5 25574.8 lineto
56223.8 25631.1 lineto
56336.3 25687.3 lineto
56561.2 25687.3 lineto
56673.7 25631.1 lineto
stroke
newpath
57123.7 24450 moveto
57179.9 24506.2 lineto
57292.4 24674.9 lineto
57348.6 24787.4 lineto
57404.9 24956.1 lineto
57461.1 25237.4 lineto
57461.1 25462.3 lineto
57404.9 25743.5 lineto
57348.6 25912.3 lineto
57292.4 26024.8 lineto
57179.9 26193.5 lineto
57123.7 26249.7 lineto
stroke
newpath
16038 24891.6 moveto
19888 21041.6 lineto
stroke
newpath
19888 24891.6 moveto
16038 21041.6 lineto
stroke
newpath
17963 24891.6 moveto
17963 21041.6 lineto
stroke
newpath
16038 22966.6 moveto
19888 22966.6 lineto
stroke
0 0 0 setrgbcolor
0 0 0 setrgbcolor
newpath
21578.1 23613.4 moveto
21015.7 23613.4 lineto
20959.4 23051 lineto
21015.7 23107.2 lineto
21128.2 23163.4 lineto
21409.4 23163.4 lineto
21521.9 23107.2 lineto
21578.1 23051 lineto
21634.4 22938.5 lineto
21634.4 22657.3 lineto
21578.1 22544.8 lineto
21521.9 22488.5 lineto
21409.4 22432.3 lineto
21128.2 22432.3 lineto
21015.7 22488.5 lineto
20959.4 22544.8 lineto
stroke
newpath
22140.5 22544.8 moveto
22196.8 22488.5 lineto
22140.5 22432.3 lineto
22084.3 22488.5 lineto
22140.5 22544.8 lineto
22140.5 22432.3 lineto
stroke
newpath
22927.9 23613.4 moveto
23040.4 23613.4 lineto
23152.9 23557.1 lineto
23209.2 23500.9 lineto
23265.4 23388.4 lineto
23321.6 23163.4 lineto
23321.6 22882.2 lineto
23265.4 22657.3 lineto
23209.2 22544.8 lineto
23152.9 22488.5 lineto
23040.4 22432.3 lineto
22927.9 22432.3 lineto
22815.5 22488.5 lineto
22759.2 22544.8 lineto
22703 22657.3 lineto
22646.7 22882.2 lineto
22646.7 23163.4 lineto
22703 23388.4 lineto
22759.2 23500.9 lineto
22815.5 23557.1 lineto
22927.9 23613.4 lineto
stroke
newpath
24052.8 23613.4 moveto
24165.3 23613.4 lineto
24277.8 23557.1 lineto
24334 23500.9 lineto
24390.3 23388.4 lineto
24446.5 23163.4 lineto
24446.5 22882.2 lineto
24390.3 22657.3 lineto
24334 22544.8 lineto
24277.8 22488.5 lineto
24165.3 22432.3 lineto
24052.8 22432.3 lineto
23940.3 22488.5 lineto
23884.1 22544.8 lineto
23827.8 22657.3 lineto
23771.6 22882.2 lineto
23771.6 23163.4 lineto
23827.8 23388.4 lineto
23884.1 23500.9 lineto
23940.3 23557.1 lineto
24052.8 23613.4 lineto
stroke
newpath
24952.7 22432.3 moveto
24952.7 23219.7 lineto
stroke
newpath
24952.7 23107.2 moveto
25008.9 23163.4 lineto
25121.4 23219.7 lineto
25290.2 23219.7 lineto
25402.6 23163.4 lineto
25458.9 23051 lineto
25458.9 22432.3 lineto
stroke
newpath
25458.9 23051 moveto
25515.1 23163.4 lineto
25627.6 23219.7 lineto
25796.3 23219.7 lineto
25908.8 23163.4 lineto
25965.1 23051 lineto
25965.1 22432.3 lineto
stroke
newpath
26527.5 22432.3 moveto
26527.5 23219.7 lineto
stroke
newpath
26527.5 23107.2 moveto
26583.7 23163.4 lineto
26696.2 23219.7 lineto
26865 23219.7 lineto
26977.4 23163.4 lineto
27033.7 23051 lineto
27033.7 22432.3 lineto
stroke
newpath
27033.7 23051 moveto
27089.9 23163.4 lineto
27202.4 23219.7 lineto
27371.1 23219.7 lineto
27483.6 23163.4 lineto
27539.9 23051 lineto
27539.9 22432.3 lineto
stroke
newpath
29845.8 23669.6 moveto
28833.5 22151.1 lineto
stroke
newpath
31364.4 23613.4 moveto
31476.9 23613.4 lineto
31589.4 23557.1 lineto
31645.6 23500.9 lineto
31701.9 23388.4 lineto
31758.1 23163.4 lineto
31758.1 22882.2 lineto
31701.9 22657.3 lineto
31645.6 22544.8 lineto
31589.4 22488.5 lineto
31476.9 22432.3 lineto
31364.4 22432.3 lineto
31251.9 22488.5 lineto
31195.7 22544.8 lineto
31139.4 22657.3 lineto
31083.2 22882.2 lineto
31083.2 23163.4 lineto
31139.4 23388.4 lineto
31195.7 23500.9 lineto
31251.9 23557.1 lineto
31364.4 23613.4 lineto
stroke
newpath
32264.3 22544.8 moveto
32320.5 22488.5 lineto
32264.3 22432.3 lineto
32208 22488.5 lineto
32264.3 22544.8 lineto
32264.3 22432.3 lineto
stroke
newpath
33445.4 22432.3 moveto
32770.5 22432.3 lineto
stroke
newpath
33107.9 22432.3 moveto
33107.9 23613.4 lineto
32995.4 23444.7 lineto
32883 23332.2 lineto
32770.5 23275.9 lineto
stroke
newpath
34007.8 22432.3 moveto
34232.8 22432.3 lineto
34345.3 22488.5 lineto
34401.5 22544.8 lineto
34514 22713.5 lineto
34570.2 22938.5 lineto
34570.2 23388.4 lineto
34514 23500.9 lineto
34457.8 23557.1 lineto
34345.3 23613.4 lineto
34120.3 23613.4 lineto
34007.8 23557.1 lineto
33951.6 23500.9 lineto
33895.3 23388.4 lineto
33895.3 23107.2 lineto
33951.6 22994.7 lineto
34007.8 22938.5 lineto
34120.3 22882.2 lineto
34345.3 22882.2 lineto
34457.8 22938.5 lineto
34514 22994.7 lineto
34570.2 23107.2 lineto
stroke
newpath
34963.9 23613.4 moveto
35751.3 23613.4 lineto
35245.2 22432.3 lineto
stroke
newpath
36145 23613.4 moveto
36145 23388.4 lineto
stroke
newpath
36595 23613.4 moveto
36595 23388.4 lineto
stroke
newpath
38338.5 21982.3 moveto
38282.3 22038.6 lineto
38169.8 22207.3 lineto
38113.6 22319.8 lineto
38057.3 22488.5 lineto
38001.1 22769.7 lineto
38001.1 22994.7 lineto
38057.3 23275.9 lineto
38113.6 23444.7 lineto
38169.8 23557.1 lineto
38282.3 23725.9 lineto
38338.5 23782.1 lineto
stroke
newpath
39294.7 23219.7 moveto
39294.7 22432.3 lineto
stroke
newpath
39013.4 23669.6 moveto
38732.2 22826 lineto
39463.4 22826 lineto
stroke
newpath
40813.2 22432.3 moveto
40813.2 23613.4 lineto
stroke
newpath
41319.4 22432.3 moveto
41319.4 23051 lineto
41263.2 23163.4 lineto
41150.7 23219.7 lineto
40981.9 23219.7 lineto
40869.5 23163.4 lineto
40813.2 23107.2 lineto
stroke
newpath
42050.6 22432.3 moveto
41938.1 22488.5 lineto
41881.8 22544.8 lineto
41825.6 22657.3 lineto
41825.6 22994.7 lineto
41881.8 23107.2 lineto
41938.1 23163.4 lineto
42050.6 23219.7 lineto
42219.3 23219.7 lineto
42331.8 23163.4 lineto
42388 23107.2 lineto
42444.3 22994.7 lineto
42444.3 22657.3 lineto
42388 22544.8 lineto
42331.8 22488.5 lineto
42219.3 22432.3 lineto
42050.6 22432.3 lineto
stroke
newpath
43119.2 22432.3 moveto
43006.7 22488.5 lineto
42950.4 22601 lineto
42950.4 23613.4 lineto
stroke
newpath
44019.1 22488.5 moveto
43906.6 22432.3 lineto
43681.6 22432.3 lineto
43569.1 22488.5 lineto
43512.9 22601 lineto
43512.9 23051 lineto
43569.1 23163.4 lineto
43681.6 23219.7 lineto
43906.6 23219.7 lineto
44019.1 23163.4 lineto
44075.3 23051 lineto
44075.3 22938.5 lineto
43512.9 22826 lineto
stroke
newpath
44525.3 22488.5 moveto
44637.7 22432.3 lineto
44862.7 22432.3 lineto
44975.2 22488.5 lineto
45031.4 22601 lineto
45031.4 22657.3 lineto
44975.2 22769.7 lineto
44862.7 22826 lineto
44694 22826 lineto
44581.5 22882.2 lineto
44525.3 22994.7 lineto
44525.3 23051 lineto
44581.5 23163.4 lineto
44694 23219.7 lineto
44862.7 23219.7 lineto
44975.2 23163.4 lineto
stroke
newpath
45425.1 21982.3 moveto
45481.4 22038.6 lineto
45593.9 22207.3 lineto
45650.1 22319.8 lineto
45706.4 22488.5 lineto
45762.6 22769.7 lineto
45762.6 22994.7 lineto
45706.4 23275.9 lineto
45650.1 23444.7 lineto
45593.9 23557.1 lineto
45481.4 23725.9 lineto
45425.1 23782.1 lineto
stroke
newpath
47562.4 21982.3 moveto
47506.1 22038.6 lineto
47393.6 22207.3 lineto
47337.4 22319.8 lineto
47281.2 22488.5 lineto
47224.9 22769.7 lineto
47224.9 22994.7 lineto
47281.2 23275.9 lineto
47337.4 23444.7 lineto
47393.6 23557.1 lineto
47506.1 23725.9 lineto
47562.4 23782.1 lineto
stroke
newpath
48012.3 23219.7 moveto
48012.3 22432.3 lineto
stroke
newpath
48012.3 23107.2 moveto
48068.6 23163.4 lineto
48181 23219.7 lineto
48349.8 23219.7 lineto
48462.3 23163.4 lineto
48518.5 23051 lineto
48518.5 22432.3 lineto
stroke
newpath
49249.7 22432.3 moveto
49137.2 22488.5 lineto
49080.9 22544.8 lineto
49024.7 22657.3 lineto
49024.7 22994.7 lineto
49080.9 23107.2 lineto
49137.2 23163.4 lineto
49249.7 23219.7 lineto
49418.4 23219.7 lineto
49530.9 23163.4 lineto
49587.1 23107.2 lineto
49643.4 22994.7 lineto
49643.4 22657.3 lineto
49587.1 22544.8 lineto
49530.9 22488.5 lineto
49418.4 22432.3 lineto
49249.7 22432.3 lineto
stroke
newpath
49980.8 23219.7 moveto
50430.8 23219.7 lineto
stroke
newpath
50149.5 23613.4 moveto
50149.5 22601 lineto
50205.8 22488.5 lineto
50318.3 22432.3 lineto
50430.8 22432.3 lineto
stroke
newpath
51724.4 23219.7 moveto
51724.4 22038.6 lineto
stroke
newpath
51724.4 23163.4 moveto
51836.8 23219.7 lineto
52061.8 23219.7 lineto
52174.3 23163.4 lineto
52230.5 23107.2 lineto
52286.8 22994.7 lineto
52286.8 22657.3 lineto
52230.5 22544.8 lineto
52174.3 22488.5 lineto
52061.8 22432.3 lineto
51836.8 22432.3 lineto
51724.4 22488.5 lineto
stroke
newpath
52961.7 22432.3 moveto
52849.2 22488.5 lineto
52793 22601 lineto
52793 23613.4 lineto
stroke
newpath
53917.8 22432.3 moveto
53917.8 23051 lineto
53861.6 23163.4 lineto
53749.1 23219.7 lineto
53524.1 23219.7 lineto
53411.6 23163.4 lineto
stroke
newpath
53917.8 22488.5 moveto
53805.3 22432.3 lineto
53524.1 22432.3 lineto
53411.6 22488.5 lineto
53355.4 22601 lineto
53355.4 22713.5 lineto
53411.6 22826 lineto
53524.1 22882.2 lineto
53805.3 22882.2 lineto
53917.8 22938.5 lineto
stroke
newpath
54311.5 23219.7 moveto
54761.5 23219.7 lineto
stroke
newpath
54480.3 23613.4 moveto
54480.3 22601 lineto
54536.5 22488.5 lineto
54649 22432.3 lineto
54761.5 22432.3 lineto
stroke
newpath
55605.1 22488.5 moveto
55492.6 22432.3 lineto
55267.7 22432.3 lineto
55155.2 22488.5 lineto
55098.9 22601 lineto
55098.9 23051 lineto
55155.2 23163.4 lineto
55267.7 23219.7 lineto
55492.6 23219.7 lineto
55605.1 23163.4 lineto
55661.4 23051 lineto
55661.4 22938.5 lineto
55098.9 22826 lineto
stroke
newpath
56673.7 22432.3 moveto
56673.7 23613.4 lineto
stroke
newpath
56673.7 22488.5 moveto
56561.2 22432.3 lineto
56336.3 22432.3 lineto
56223.8 22488.5 lineto
56167.5 22544.8 lineto
56111.3 22657.3 lineto
56111.3 22994.7 lineto
56167.5 23107.2 lineto
56223.8 23163.4 lineto
56336.3 23219.7 lineto
56561.2 23219.7 lineto
56673.7 23163.4 lineto
stroke
newpath
57123.7 21982.3 moveto
57179.9 22038.6 lineto
57292.4 22207.3 lineto
57348.6 22319.8 lineto
57404.9 22488.5 lineto
57461.1 22769.7 lineto
57461.1 22994.7 lineto
57404.9 23275.9 lineto
57348.6 23444.7 lineto
57292.4 23557.1 lineto
57179.9 23725.9 lineto
57123.7 23782.1 lineto
stroke
showpage
grestore
%%EOF
