EESchema Schematic File Version 4
EELAYER 30 0
EELAYER END
$Descr A4 11693 8268
encoding utf-8
Sheet 1 1
Title ""
Date ""
Rev ""
Comp ""
Comment1 ""
Comment2 ""
Comment3 ""
Comment4 ""
$EndDescr
$Comp
L Sensor_Pressure:MPL3115A2 U3
U 1 1 5EF59180
P 9500 2600
F 0 "U3" H 9150 2050 50  0000 C CNN
F 1 "MPL3115A2" H 9150 1950 50  0000 C CNN
F 2 "Package_LGA:NXP_LGA-8_3x5mm_P1.25mm_H1.1mm" H 10500 2150 50  0001 C CNN
F 3 "https://www.nxp.com/docs/en/data-sheet/MPL3115A2.pdf" H 9500 2600 50  0001 C CNN
	1    9500 2600
	1    0    0    -1  
$EndComp
Wire Wire Line
	9400 2100 9400 2000
Wire Wire Line
	9500 2000 9500 2100
Text GLabel 9100 2500 0    50   Input ~ 0
SDA
Text GLabel 9100 2600 0    50   Input ~ 0
SCL
$Comp
L power:GND #PWR0110
U 1 1 5EF5D072
P 9500 3100
F 0 "#PWR0110" H 9500 2850 50  0001 C CNN
F 1 "GND" H 9505 2927 50  0000 C CNN
F 2 "" H 9500 3100 50  0001 C CNN
F 3 "" H 9500 3100 50  0001 C CNN
	1    9500 3100
	1    0    0    -1  
$EndComp
$Comp
L power:GND #PWR0111
U 1 1 5EF5ED43
P 9900 3000
F 0 "#PWR0111" H 9900 2750 50  0001 C CNN
F 1 "GND" H 9905 2827 50  0000 C CNN
F 2 "" H 9900 3000 50  0001 C CNN
F 3 "" H 9900 3000 50  0001 C CNN
	1    9900 3000
	1    0    0    -1  
$EndComp
Wire Wire Line
	9950 2100 10050 2100
$Comp
L power:GND #PWR0112
U 1 1 5EF65819
P 10050 2100
F 0 "#PWR0112" H 10050 1850 50  0001 C CNN
F 1 "GND" H 10055 1927 50  0000 C CNN
F 2 "" H 10050 2100 50  0001 C CNN
F 3 "" H 10050 2100 50  0001 C CNN
	1    10050 2100
	1    0    0    -1  
$EndComp
Connection ~ 10050 2100
Wire Wire Line
	10050 2100 10150 2100
NoConn ~ 9900 2500
NoConn ~ 9900 2600
NoConn ~ 8000 4200
$Comp
L Device:C_Small C15
U 1 1 5EF332BC
P 10250 4000
F 0 "C15" H 10342 4046 50  0000 L CNN
F 1 "100nF" H 10342 3955 50  0000 L CNN
F 2 "Capacitor_SMD:C_0402_1005Metric" H 10250 4000 50  0001 C CNN
F 3 "~" H 10250 4000 50  0001 C CNN
F 4 "C1525" H 10250 4000 50  0001 C CNN "LCSC"
	1    10250 4000
	1    0    0    -1  
$EndComp
Wire Wire Line
	9800 3900 10050 3900
Connection ~ 10050 3900
Wire Wire Line
	10050 3900 10250 3900
$Comp
L power:GND #PWR0115
U 1 1 5EF38890
P 10250 4100
F 0 "#PWR0115" H 10250 3850 50  0001 C CNN
F 1 "GND" H 10255 3927 50  0000 C CNN
F 2 "" H 10250 4100 50  0001 C CNN
F 3 "" H 10250 4100 50  0001 C CNN
	1    10250 4100
	1    0    0    -1  
$EndComp
Wire Wire Line
	10050 4000 10050 3900
Wire Wire Line
	9800 4000 10050 4000
NoConn ~ 9800 4300
NoConn ~ 9800 4400
NoConn ~ 8000 5100
NoConn ~ 8000 5200
NoConn ~ 9800 4500
$Comp
L power:GND #PWR0116
U 1 1 5EF43B2C
P 9800 5500
F 0 "#PWR0116" H 9800 5250 50  0001 C CNN
F 1 "GND" V 9805 5372 50  0000 R CNN
F 2 "" H 9800 5500 50  0001 C CNN
F 3 "" H 9800 5500 50  0001 C CNN
	1    9800 5500
	0    -1   -1   0   
$EndComp
Wire Wire Line
	9800 5400 9800 5500
Text GLabel 7700 5000 3    50   Input ~ 0
SDA
NoConn ~ 8000 4300
$Comp
L Device:C_Small C11
U 1 1 5EF4C8D9
P 7600 3850
F 0 "C11" H 7692 3896 50  0000 L CNN
F 1 "100nF" H 7692 3805 50  0000 L CNN
F 2 "Capacitor_SMD:C_0402_1005Metric" H 7600 3850 50  0001 C CNN
F 3 "~" H 7600 3850 50  0001 C CNN
F 4 "C1525" H 7600 3850 50  0001 C CNN "LCSC"
	1    7600 3850
	1    0    0    -1  
$EndComp
$Comp
L power:GND #PWR0118
U 1 1 5EF4D0B1
P 7600 3950
F 0 "#PWR0118" H 7600 3700 50  0001 C CNN
F 1 "GND" H 7605 3777 50  0000 C CNN
F 2 "" H 7600 3950 50  0001 C CNN
F 3 "" H 7600 3950 50  0001 C CNN
	1    7600 3950
	1    0    0    -1  
$EndComp
$Comp
L power:GND #PWR0120
U 1 1 5EF416B5
P 8000 4900
F 0 "#PWR0120" H 8000 4650 50  0001 C CNN
F 1 "GND" V 8005 4772 50  0000 R CNN
F 2 "" H 8000 4900 50  0001 C CNN
F 3 "" H 8000 4900 50  0001 C CNN
	1    8000 4900
	0    1    1    0   
$EndComp
Connection ~ 9800 5500
$Comp
L BMX055-0273141179:BMX055-0273141179 U2
U 1 1 5EF2FFB9
P 8900 4700
F 0 "U2" H 8900 5770 50  0000 C CNN
F 1 "BMX055" H 8900 5679 50  0000 C CNN
F 2 "Libraries:PQFN50P450X300X100-20N" H 8900 4700 50  0001 L BNN
F 3 "BMX055-0273141179" H 8900 4700 50  0001 L BNN
F 4 "C94022" H 8900 4700 50  0001 C CNN "LCSC"
	1    8900 4700
	1    0    0    -1  
$EndComp
$Comp
L Device:Jumper_NC_Small JP2
U 1 1 5EF464B4
P 7550 5000
F 0 "JP2" H 7550 5212 50  0000 C CNN
F 1 "Closed for i2c pull up" H 7250 5150 50  0000 C CIN
F 2 "Jumper:SolderJumper-2_P1.3mm_Bridged2Bar_Pad1.0x1.5mm" H 7550 5000 50  0001 C CNN
F 3 "~" H 7550 5000 50  0001 C CNN
	1    7550 5000
	1    0    0    -1  
$EndComp
$Comp
L Device:R_Small_US R5
U 1 1 5EF46D6A
P 7350 5000
F 0 "R5" H 7418 5046 50  0000 L CNN
F 1 "4.7k" H 7418 4955 50  0000 L CNN
F 2 "Resistor_SMD:R_0402_1005Metric" H 7350 5000 50  0001 C CNN
F 3 "~" H 7350 5000 50  0001 C CNN
F 4 "C25900" H 7350 5000 50  0001 C CNN "LCSC"
	1    7350 5000
	0    1    1    0   
$EndComp
Wire Wire Line
	7650 5000 8000 5000
Text GLabel 7700 4500 3    50   Input ~ 0
SCL
$Comp
L Device:Jumper_NC_Small JP1
U 1 1 5EF4F335
P 7550 4500
F 0 "JP1" H 7550 4712 50  0000 C CNN
F 1 "Closed for i2c pull up" H 7250 4650 50  0000 C CIN
F 2 "Jumper:SolderJumper-2_P1.3mm_Bridged2Bar_Pad1.0x1.5mm" H 7550 4500 50  0001 C CNN
F 3 "~" H 7550 4500 50  0001 C CNN
	1    7550 4500
	1    0    0    -1  
$EndComp
$Comp
L Device:R_Small_US R4
U 1 1 5EF4F33B
P 7350 4500
F 0 "R4" H 7418 4546 50  0000 L CNN
F 1 "4.7k" H 7418 4455 50  0000 L CNN
F 2 "Resistor_SMD:R_0402_1005Metric" H 7350 4500 50  0001 C CNN
F 3 "~" H 7350 4500 50  0001 C CNN
F 4 "C25900" H 7350 4500 50  0001 C CNN "LCSC"
	1    7350 4500
	0    1    1    0   
$EndComp
Wire Wire Line
	7650 4500 8000 4500
$Comp
L power:GND #PWR0123
U 1 1 5EF52F57
P 9950 4700
F 0 "#PWR0123" H 9950 4450 50  0001 C CNN
F 1 "GND" H 9955 4527 50  0000 C CNN
F 2 "" H 9950 4700 50  0001 C CNN
F 3 "" H 9950 4700 50  0001 C CNN
	1    9950 4700
	1    0    0    -1  
$EndComp
Wire Wire Line
	9800 4600 9950 4600
Wire Wire Line
	9950 4600 9950 4700
Wire Wire Line
	9800 4700 9950 4700
Connection ~ 9950 4700
NoConn ~ 9800 4200
Text GLabel 1250 7200 2    50   Input ~ 0
TX
$Comp
L power:GND #PWR?
U 1 1 5F0D0191
P 1400 7400
AR Path="/5F0277E6/5F0D0191" Ref="#PWR?"  Part="1" 
AR Path="/5EF7CF02/5F0D0191" Ref="#PWR?"  Part="1" 
AR Path="/5F0D0191" Ref="#PWR0101"  Part="1" 
F 0 "#PWR0101" H 1400 7150 50  0001 C CNN
F 1 "GND" V 1405 7272 50  0000 R CNN
F 2 "" H 1400 7400 50  0001 C CNN
F 3 "" H 1400 7400 50  0001 C CNN
	1    1400 7400
	0    -1   -1   0   
$EndComp
Wire Wire Line
	1400 7400 1250 7400
$Comp
L power:+BATT #PWR?
U 1 1 5F0D0198
P 1500 7100
AR Path="/5F0277E6/5F0D0198" Ref="#PWR?"  Part="1" 
AR Path="/5EF7CF02/5F0D0198" Ref="#PWR?"  Part="1" 
AR Path="/5F0D0198" Ref="#PWR0102"  Part="1" 
F 0 "#PWR0102" H 1500 6950 50  0001 C CNN
F 1 "+BATT" H 1515 7273 50  0000 C CNN
F 2 "" H 1500 7100 50  0001 C CNN
F 3 "" H 1500 7100 50  0001 C CNN
	1    1500 7100
	0    1    1    0   
$EndComp
Wire Wire Line
	1500 7100 1250 7100
Text GLabel 1250 7300 2    50   Input ~ 0
RX
Text GLabel 1250 1150 0    50   Input ~ 0
EM1_FIRE
$Comp
L Device:Q_NMOS_SGD Q?
U 1 1 5F0E7D89
P 1750 1150
AR Path="/5EF7CF02/5F0E7D89" Ref="Q?"  Part="1" 
AR Path="/5F0E7D89" Ref="Q1"  Part="1" 
F 0 "Q1" H 1955 1196 50  0000 L CNN
F 1 "AO3400A" H 1955 1105 50  0000 L CNN
F 2 "Package_TO_SOT_SMD:SOT-23" H 1950 1250 50  0001 C CNN
F 3 "~" H 1750 1150 50  0001 C CNN
F 4 "C20917" H 1750 1150 50  0001 C CNN "LCSC"
	1    1750 1150
	1    0    0    -1  
$EndComp
$Comp
L power:GND #PWR?
U 1 1 5F0E7D8F
P 1850 1350
AR Path="/5EF7CF02/5F0E7D8F" Ref="#PWR?"  Part="1" 
AR Path="/5F0E7D8F" Ref="#PWR0103"  Part="1" 
F 0 "#PWR0103" H 1850 1100 50  0001 C CNN
F 1 "GND" H 1855 1177 50  0000 C CNN
F 2 "" H 1850 1350 50  0001 C CNN
F 3 "" H 1850 1350 50  0001 C CNN
	1    1850 1350
	1    0    0    -1  
$EndComp
$Comp
L Device:R_Small_US R?
U 1 1 5F0E7D95
P 1350 1250
AR Path="/5EF7CF02/5F0E7D95" Ref="R?"  Part="1" 
AR Path="/5F0E7D95" Ref="R1"  Part="1" 
F 0 "R1" H 1282 1204 50  0000 R CNN
F 1 "5.6k" H 1282 1295 50  0000 R CNN
F 2 "Resistor_SMD:R_0402_1005Metric" H 1350 1250 50  0001 C CNN
F 3 "~" H 1350 1250 50  0001 C CNN
F 4 "C25908" H 1350 1250 50  0001 C CNN "LCSC"
	1    1350 1250
	-1   0    0    1   
$EndComp
Wire Wire Line
	1250 1150 1350 1150
Wire Wire Line
	1350 1150 1550 1150
Connection ~ 1350 1150
$Comp
L power:GND #PWR?
U 1 1 5F0E7D9E
P 1350 1350
AR Path="/5EF7CF02/5F0E7D9E" Ref="#PWR?"  Part="1" 
AR Path="/5F0E7D9E" Ref="#PWR0104"  Part="1" 
F 0 "#PWR0104" H 1350 1100 50  0001 C CNN
F 1 "GND" H 1355 1177 50  0000 C CNN
F 2 "" H 1350 1350 50  0001 C CNN
F 3 "" H 1350 1350 50  0001 C CNN
	1    1350 1350
	1    0    0    -1  
$EndComp
Text GLabel 1850 950  1    50   Input ~ 0
EM1-
$Comp
L Device:R_Small_US R?
U 1 1 5F0E7DA5
P 2750 1050
AR Path="/5EF7CF02/5F0E7DA5" Ref="R?"  Part="1" 
AR Path="/5F0E7DA5" Ref="R7"  Part="1" 
F 0 "R7" H 2818 1096 50  0000 L CNN
F 1 "5.6k" H 2818 1005 50  0000 L CNN
F 2 "Resistor_SMD:R_0402_1005Metric" H 2750 1050 50  0001 C CNN
F 3 "~" H 2750 1050 50  0001 C CNN
F 4 "C25908" H 2750 1050 50  0001 C CNN "LCSC"
	1    2750 1050
	1    0    0    -1  
$EndComp
$Comp
L Device:D_Zener D?
U 1 1 5F0E7DAB
P 2750 1300
AR Path="/5EF7CF02/5F0E7DAB" Ref="D?"  Part="1" 
AR Path="/5F0E7DAB" Ref="D1"  Part="1" 
F 0 "D1" V 2796 1220 50  0000 R CNN
F 1 "MMSZ4684" V 2800 1800 50  0000 R CNN
F 2 "Diode_SMD:D_SOD-123" H 2750 1300 50  0001 C CNN
F 3 "~" H 2750 1300 50  0001 C CNN
F 4 "C21510" V 2750 1300 50  0001 C CNN "LCSC"
	1    2750 1300
	0    1    1    0   
$EndComp
Text GLabel 2750 950  1    50   Input ~ 0
EM1-
$Comp
L power:GND #PWR?
U 1 1 5F0E7DB2
P 2750 1450
AR Path="/5EF7CF02/5F0E7DB2" Ref="#PWR?"  Part="1" 
AR Path="/5F0E7DB2" Ref="#PWR0105"  Part="1" 
F 0 "#PWR0105" H 2750 1200 50  0001 C CNN
F 1 "GND" H 2755 1277 50  0000 C CNN
F 2 "" H 2750 1450 50  0001 C CNN
F 3 "" H 2750 1450 50  0001 C CNN
	1    2750 1450
	1    0    0    -1  
$EndComp
Text GLabel 2750 1150 0    50   Input ~ 0
CONT_1
Wire Notes Line
	2350 650  2350 1700
Wire Notes Line
	700  1700 700  650 
Wire Notes Line
	3300 650  3300 1700
Wire Notes Line
	700  650  3300 650 
Wire Notes Line
	700  1700 3300 1700
Text Notes 1200 1800 0    50   ~ 0
EMATCH FIRING
Text Notes 2450 1800 0    50   ~ 0
EMATCH CONTINUITY
Text GLabel 1250 2550 0    50   Input ~ 0
EM2_FIRE
$Comp
L Device:Q_NMOS_SGD Q?
U 1 1 5F0E7DC1
P 1750 2550
AR Path="/5EF7CF02/5F0E7DC1" Ref="Q?"  Part="1" 
AR Path="/5F0E7DC1" Ref="Q2"  Part="1" 
F 0 "Q2" H 1955 2596 50  0000 L CNN
F 1 "AO3400A" H 1955 2505 50  0000 L CNN
F 2 "Package_TO_SOT_SMD:SOT-23" H 1950 2650 50  0001 C CNN
F 3 "~" H 1750 2550 50  0001 C CNN
F 4 "C20917" H 1750 2550 50  0001 C CNN "LCSC"
	1    1750 2550
	1    0    0    -1  
$EndComp
$Comp
L power:GND #PWR?
U 1 1 5F0E7DC7
P 1850 2750
AR Path="/5EF7CF02/5F0E7DC7" Ref="#PWR?"  Part="1" 
AR Path="/5F0E7DC7" Ref="#PWR0106"  Part="1" 
F 0 "#PWR0106" H 1850 2500 50  0001 C CNN
F 1 "GND" H 1855 2577 50  0000 C CNN
F 2 "" H 1850 2750 50  0001 C CNN
F 3 "" H 1850 2750 50  0001 C CNN
	1    1850 2750
	1    0    0    -1  
$EndComp
$Comp
L Device:R_Small_US R?
U 1 1 5F0E7DCD
P 1350 2650
AR Path="/5EF7CF02/5F0E7DCD" Ref="R?"  Part="1" 
AR Path="/5F0E7DCD" Ref="R2"  Part="1" 
F 0 "R2" H 1282 2604 50  0000 R CNN
F 1 "5.6k" H 1282 2695 50  0000 R CNN
F 2 "Resistor_SMD:R_0402_1005Metric" H 1350 2650 50  0001 C CNN
F 3 "~" H 1350 2650 50  0001 C CNN
F 4 "C25908" H 1350 2650 50  0001 C CNN "LCSC"
	1    1350 2650
	-1   0    0    1   
$EndComp
Wire Wire Line
	1250 2550 1350 2550
Wire Wire Line
	1350 2550 1550 2550
Connection ~ 1350 2550
$Comp
L power:GND #PWR?
U 1 1 5F0E7DD6
P 1350 2750
AR Path="/5EF7CF02/5F0E7DD6" Ref="#PWR?"  Part="1" 
AR Path="/5F0E7DD6" Ref="#PWR0107"  Part="1" 
F 0 "#PWR0107" H 1350 2500 50  0001 C CNN
F 1 "GND" H 1355 2577 50  0000 C CNN
F 2 "" H 1350 2750 50  0001 C CNN
F 3 "" H 1350 2750 50  0001 C CNN
	1    1350 2750
	1    0    0    -1  
$EndComp
Text GLabel 1850 2350 1    50   Input ~ 0
EM2-
$Comp
L Device:R_Small_US R?
U 1 1 5F0E7DDD
P 2750 2450
AR Path="/5EF7CF02/5F0E7DDD" Ref="R?"  Part="1" 
AR Path="/5F0E7DDD" Ref="R8"  Part="1" 
F 0 "R8" H 2818 2496 50  0000 L CNN
F 1 "5.6k" H 2818 2405 50  0000 L CNN
F 2 "Resistor_SMD:R_0402_1005Metric" H 2750 2450 50  0001 C CNN
F 3 "~" H 2750 2450 50  0001 C CNN
F 4 "C25908" H 2750 2450 50  0001 C CNN "LCSC"
	1    2750 2450
	1    0    0    -1  
$EndComp
$Comp
L Device:D_Zener D?
U 1 1 5F0E7DE3
P 2750 2700
AR Path="/5EF7CF02/5F0E7DE3" Ref="D?"  Part="1" 
AR Path="/5F0E7DE3" Ref="D2"  Part="1" 
F 0 "D2" V 2796 2620 50  0000 R CNN
F 1 "MMSZ4684" V 2800 3200 50  0000 R CNN
F 2 "Diode_SMD:D_SOD-123" H 2750 2700 50  0001 C CNN
F 3 "~" H 2750 2700 50  0001 C CNN
F 4 "C21510" V 2750 2700 50  0001 C CNN "LCSC"
	1    2750 2700
	0    1    1    0   
$EndComp
Text GLabel 2750 2350 1    50   Input ~ 0
EM2-
$Comp
L power:GND #PWR?
U 1 1 5F0E7DEA
P 2750 2850
AR Path="/5EF7CF02/5F0E7DEA" Ref="#PWR?"  Part="1" 
AR Path="/5F0E7DEA" Ref="#PWR0108"  Part="1" 
F 0 "#PWR0108" H 2750 2600 50  0001 C CNN
F 1 "GND" H 2755 2677 50  0000 C CNN
F 2 "" H 2750 2850 50  0001 C CNN
F 3 "" H 2750 2850 50  0001 C CNN
	1    2750 2850
	1    0    0    -1  
$EndComp
Text GLabel 2750 2550 0    50   Input ~ 0
CONT_2
Wire Notes Line
	2350 2050 2350 3100
Wire Notes Line
	700  3100 700  2050
Wire Notes Line
	3300 2050 3300 3100
Wire Notes Line
	700  2050 3300 2050
Wire Notes Line
	700  3100 3300 3100
Text Notes 1200 3200 0    50   ~ 0
EMATCH FIRING
Text Notes 2450 3200 0    50   ~ 0
EMATCH CONTINUITY
Text GLabel 1250 3900 0    50   Input ~ 0
EM3_FIRE
$Comp
L Device:Q_NMOS_SGD Q?
U 1 1 5F0E7DF9
P 1750 3900
AR Path="/5EF7CF02/5F0E7DF9" Ref="Q?"  Part="1" 
AR Path="/5F0E7DF9" Ref="Q3"  Part="1" 
F 0 "Q3" H 1955 3946 50  0000 L CNN
F 1 "AO3400A" H 1955 3855 50  0000 L CNN
F 2 "Package_TO_SOT_SMD:SOT-23" H 1950 4000 50  0001 C CNN
F 3 "~" H 1750 3900 50  0001 C CNN
F 4 "C20917" H 1750 3900 50  0001 C CNN "LCSC"
	1    1750 3900
	1    0    0    -1  
$EndComp
$Comp
L power:GND #PWR?
U 1 1 5F0E7DFF
P 1850 4100
AR Path="/5EF7CF02/5F0E7DFF" Ref="#PWR?"  Part="1" 
AR Path="/5F0E7DFF" Ref="#PWR0124"  Part="1" 
F 0 "#PWR0124" H 1850 3850 50  0001 C CNN
F 1 "GND" H 1855 3927 50  0000 C CNN
F 2 "" H 1850 4100 50  0001 C CNN
F 3 "" H 1850 4100 50  0001 C CNN
	1    1850 4100
	1    0    0    -1  
$EndComp
$Comp
L Device:R_Small_US R?
U 1 1 5F0E7E05
P 1350 4000
AR Path="/5EF7CF02/5F0E7E05" Ref="R?"  Part="1" 
AR Path="/5F0E7E05" Ref="R3"  Part="1" 
F 0 "R3" H 1282 3954 50  0000 R CNN
F 1 "5.6k" H 1282 4045 50  0000 R CNN
F 2 "Resistor_SMD:R_0402_1005Metric" H 1350 4000 50  0001 C CNN
F 3 "~" H 1350 4000 50  0001 C CNN
F 4 "C25908" H 1350 4000 50  0001 C CNN "LCSC"
	1    1350 4000
	-1   0    0    1   
$EndComp
Wire Wire Line
	1250 3900 1350 3900
Wire Wire Line
	1350 3900 1550 3900
Connection ~ 1350 3900
$Comp
L power:GND #PWR?
U 1 1 5F0E7E0E
P 1350 4100
AR Path="/5EF7CF02/5F0E7E0E" Ref="#PWR?"  Part="1" 
AR Path="/5F0E7E0E" Ref="#PWR0125"  Part="1" 
F 0 "#PWR0125" H 1350 3850 50  0001 C CNN
F 1 "GND" H 1355 3927 50  0000 C CNN
F 2 "" H 1350 4100 50  0001 C CNN
F 3 "" H 1350 4100 50  0001 C CNN
	1    1350 4100
	1    0    0    -1  
$EndComp
Text GLabel 1850 3700 1    50   Input ~ 0
EM3-
Text Notes 1200 4550 0    50   ~ 0
EMATCH FIRING
Wire Notes Line
	700  4450 700  3400
Wire Notes Line
	2350 3400 2350 4450
Wire Notes Line
	700  3400 2350 3400
Wire Notes Line
	2350 4450 700  4450
Text Notes 650  1300 1    50   ~ 0
E-MATCH 1
Text Notes 650  2700 1    50   ~ 0
E-MATCH 2
Text Notes 650  4100 1    50   ~ 0
E-MATCH 3
$Comp
L Connector:Screw_Terminal_01x02 J?
U 1 1 5F0E7E1D
P 650 5200
AR Path="/5EF7CF02/5F0E7E1D" Ref="J?"  Part="1" 
AR Path="/5F0E7E1D" Ref="J1"  Part="1" 
F 0 "J1" H 568 4875 50  0000 C CNN
F 1 "EM1" H 568 4966 50  0000 C CNN
F 2 "digikey-footprints:Term_Block_1x2_P5.08MM" H 650 5200 50  0001 C CNN
F 3 "~" H 650 5200 50  0001 C CNN
	1    650  5200
	-1   0    0    1   
$EndComp
Text GLabel 850  5200 2    50   Input ~ 0
EM1-
$Comp
L power:+BATT #PWR?
U 1 1 5F0E7E24
P 850 5100
AR Path="/5EF7CF02/5F0E7E24" Ref="#PWR?"  Part="1" 
AR Path="/5F0E7E24" Ref="#PWR0126"  Part="1" 
F 0 "#PWR0126" H 850 4950 50  0001 C CNN
F 1 "+BATT" V 865 5228 50  0000 L CNN
F 2 "" H 850 5100 50  0001 C CNN
F 3 "" H 850 5100 50  0001 C CNN
	1    850  5100
	0    1    1    0   
$EndComp
$Comp
L Connector:Screw_Terminal_01x02 J?
U 1 1 5F0E7E2A
P 1450 5200
AR Path="/5EF7CF02/5F0E7E2A" Ref="J?"  Part="1" 
AR Path="/5F0E7E2A" Ref="J3"  Part="1" 
F 0 "J3" H 1368 4875 50  0000 C CNN
F 1 "EM2" H 1368 4966 50  0000 C CNN
F 2 "digikey-footprints:Term_Block_1x2_P5.08MM" H 1450 5200 50  0001 C CNN
F 3 "~" H 1450 5200 50  0001 C CNN
	1    1450 5200
	-1   0    0    1   
$EndComp
Text GLabel 1650 5200 2    50   Input ~ 0
EM2-
$Comp
L power:+BATT #PWR?
U 1 1 5F0E7E31
P 1650 5100
AR Path="/5EF7CF02/5F0E7E31" Ref="#PWR?"  Part="1" 
AR Path="/5F0E7E31" Ref="#PWR0127"  Part="1" 
F 0 "#PWR0127" H 1650 4950 50  0001 C CNN
F 1 "+BATT" V 1665 5228 50  0000 L CNN
F 2 "" H 1650 5100 50  0001 C CNN
F 3 "" H 1650 5100 50  0001 C CNN
	1    1650 5100
	0    1    1    0   
$EndComp
$Comp
L Connector:Screw_Terminal_01x02 J?
U 1 1 5F0E7E37
P 2200 5200
AR Path="/5EF7CF02/5F0E7E37" Ref="J?"  Part="1" 
AR Path="/5F0E7E37" Ref="J4"  Part="1" 
F 0 "J4" H 2118 4875 50  0000 C CNN
F 1 "EM3" H 2118 4966 50  0000 C CNN
F 2 "digikey-footprints:Term_Block_1x2_P5.08MM" H 2200 5200 50  0001 C CNN
F 3 "~" H 2200 5200 50  0001 C CNN
	1    2200 5200
	-1   0    0    1   
$EndComp
Text GLabel 2400 5200 2    50   Input ~ 0
EM3-
$Comp
L power:+BATT #PWR?
U 1 1 5F0E7E3E
P 2400 5100
AR Path="/5EF7CF02/5F0E7E3E" Ref="#PWR?"  Part="1" 
AR Path="/5F0E7E3E" Ref="#PWR0128"  Part="1" 
F 0 "#PWR0128" H 2400 4950 50  0001 C CNN
F 1 "+BATT" V 2415 5228 50  0000 L CNN
F 2 "" H 2400 5100 50  0001 C CNN
F 3 "" H 2400 5100 50  0001 C CNN
	1    2400 5100
	0    1    1    0   
$EndComp
Wire Notes Line
	500  4800 500  5350
Wire Notes Line
	500  5350 2800 5350
Wire Notes Line
	2800 5350 2800 4800
Wire Notes Line
	2800 4800 500  4800
Text Notes 900  5500 0    79   ~ 0
E-MATCH CONNECTIONS\n
$Comp
L power:+BATT #PWR0129
U 1 1 5F0E9ACF
P 5300 3800
F 0 "#PWR0129" H 5300 3650 50  0001 C CNN
F 1 "+BATT" V 5315 3928 50  0000 L CNN
F 2 "" H 5300 3800 50  0001 C CNN
F 3 "" H 5300 3800 50  0001 C CNN
	1    5300 3800
	0    1    1    0   
$EndComp
$Comp
L Device:Buzzer BZ1
U 1 1 5F0EA781
P 3250 6850
F 0 "BZ1" H 3403 6879 50  0000 L CNN
F 1 "CMI-9653S" H 3403 6788 50  0000 L CNN
F 2 "Libraries:CUI_CMI-9653S-SMT" V 3225 6950 50  0001 C CNN
F 3 "https://www.cuidevices.com/product/resource/cmi-9653s-smt-tr.pdf" V 3225 6950 50  0001 C CNN
F 4 "CMI-9653S-SMT-TR" H 3250 6850 50  0001 C CNN "DigiKey"
	1    3250 6850
	1    0    0    -1  
$EndComp
$Comp
L power:+3.3V #PWR0130
U 1 1 5F0EB749
P 3850 3600
F 0 "#PWR0130" H 3850 3450 50  0001 C CNN
F 1 "+3.3V" H 3865 3773 50  0000 C CNN
F 2 "" H 3850 3600 50  0001 C CNN
F 3 "" H 3850 3600 50  0001 C CNN
	1    3850 3600
	1    0    0    -1  
$EndComp
Wire Wire Line
	3850 3600 4300 3600
Wire Wire Line
	4300 3700 4300 3600
Text GLabel 4300 4700 0    50   Input ~ 0
RX
Text GLabel 4300 4800 0    50   Output ~ 0
TX
$Comp
L power:GND #PWR0131
U 1 1 5F0EF634
P 3850 3800
F 0 "#PWR0131" H 3850 3550 50  0001 C CNN
F 1 "GND" H 3855 3627 50  0000 C CNN
F 2 "" H 3850 3800 50  0001 C CNN
F 3 "" H 3850 3800 50  0001 C CNN
	1    3850 3800
	0    1    1    0   
$EndComp
Wire Wire Line
	3850 3800 4300 3800
Text GLabel 4300 4300 0    50   Input ~ 0
CONT_1
Text GLabel 4300 4200 0    50   Input ~ 0
CONT_2
Text GLabel 5300 4900 2    50   BiDi ~ 0
SDA
Text GLabel 5300 4800 2    50   Output ~ 0
SCL
$Comp
L power:+3.3V #PWR0132
U 1 1 5F0F5630
P 3150 6750
F 0 "#PWR0132" H 3150 6600 50  0001 C CNN
F 1 "+3.3V" H 3165 6923 50  0000 C CNN
F 2 "" H 3150 6750 50  0001 C CNN
F 3 "" H 3150 6750 50  0001 C CNN
	1    3150 6750
	1    0    0    -1  
$EndComp
Text GLabel 2550 7150 0    50   Input ~ 0
BUZZ
$Comp
L Device:Q_NMOS_SGD Q?
U 1 1 5F0FABE5
P 3050 7150
AR Path="/5EF7CF02/5F0FABE5" Ref="Q?"  Part="1" 
AR Path="/5F0FABE5" Ref="Q4"  Part="1" 
F 0 "Q4" H 3255 7196 50  0000 L CNN
F 1 "AO3400A" H 3255 7105 50  0000 L CNN
F 2 "Package_TO_SOT_SMD:SOT-23" H 3250 7250 50  0001 C CNN
F 3 "~" H 3050 7150 50  0001 C CNN
F 4 "C20917" H 3050 7150 50  0001 C CNN "LCSC"
	1    3050 7150
	1    0    0    -1  
$EndComp
$Comp
L power:GND #PWR?
U 1 1 5F0FABEB
P 3150 7350
AR Path="/5EF7CF02/5F0FABEB" Ref="#PWR?"  Part="1" 
AR Path="/5F0FABEB" Ref="#PWR0133"  Part="1" 
F 0 "#PWR0133" H 3150 7100 50  0001 C CNN
F 1 "GND" H 3155 7177 50  0000 C CNN
F 2 "" H 3150 7350 50  0001 C CNN
F 3 "" H 3150 7350 50  0001 C CNN
	1    3150 7350
	1    0    0    -1  
$EndComp
$Comp
L Device:R_Small_US R?
U 1 1 5F0FABF1
P 2650 7250
AR Path="/5EF7CF02/5F0FABF1" Ref="R?"  Part="1" 
AR Path="/5F0FABF1" Ref="R6"  Part="1" 
F 0 "R6" H 2582 7204 50  0000 R CNN
F 1 "5.6k" H 2582 7295 50  0000 R CNN
F 2 "Resistor_SMD:R_0402_1005Metric" H 2650 7250 50  0001 C CNN
F 3 "~" H 2650 7250 50  0001 C CNN
F 4 "C25908" H 2650 7250 50  0001 C CNN "LCSC"
	1    2650 7250
	-1   0    0    1   
$EndComp
Wire Wire Line
	2550 7150 2650 7150
Wire Wire Line
	2650 7150 2850 7150
Connection ~ 2650 7150
$Comp
L power:GND #PWR?
U 1 1 5F0FABFA
P 2650 7350
AR Path="/5EF7CF02/5F0FABFA" Ref="#PWR?"  Part="1" 
AR Path="/5F0FABFA" Ref="#PWR0134"  Part="1" 
F 0 "#PWR0134" H 2650 7100 50  0001 C CNN
F 1 "GND" H 2655 7177 50  0000 C CNN
F 2 "" H 2650 7350 50  0001 C CNN
F 3 "" H 2650 7350 50  0001 C CNN
	1    2650 7350
	1    0    0    -1  
$EndComp
Wire Notes Line
	2100 7600 2100 6450
Wire Notes Line
	2100 6450 3900 6450
Wire Notes Line
	3900 6450 3900 7600
Wire Notes Line
	3900 7600 2100 7600
Text Notes 2100 6450 0    50   ~ 0
Buzzer
Wire Notes Line
	6650 3500 10550 3500
Wire Notes Line
	10550 3500 10550 5750
Wire Notes Line
	10550 5750 6650 5750
Wire Notes Line
	6650 5750 6650 3500
Text Notes 6650 3500 0    50   ~ 0
GYRO
Wire Notes Line
	8800 1650 10450 1650
Wire Notes Line
	10450 1650 10450 3400
Wire Notes Line
	10450 3400 8800 3400
Wire Notes Line
	8800 3400 8800 1650
Text Notes 8800 1600 0    50   ~ 0
BARO 2
$Comp
L Sensor_Pressure:BMP280 U4
U 1 1 5F0F3ABB
P 7950 2600
F 0 "U4" H 8180 2696 50  0000 L CNN
F 1 "BMP280" H 8180 2605 50  0000 L CNN
F 2 "Package_LGA:Bosch_LGA-8_2x2.5mm_P0.65mm_ClockwisePinNumbering" H 7950 1900 50  0001 C CNN
F 3 "https://ae-bst.resource.bosch.com/media/_tech/media/datasheets/BST-BMP280-DS001.pdf" H 7950 2600 50  0001 C CNN
F 4 "C83291" H 7950 2600 50  0001 C CNN "LCSC"
	1    7950 2600
	1    0    0    -1  
$EndComp
$Comp
L power:+3.3V #PWR05
U 1 1 5F0F44DD
P 8050 2200
F 0 "#PWR05" H 8050 2050 50  0001 C CNN
F 1 "+3.3V" H 8065 2373 50  0000 C CNN
F 2 "" H 8050 2200 50  0001 C CNN
F 3 "" H 8050 2200 50  0001 C CNN
	1    8050 2200
	1    0    0    -1  
$EndComp
Wire Wire Line
	7950 2200 8050 2200
Connection ~ 8050 2200
$Comp
L Device:C_Small C2
U 1 1 5F0F5C8D
P 8250 1950
F 0 "C2" H 8342 1996 50  0000 L CNN
F 1 "100nF" H 8342 1905 50  0000 L CNN
F 2 "Capacitor_SMD:C_0402_1005Metric" H 8250 1950 50  0001 C CNN
F 3 "~" H 8250 1950 50  0001 C CNN
F 4 "C1525" H 8250 1950 50  0001 C CNN "LCSC"
	1    8250 1950
	1    0    0    -1  
$EndComp
$Comp
L Device:C_Small C1
U 1 1 5F0F6228
P 7600 1950
F 0 "C1" H 7692 1996 50  0000 L CNN
F 1 "100nF" H 7692 1905 50  0000 L CNN
F 2 "Capacitor_SMD:C_0402_1005Metric" H 7600 1950 50  0001 C CNN
F 3 "~" H 7600 1950 50  0001 C CNN
F 4 "C1525" H 7600 1950 50  0001 C CNN "LCSC"
	1    7600 1950
	1    0    0    -1  
$EndComp
$Comp
L power:+3.3V #PWR07
U 1 1 5F0F6EC5
P 8250 1850
F 0 "#PWR07" H 8250 1700 50  0001 C CNN
F 1 "+3.3V" H 8300 2000 50  0000 C CNN
F 2 "" H 8250 1850 50  0001 C CNN
F 3 "" H 8250 1850 50  0001 C CNN
	1    8250 1850
	1    0    0    -1  
$EndComp
$Comp
L power:+3.3V #PWR03
U 1 1 5F0F77B9
P 7600 1850
F 0 "#PWR03" H 7600 1700 50  0001 C CNN
F 1 "+3.3V" H 7500 2000 50  0000 C CNN
F 2 "" H 7600 1850 50  0001 C CNN
F 3 "" H 7600 1850 50  0001 C CNN
	1    7600 1850
	1    0    0    -1  
$EndComp
$Comp
L power:GND #PWR08
U 1 1 5F0F7E43
P 8250 2050
F 0 "#PWR08" H 8250 1800 50  0001 C CNN
F 1 "GND" H 8255 1877 50  0000 C CNN
F 2 "" H 8250 2050 50  0001 C CNN
F 3 "" H 8250 2050 50  0001 C CNN
	1    8250 2050
	1    0    0    -1  
$EndComp
$Comp
L power:GND #PWR04
U 1 1 5F0F877E
P 7600 2050
F 0 "#PWR04" H 7600 1800 50  0001 C CNN
F 1 "GND" H 7605 1877 50  0000 C CNN
F 2 "" H 7600 2050 50  0001 C CNN
F 3 "" H 7600 2050 50  0001 C CNN
	1    7600 2050
	1    0    0    -1  
$EndComp
$Comp
L power:GND #PWR06
U 1 1 5F0FB62D
P 8050 2900
F 0 "#PWR06" H 8050 2650 50  0001 C CNN
F 1 "GND" H 8055 2727 50  0000 C CNN
F 2 "" H 8050 2900 50  0001 C CNN
F 3 "" H 8050 2900 50  0001 C CNN
	1    8050 2900
	1    0    0    -1  
$EndComp
Wire Wire Line
	7950 2900 8050 2900
Connection ~ 8050 2900
Text GLabel 7550 2500 0    50   Input ~ 0
SDA
Text GLabel 7550 2400 0    50   Input ~ 0
SCL
$Comp
L power:GND #PWR01
U 1 1 5F0FD81E
P 7550 2600
F 0 "#PWR01" H 7550 2350 50  0001 C CNN
F 1 "GND" V 7555 2472 50  0000 R CNN
F 2 "" H 7550 2600 50  0001 C CNN
F 3 "" H 7550 2600 50  0001 C CNN
	1    7550 2600
	0    1    1    0   
$EndComp
$Comp
L power:+3.3V #PWR02
U 1 1 5F0FF59A
P 7550 2700
F 0 "#PWR02" H 7550 2550 50  0001 C CNN
F 1 "+3.3V" V 7565 2828 50  0000 L CNN
F 2 "" H 7550 2700 50  0001 C CNN
F 3 "" H 7550 2700 50  0001 C CNN
	1    7550 2700
	0    -1   -1   0   
$EndComp
Wire Notes Line
	8750 3400 8750 1650
Wire Notes Line
	8750 1650 7150 1650
Wire Notes Line
	7150 1650 7150 3400
Wire Notes Line
	7150 3400 8750 3400
Text Notes 7150 1600 0    50   ~ 0
BARO 1
$Comp
L power:PWR_FLAG #FLG02
U 1 1 5F102C51
P 4100 900
F 0 "#FLG02" H 4100 975 50  0001 C CNN
F 1 "PWR_FLAG" H 4100 1073 50  0000 C CNN
F 2 "" H 4100 900 50  0001 C CNN
F 3 "~" H 4100 900 50  0001 C CNN
	1    4100 900 
	1    0    0    -1  
$EndComp
$Comp
L power:VBUS #PWR010
U 1 1 5F1047C9
P 4100 900
F 0 "#PWR010" H 4100 750 50  0001 C CNN
F 1 "VBUS" H 4115 1073 50  0000 C CNN
F 2 "" H 4100 900 50  0001 C CNN
F 3 "" H 4100 900 50  0001 C CNN
	1    4100 900 
	-1   0    0    1   
$EndComp
Wire Notes Line
	3500 650  4700 650 
Wire Notes Line
	4700 650  4700 1150
Wire Notes Line
	4700 1150 3500 1150
Wire Notes Line
	3500 1150 3500 650 
Text GLabel 5300 4700 2    50   Input ~ 0
BUZZ
Text GLabel 4300 3900 0    50   Output ~ 0
EM1_FIRE
Text GLabel 4300 4000 0    50   Output ~ 0
EM2_FIRE
Text GLabel 4300 4100 0    50   Output ~ 0
EM3_FIRE
$Comp
L Connector:Conn_01x03_Male J5
U 1 1 5F10A89B
P 4400 7000
F 0 "J5" V 4462 7144 50  0000 L CNN
F 1 "XServo" V 4553 7144 50  0000 L CNN
F 2 "Connector_PinHeader_2.54mm:PinHeader_1x03_P2.54mm_Vertical" H 4400 7000 50  0001 C CNN
F 3 "~" H 4400 7000 50  0001 C CNN
	1    4400 7000
	0    1    1    0   
$EndComp
$Comp
L Connector:Conn_01x03_Male J6
U 1 1 5F10BB24
P 5400 7000
F 0 "J6" V 5462 7144 50  0000 L CNN
F 1 "YServo" V 5553 7144 50  0000 L CNN
F 2 "Connector_PinHeader_2.54mm:PinHeader_1x03_P2.54mm_Vertical" H 5400 7000 50  0001 C CNN
F 3 "~" H 5400 7000 50  0001 C CNN
	1    5400 7000
	0    1    1    0   
$EndComp
$Comp
L power:GND #PWR011
U 1 1 5F10CF77
P 4300 7200
F 0 "#PWR011" H 4300 6950 50  0001 C CNN
F 1 "GND" H 4305 7027 50  0000 C CNN
F 2 "" H 4300 7200 50  0001 C CNN
F 3 "" H 4300 7200 50  0001 C CNN
	1    4300 7200
	1    0    0    -1  
$EndComp
$Comp
L power:+BATT #PWR012
U 1 1 5F10DA6E
P 4400 7400
F 0 "#PWR012" H 4400 7250 50  0001 C CNN
F 1 "+BATT" H 4415 7573 50  0000 C CNN
F 2 "" H 4400 7400 50  0001 C CNN
F 3 "" H 4400 7400 50  0001 C CNN
	1    4400 7400
	-1   0    0    1   
$EndComp
Wire Wire Line
	4400 7400 4400 7200
Text GLabel 4500 7250 2    50   Input ~ 0
ServoX
Wire Wire Line
	4500 7250 4500 7200
$Comp
L power:GND #PWR014
U 1 1 5F11100F
P 5300 7200
F 0 "#PWR014" H 5300 6950 50  0001 C CNN
F 1 "GND" H 5305 7027 50  0000 C CNN
F 2 "" H 5300 7200 50  0001 C CNN
F 3 "" H 5300 7200 50  0001 C CNN
	1    5300 7200
	1    0    0    -1  
$EndComp
$Comp
L power:+BATT #PWR015
U 1 1 5F11193B
P 5400 7400
F 0 "#PWR015" H 5400 7250 50  0001 C CNN
F 1 "+BATT" H 5415 7573 50  0000 C CNN
F 2 "" H 5400 7400 50  0001 C CNN
F 3 "" H 5400 7400 50  0001 C CNN
	1    5400 7400
	-1   0    0    1   
$EndComp
Wire Wire Line
	5400 7400 5400 7200
Text GLabel 5500 7250 2    50   Input ~ 0
ServoY
Wire Wire Line
	5500 7250 5500 7200
Text GLabel 5300 4600 2    50   Input ~ 0
ServoX
Text GLabel 5300 4500 2    50   Input ~ 0
ServoY
NoConn ~ 4300 4400
NoConn ~ 4300 4500
NoConn ~ 4300 4600
NoConn ~ 5300 4000
NoConn ~ 5300 4100
NoConn ~ 5300 4200
NoConn ~ 5300 4300
NoConn ~ 5300 4400
NoConn ~ 4300 4900
$Comp
L power:+3.3V #PWR019
U 1 1 5F125B8C
P 8000 4400
F 0 "#PWR019" H 8000 4250 50  0001 C CNN
F 1 "+3.3V" V 8015 4528 50  0000 L CNN
F 2 "" H 8000 4400 50  0001 C CNN
F 3 "" H 8000 4400 50  0001 C CNN
	1    8000 4400
	0    -1   -1   0   
$EndComp
$Comp
L power:+3.3V #PWR022
U 1 1 5F1267AF
P 10250 3900
F 0 "#PWR022" H 10250 3750 50  0001 C CNN
F 1 "+3.3V" H 10265 4073 50  0000 C CNN
F 2 "" H 10250 3900 50  0001 C CNN
F 3 "" H 10250 3900 50  0001 C CNN
	1    10250 3900
	1    0    0    -1  
$EndComp
Connection ~ 10250 3900
$Comp
L power:+3.3V #PWR018
U 1 1 5F126E71
P 7600 3750
F 0 "#PWR018" H 7600 3600 50  0001 C CNN
F 1 "+3.3V" H 7615 3923 50  0000 C CNN
F 2 "" H 7600 3750 50  0001 C CNN
F 3 "" H 7600 3750 50  0001 C CNN
	1    7600 3750
	1    0    0    -1  
$EndComp
$Comp
L power:+3.3V #PWR017
U 1 1 5F127849
P 7250 5000
F 0 "#PWR017" H 7250 4850 50  0001 C CNN
F 1 "+3.3V" V 7265 5128 50  0000 L CNN
F 2 "" H 7250 5000 50  0001 C CNN
F 3 "" H 7250 5000 50  0001 C CNN
	1    7250 5000
	0    -1   -1   0   
$EndComp
$Comp
L power:+3.3V #PWR016
U 1 1 5F12850C
P 7250 4500
F 0 "#PWR016" H 7250 4350 50  0001 C CNN
F 1 "+3.3V" V 7265 4628 50  0000 L CNN
F 2 "" H 7250 4500 50  0001 C CNN
F 3 "" H 7250 4500 50  0001 C CNN
	1    7250 4500
	0    -1   -1   0   
$EndComp
Wire Wire Line
	9950 1900 10050 1900
$Comp
L power:+3.3V #PWR021
U 1 1 5F128E46
P 10050 1900
F 0 "#PWR021" H 10050 1750 50  0001 C CNN
F 1 "+3.3V" H 10065 2073 50  0000 C CNN
F 2 "" H 10050 1900 50  0001 C CNN
F 3 "" H 10050 1900 50  0001 C CNN
	1    10050 1900
	1    0    0    -1  
$EndComp
Connection ~ 10050 1900
Wire Wire Line
	10050 1900 10150 1900
Wire Wire Line
	9400 2000 9450 2000
$Comp
L power:+3.3V #PWR020
U 1 1 5F12931D
P 9450 2000
F 0 "#PWR020" H 9450 1850 50  0001 C CNN
F 1 "+3.3V" H 9465 2173 50  0000 C CNN
F 2 "" H 9450 2000 50  0001 C CNN
F 3 "" H 9450 2000 50  0001 C CNN
	1    9450 2000
	1    0    0    -1  
$EndComp
Connection ~ 9450 2000
Wire Wire Line
	9450 2000 9500 2000
$Comp
L PhantomPower-rescue:B4B-PH-K-S_LF__SN_-dk_Rectangular-Connectors-Headers-Male-Pins J2
U 1 1 5F10F1C8
P 1150 7100
F 0 "J2" V 925 7108 50  0000 C CNN
F 1 "Xbee connector" V 1016 7108 50  0000 C CNN
F 2 "Connector_JST:JST_PH_B4B-PH-K_1x04_P2.00mm_Vertical" H 1350 7300 60  0001 L CNN
F 3 "http://www.jst-mfg.com/product/pdf/eng/ePH.pdf" H 1350 7400 60  0001 L CNN
F 4 "455-1706-ND" H 1350 7500 60  0001 L CNN "Digi-Key_PN"
F 5 "B4B-PH-K-S(LF)(SN)" H 1350 7600 60  0001 L CNN "MPN"
F 6 "Connectors, Interconnects" H 1350 7700 60  0001 L CNN "Category"
F 7 "Rectangular Connectors - Headers, Male Pins" H 1350 7800 60  0001 L CNN "Family"
F 8 "http://www.jst-mfg.com/product/pdf/eng/ePH.pdf" H 1350 7900 60  0001 L CNN "DK_Datasheet_Link"
F 9 "/product-detail/en/jst-sales-america-inc/B4B-PH-K-S(LF)(SN)/455-1706-ND/926613" H 1350 8000 60  0001 L CNN "DK_Detail_Page"
F 10 "CONN HEADER VERT 4POS 2MM" H 1350 8100 60  0001 L CNN "Description"
F 11 "JST Sales America Inc." H 1350 8200 60  0001 L CNN "Manufacturer"
F 12 "Active" H 1350 8300 60  0001 L CNN "Status"
	1    1150 7100
	0    1    1    0   
$EndComp
$Comp
L PhantomPower-rescue:KS-01Q-01_Obsolete-dk_Pushbutton-Switches S1
U 1 1 5F18FB43
P 3050 4250
F 0 "S1" H 3050 4575 50  0000 C CNN
F 1 "Button" H 3050 4484 50  0000 C CNN
F 2 "Libraries:TS1187ACDB" H 3250 4450 50  0001 L CNN
F 3 "http://spec_sheets.e-switch.com/specs/29-KS01Q01.pdf" H 3250 4550 60  0001 L CNN
F 4 "EG4791-ND" H 3250 4650 60  0001 L CNN "Digi-Key_PN"
F 5 "KS-01Q-01" H 3250 4750 60  0001 L CNN "MPN"
F 6 "Switches" H 3250 4850 60  0001 L CNN "Category"
F 7 "Pushbutton Switches" H 3250 4950 60  0001 L CNN "Family"
F 8 "http://spec_sheets.e-switch.com/specs/29-KS01Q01.pdf" H 3250 5050 60  0001 L CNN "DK_Datasheet_Link"
F 9 "/product-detail/en/e-switch/KS-01Q-01/EG4791-ND/2116270" H 3250 5150 60  0001 L CNN "DK_Detail_Page"
F 10 "SWITCH PUSH SPST-NO 0.01A 35V" H 3250 5250 60  0001 L CNN "Description"
F 11 "E-Switch" H 3250 5350 60  0001 L CNN "Manufacturer"
F 12 "Obsolete NonStock" H 3250 5450 60  0001 L CNN "Status"
F 13 "C318888" H 3050 4250 50  0001 C CNN "LCSC"
	1    3050 4250
	1    0    0    -1  
$EndComp
$Comp
L Device:R_Small_US R9
U 1 1 5F1962B3
P 3300 4050
F 0 "R9" H 3368 4096 50  0000 L CNN
F 1 "47k" H 3368 4005 50  0000 L CNN
F 2 "Resistor_SMD:R_0402_1005Metric" H 3300 4050 50  0001 C CNN
F 3 "~" H 3300 4050 50  0001 C CNN
	1    3300 4050
	1    0    0    -1  
$EndComp
$Comp
L power:+3.3V #PWR024
U 1 1 5F19414F
P 3300 3950
F 0 "#PWR024" H 3300 3800 50  0001 C CNN
F 1 "+3.3V" H 3315 4123 50  0000 C CNN
F 2 "" H 3300 3950 50  0001 C CNN
F 3 "" H 3300 3950 50  0001 C CNN
	1    3300 3950
	1    0    0    -1  
$EndComp
Wire Wire Line
	3250 4150 3300 4150
$Comp
L power:GND #PWR023
U 1 1 5F19BEDF
P 2850 4350
F 0 "#PWR023" H 2850 4100 50  0001 C CNN
F 1 "GND" H 2855 4177 50  0000 C CNN
F 2 "" H 2850 4350 50  0001 C CNN
F 3 "" H 2850 4350 50  0001 C CNN
	1    2850 4350
	1    0    0    -1  
$EndComp
Wire Wire Line
	3250 4350 3250 4150
Connection ~ 3250 4150
Text GLabel 3250 4350 2    50   Input ~ 0
RST
Text GLabel 4300 3500 0    50   Input ~ 0
RST
Connection ~ 4300 3600
$Comp
L ActivePro:STM32F405_Feather U1
U 1 1 5F0C6B10
P 4750 3250
F 0 "U1" H 4775 3265 50  0000 C CNN
F 1 "STM32F405_Feather" H 4775 3174 50  0000 C CNN
F 2 "Libraries:PCB_FeatherWing" H 4750 3250 50  0001 C CNN
F 3 "" H 4750 3250 50  0001 C CNN
	1    4750 3250
	1    0    0    -1  
$EndComp
$Comp
L PhantomPower-rescue:100SP1T1B4M2QE-dk_Toggle-Switches S2
U 1 1 5F1A37EE
P 5850 3600
F 0 "S2" V 5903 3412 60  0000 R CNN
F 1 "Toggle" V 5797 3412 60  0000 R CNN
F 2 "Used libraries:CSS-1211TB" H 6050 3800 60  0001 L CNN
F 3 "" H 6050 3900 60  0001 L CNN
F 4 "563-1093-2-ND" H 6050 4000 60  0001 L CNN "Digi-Key_PN"
F 5 "CSS-1211TB" H 6050 4100 60  0001 L CNN "MPN"
F 6 "Switches" H 6050 4200 60  0001 L CNN "Category"
F 7 "Toggle Switches" H 6050 4300 60  0001 L CNN "Family"
F 8 "http://spec_sheets.e-switch.com/specs/T111597.pdf" H 6050 4400 60  0001 L CNN "DK_Datasheet_Link"
F 9 "" H 6050 4500 60  0001 L CNN "DK_Detail_Page"
F 10 "" H 6050 4600 60  0001 L CNN "Description"
F 11 "" H 6050 4700 60  0001 L CNN "Manufacturer"
F 12 "Active" H 6050 4800 60  0001 L CNN "Status"
	1    5850 3600
	0    -1   -1   0   
$EndComp
Wire Wire Line
	5300 3900 5850 3900
Wire Wire Line
	5850 3900 5850 3800
$Comp
L power:GND #PWR027
U 1 1 5F1A833E
P 6000 3400
F 0 "#PWR027" H 6000 3150 50  0001 C CNN
F 1 "GND" V 6005 3272 50  0000 R CNN
F 2 "" H 6000 3400 50  0001 C CNN
F 3 "" H 6000 3400 50  0001 C CNN
	1    6000 3400
	0    -1   -1   0   
$EndComp
$Comp
L power:+3.3V #PWR025
U 1 1 5F1A9772
P 5750 3400
F 0 "#PWR025" H 5750 3250 50  0001 C CNN
F 1 "+3.3V" H 5765 3573 50  0000 C CNN
F 2 "" H 5750 3400 50  0001 C CNN
F 3 "" H 5750 3400 50  0001 C CNN
	1    5750 3400
	1    0    0    -1  
$EndComp
Wire Wire Line
	5950 3400 6000 3400
$Comp
L Device:R_Small_US R10
U 1 1 5F1ACB1C
P 5850 4000
F 0 "R10" H 5918 4046 50  0000 L CNN
F 1 "47k" H 5918 3955 50  0000 L CNN
F 2 "Resistor_SMD:R_0402_1005Metric" H 5850 4000 50  0001 C CNN
F 3 "~" H 5850 4000 50  0001 C CNN
F 4 "C25792" H 5850 4000 50  0001 C CNN "LCSC"
	1    5850 4000
	1    0    0    -1  
$EndComp
Connection ~ 5850 3900
$Comp
L power:GND #PWR026
U 1 1 5F1AD139
P 5850 4100
F 0 "#PWR026" H 5850 3850 50  0001 C CNN
F 1 "GND" H 5855 3927 50  0000 C CNN
F 2 "" H 5850 4100 50  0001 C CNN
F 3 "" H 5850 4100 50  0001 C CNN
	1    5850 4100
	1    0    0    -1  
$EndComp
Wire Wire Line
	2850 4150 2850 4350
Connection ~ 2850 4350
$Comp
L Mechanical:MountingHole H1
U 1 1 5F1EA3DB
P 800 5850
F 0 "H1" H 900 5896 50  0000 L CNN
F 1 "MountingHole" H 900 5805 50  0000 L CNN
F 2 "MountingHole:MountingHole_5mm" H 800 5850 50  0001 C CNN
F 3 "~" H 800 5850 50  0001 C CNN
	1    800  5850
	1    0    0    -1  
$EndComp
$Comp
L Mechanical:MountingHole H2
U 1 1 5F1EA6DD
P 800 6050
F 0 "H2" H 900 6096 50  0000 L CNN
F 1 "MountingHole" H 900 6005 50  0000 L CNN
F 2 "MountingHole:MountingHole_5mm" H 800 6050 50  0001 C CNN
F 3 "~" H 800 6050 50  0001 C CNN
	1    800  6050
	1    0    0    -1  
$EndComp
$Comp
L Mechanical:MountingHole H3
U 1 1 5F1EA968
P 800 6250
F 0 "H3" H 900 6296 50  0000 L CNN
F 1 "MountingHole" H 900 6205 50  0000 L CNN
F 2 "MountingHole:MountingHole_5mm" H 800 6250 50  0001 C CNN
F 3 "~" H 800 6250 50  0001 C CNN
	1    800  6250
	1    0    0    -1  
$EndComp
$Comp
L Mechanical:MountingHole H4
U 1 1 5F1EAC0E
P 800 6450
F 0 "H4" H 900 6496 50  0000 L CNN
F 1 "MountingHole" H 900 6405 50  0000 L CNN
F 2 "MountingHole:MountingHole_5mm" H 800 6450 50  0001 C CNN
F 3 "~" H 800 6450 50  0001 C CNN
	1    800  6450
	1    0    0    -1  
$EndComp
Text Notes 7400 7500 0    50   Italic 10
Phantom Power A
Text Notes 10600 7650 0    50   Italic 10
1.0
Text Notes 8100 7650 0    50   Italic 0
7/28/2020
$Comp
L Device:C_Small C3
U 1 1 5F2B010D
P 9950 2000
F 0 "C3" H 9700 2050 50  0000 L CNN
F 1 "100nF" H 9650 1950 50  0000 L CNN
F 2 "Capacitor_SMD:C_0402_1005Metric" H 9950 2000 50  0001 C CNN
F 3 "~" H 9950 2000 50  0001 C CNN
F 4 "C1525" H 9950 2000 50  0001 C CNN "LCSC"
	1    9950 2000
	1    0    0    -1  
$EndComp
$Comp
L Device:C_Small C4
U 1 1 5F2B10B8
P 10150 2000
F 0 "C4" H 9950 1950 50  0000 L CNN
F 1 "10uF" H 9900 2050 50  0000 L CNN
F 2 "Capacitor_SMD:C_0402_1005Metric" H 10150 2000 50  0001 C CNN
F 3 "~" H 10150 2000 50  0001 C CNN
F 4 "C15525" H 10150 2000 50  0001 C CNN "LCSC"
	1    10150 2000
	-1   0    0    1   
$EndComp
$Comp
L Device:C_Small C5
U 1 1 5F2B3787
P 9900 2900
F 0 "C5" H 10000 2950 50  0000 L CNN
F 1 "100nF" H 10000 2850 50  0000 L CNN
F 2 "Capacitor_SMD:C_0402_1005Metric" H 9900 2900 50  0001 C CNN
F 3 "~" H 9900 2900 50  0001 C CNN
F 4 "C1525" H 9900 2900 50  0001 C CNN "LCSC"
	1    9900 2900
	1    0    0    -1  
$EndComp
$EndSCHEMATC
