EESchema Schematic File Version 4
EELAYER 30 0
EELAYER END
$Descr A4 11693 8268
encoding utf-8
Sheet 2 2
Title ""
Date ""
Rev ""
Comp ""
Comment1 ""
Comment2 ""
Comment3 ""
Comment4 ""
$EndDescr
$Comp
L Battery_Management:MCP73831-2-OT U4
U 1 1 5EF7E535
P 3350 1300
F 0 "U4" H 2450 1800 50  0000 C CNN
F 1 "MCP73831T-2ACI/OT" H 2800 1700 50  0000 C CNN
F 2 "Package_TO_SOT_SMD:SOT-23-5" H 3400 1050 50  0001 L CIN
F 3 "http://ww1.microchip.com/downloads/en/DeviceDoc/20001984g.pdf" H 3200 1250 50  0001 C CNN
F 4 "C424093" H 3350 1300 50  0001 C CNN "JLC"
	1    3350 1300
	1    0    0    -1  
$EndComp
$Comp
L Connector:USB_C_Receptacle_USB2.0 J3
U 1 1 5EF7F1F7
P 6100 1000
F 0 "J3" V 6161 1730 50  0000 L CNN
F 1 "USB_C_Receptacle_USB2.0" V 6252 1730 50  0000 L CNN
F 2 "Connector_USB:USB_C_Receptacle_GCT_USB4085" H 6250 1000 50  0001 C CNN
F 3 "https://www.usb.org/sites/default/files/documents/usb_type-c.zip" H 6250 1000 50  0001 C CNN
	1    6100 1000
	0    1    1    0   
$EndComp
$Comp
L power:VBUS #PWR0130
U 1 1 5EF863B0
P 6700 1600
F 0 "#PWR0130" H 6700 1450 50  0001 C CNN
F 1 "VBUS" V 6715 1728 50  0000 L CNN
F 2 "" H 6700 1600 50  0001 C CNN
F 3 "" H 6700 1600 50  0001 C CNN
	1    6700 1600
	0    1    1    0   
$EndComp
$Comp
L power:GND #PWR0131
U 1 1 5EF868B1
P 5200 1000
F 0 "#PWR0131" H 5200 750 50  0001 C CNN
F 1 "GND" H 5205 827 50  0000 C CNN
F 2 "" H 5200 1000 50  0001 C CNN
F 3 "" H 5200 1000 50  0001 C CNN
	1    5200 1000
	1    0    0    -1  
$EndComp
Wire Wire Line
	5200 700  5200 1000
Connection ~ 5200 1000
$Comp
L Device:C_Small C18
U 1 1 5EF87224
P 6700 1700
F 0 "C18" H 6609 1654 50  0000 R CNN
F 1 "100uF" H 6609 1745 50  0000 R CNN
F 2 "Capacitor_SMD:C_0402_1005Metric" H 6700 1700 50  0001 C CNN
F 3 "~" H 6700 1700 50  0001 C CNN
	1    6700 1700
	1    0    0    1   
$EndComp
Connection ~ 6700 1600
$Comp
L power:GND #PWR0132
U 1 1 5EF875F7
P 6700 1800
F 0 "#PWR0132" H 6700 1550 50  0001 C CNN
F 1 "GND" H 6705 1627 50  0000 C CNN
F 2 "" H 6700 1800 50  0001 C CNN
F 3 "" H 6700 1800 50  0001 C CNN
	1    6700 1800
	1    0    0    -1  
$EndComp
NoConn ~ 6500 1600
NoConn ~ 6400 1600
NoConn ~ 6200 1600
NoConn ~ 6100 1600
NoConn ~ 6000 1600
NoConn ~ 5900 1600
NoConn ~ 5600 1600
NoConn ~ 5500 1600
$Comp
L power:+BATT #PWR0133
U 1 1 5EF880BA
P 4000 1200
F 0 "#PWR0133" H 4000 1050 50  0001 C CNN
F 1 "+BATT" H 4015 1373 50  0000 C CNN
F 2 "" H 4000 1200 50  0001 C CNN
F 3 "" H 4000 1200 50  0001 C CNN
	1    4000 1200
	1    0    0    -1  
$EndComp
Wire Wire Line
	4000 1200 3750 1200
$Comp
L Device:C_Small C16
U 1 1 5EF88BA6
P 3450 1000
F 0 "C16" V 3221 1000 50  0000 C CNN
F 1 "10uF" V 3312 1000 50  0000 C CNN
F 2 "Capacitor_SMD:C_0402_1005Metric" H 3450 1000 50  0001 C CNN
F 3 "~" H 3450 1000 50  0001 C CNN
	1    3450 1000
	0    1    1    0   
$EndComp
$Comp
L power:GND #PWR0134
U 1 1 5EF89805
P 3550 1000
F 0 "#PWR0134" H 3550 750 50  0001 C CNN
F 1 "GND" V 3555 872 50  0000 R CNN
F 2 "" H 3550 1000 50  0001 C CNN
F 3 "" H 3550 1000 50  0001 C CNN
	1    3550 1000
	0    -1   -1   0   
$EndComp
$Comp
L power:VBUS #PWR0135
U 1 1 5EF89CEE
P 3350 800
F 0 "#PWR0135" H 3350 650 50  0001 C CNN
F 1 "VBUS" H 3365 973 50  0000 C CNN
F 2 "" H 3350 800 50  0001 C CNN
F 3 "" H 3350 800 50  0001 C CNN
	1    3350 800 
	1    0    0    -1  
$EndComp
Wire Wire Line
	3350 1000 3350 800 
Connection ~ 3350 1000
$Comp
L power:GND #PWR0136
U 1 1 5EF8A5A9
P 3350 1600
F 0 "#PWR0136" H 3350 1350 50  0001 C CNN
F 1 "GND" H 3355 1427 50  0000 C CNN
F 2 "" H 3350 1600 50  0001 C CNN
F 3 "" H 3350 1600 50  0001 C CNN
	1    3350 1600
	1    0    0    -1  
$EndComp
$Comp
L Device:C_Small C17
U 1 1 5EF8AC18
P 4000 1300
F 0 "C17" H 4092 1346 50  0000 L CNN
F 1 "C_Small" H 4092 1255 50  0000 L CNN
F 2 "Capacitor_SMD:C_0402_1005Metric" H 4000 1300 50  0001 C CNN
F 3 "~" H 4000 1300 50  0001 C CNN
	1    4000 1300
	1    0    0    -1  
$EndComp
Connection ~ 4000 1200
$Comp
L power:GND #PWR0137
U 1 1 5EF8B294
P 4000 1400
F 0 "#PWR0137" H 4000 1150 50  0001 C CNN
F 1 "GND" H 4005 1227 50  0000 C CNN
F 2 "" H 4000 1400 50  0001 C CNN
F 3 "" H 4000 1400 50  0001 C CNN
	1    4000 1400
	1    0    0    -1  
$EndComp
$Comp
L Device:R_Small_US R6
U 1 1 5EF8BC61
P 2700 1400
F 0 "R6" V 2495 1400 50  0000 C CNN
F 1 "1k" V 2586 1400 50  0000 C CNN
F 2 "Resistor_SMD:R_0402_1005Metric" H 2700 1400 50  0001 C CNN
F 3 "~" H 2700 1400 50  0001 C CNN
	1    2700 1400
	0    1    1    0   
$EndComp
$Comp
L Device:R_Small_US R7
U 1 1 5EF8C5D0
P 2700 1600
F 0 "R7" V 2800 1600 50  0000 C CNN
F 1 "2.5k" V 2850 1600 50  0000 C CNN
F 2 "Resistor_SMD:R_0402_1005Metric" H 2700 1600 50  0001 C CNN
F 3 "~" H 2700 1600 50  0001 C CNN
	1    2700 1600
	0    1    1    0   
$EndComp
$Comp
L Device:Jumper_NO_Small JP3
U 1 1 5EF8D48F
P 2800 1500
F 0 "JP3" V 2771 1548 50  0000 L CNN
F 1 "Close for 500mA" V 2845 1548 28  0000 L CNN
F 2 "Jumper:SolderJumper-2_P1.3mm_Open_Pad1.0x1.5mm" H 2800 1500 50  0001 C CNN
F 3 "~" H 2800 1500 50  0001 C CNN
	1    2800 1500
	0    1    1    0   
$EndComp
Wire Wire Line
	2950 1400 2800 1400
Connection ~ 2800 1400
Wire Wire Line
	2600 1400 2600 1500
$Comp
L power:GND #PWR0138
U 1 1 5EF8EB76
P 2600 1500
F 0 "#PWR0138" H 2600 1250 50  0001 C CNN
F 1 "GND" V 2605 1372 50  0000 R CNN
F 2 "" H 2600 1500 50  0001 C CNN
F 3 "" H 2600 1500 50  0001 C CNN
	1    2600 1500
	0    1    1    0   
$EndComp
Connection ~ 2600 1500
Wire Wire Line
	2600 1500 2600 1600
Text GLabel 9100 1050 0    50   Input ~ 0
EM1_FIRE
$Comp
L Device:Q_NMOS_SGD Q4
U 1 1 5EF79575
P 9600 1050
F 0 "Q4" H 9805 1096 50  0000 L CNN
F 1 "AO3400A" H 9805 1005 50  0000 L CNN
F 2 "Package_TO_SOT_SMD:SOT-23" H 9800 1150 50  0001 C CNN
F 3 "~" H 9600 1050 50  0001 C CNN
	1    9600 1050
	1    0    0    -1  
$EndComp
$Comp
L power:GND #PWR0139
U 1 1 5EF7B79A
P 9700 1250
F 0 "#PWR0139" H 9700 1000 50  0001 C CNN
F 1 "GND" H 9705 1077 50  0000 C CNN
F 2 "" H 9700 1250 50  0001 C CNN
F 3 "" H 9700 1250 50  0001 C CNN
	1    9700 1250
	1    0    0    -1  
$EndComp
$Comp
L Device:R_Small_US R9
U 1 1 5EF7BEB9
P 9200 1150
F 0 "R9" H 9132 1104 50  0000 R CNN
F 1 "5.6k" H 9132 1195 50  0000 R CNN
F 2 "Resistor_SMD:R_0402_1005Metric" H 9200 1150 50  0001 C CNN
F 3 "~" H 9200 1150 50  0001 C CNN
	1    9200 1150
	-1   0    0    1   
$EndComp
Wire Wire Line
	9100 1050 9200 1050
Wire Wire Line
	9200 1050 9400 1050
Connection ~ 9200 1050
$Comp
L power:GND #PWR0140
U 1 1 5EF7D4AC
P 9200 1250
F 0 "#PWR0140" H 9200 1000 50  0001 C CNN
F 1 "GND" H 9205 1077 50  0000 C CNN
F 2 "" H 9200 1250 50  0001 C CNN
F 3 "" H 9200 1250 50  0001 C CNN
	1    9200 1250
	1    0    0    -1  
$EndComp
Text GLabel 9700 850  1    50   Input ~ 0
EM1-
$Comp
L Device:R_Small_US R12
U 1 1 5EF7EB5D
P 10600 950
F 0 "R12" H 10668 996 50  0000 L CNN
F 1 "5.6k" H 10668 905 50  0000 L CNN
F 2 "Resistor_SMD:R_0402_1005Metric" H 10600 950 50  0001 C CNN
F 3 "~" H 10600 950 50  0001 C CNN
	1    10600 950 
	1    0    0    -1  
$EndComp
$Comp
L Device:D_Zener D2
U 1 1 5EF80A9D
P 10600 1200
F 0 "D2" V 10646 1120 50  0000 R CNN
F 1 "MMSZ4684" V 10555 1120 50  0000 R CNN
F 2 "Diode_SMD:D_SOD-123" H 10600 1200 50  0001 C CNN
F 3 "~" H 10600 1200 50  0001 C CNN
	1    10600 1200
	0    -1   -1   0   
$EndComp
Text GLabel 10600 850  1    50   Input ~ 0
EM1-
$Comp
L power:GND #PWR0141
U 1 1 5EF8282D
P 10600 1350
F 0 "#PWR0141" H 10600 1100 50  0001 C CNN
F 1 "GND" H 10605 1177 50  0000 C CNN
F 2 "" H 10600 1350 50  0001 C CNN
F 3 "" H 10600 1350 50  0001 C CNN
	1    10600 1350
	1    0    0    -1  
$EndComp
Text GLabel 10600 1050 0    50   Input ~ 0
CONT_1
Wire Notes Line
	10200 550  10200 1600
Wire Notes Line
	8550 1600 8550 550 
Wire Notes Line
	11150 550  11150 1600
Wire Notes Line
	8550 550  11150 550 
Wire Notes Line
	8550 1600 11150 1600
Text Notes 9050 1700 0    50   ~ 0
EMATCH FIRING
Text Notes 10300 1700 0    50   ~ 0
EMATCH CONTINUITY
Text GLabel 9100 2450 0    50   Input ~ 0
EM2_FIRE
$Comp
L Device:Q_NMOS_SGD Q5
U 1 1 5EF8D83C
P 9600 2450
F 0 "Q5" H 9805 2496 50  0000 L CNN
F 1 "AO3400A" H 9805 2405 50  0000 L CNN
F 2 "Package_TO_SOT_SMD:SOT-23" H 9800 2550 50  0001 C CNN
F 3 "~" H 9600 2450 50  0001 C CNN
	1    9600 2450
	1    0    0    -1  
$EndComp
$Comp
L power:GND #PWR0142
U 1 1 5EF8D842
P 9700 2650
F 0 "#PWR0142" H 9700 2400 50  0001 C CNN
F 1 "GND" H 9705 2477 50  0000 C CNN
F 2 "" H 9700 2650 50  0001 C CNN
F 3 "" H 9700 2650 50  0001 C CNN
	1    9700 2650
	1    0    0    -1  
$EndComp
$Comp
L Device:R_Small_US R10
U 1 1 5EF8D848
P 9200 2550
F 0 "R10" H 9132 2504 50  0000 R CNN
F 1 "5.6k" H 9132 2595 50  0000 R CNN
F 2 "Resistor_SMD:R_0402_1005Metric" H 9200 2550 50  0001 C CNN
F 3 "~" H 9200 2550 50  0001 C CNN
	1    9200 2550
	-1   0    0    1   
$EndComp
Wire Wire Line
	9100 2450 9200 2450
Wire Wire Line
	9200 2450 9400 2450
Connection ~ 9200 2450
$Comp
L power:GND #PWR0143
U 1 1 5EF8D851
P 9200 2650
F 0 "#PWR0143" H 9200 2400 50  0001 C CNN
F 1 "GND" H 9205 2477 50  0000 C CNN
F 2 "" H 9200 2650 50  0001 C CNN
F 3 "" H 9200 2650 50  0001 C CNN
	1    9200 2650
	1    0    0    -1  
$EndComp
Text GLabel 9700 2250 1    50   Input ~ 0
EM2-
$Comp
L Device:R_Small_US R13
U 1 1 5EF8D858
P 10600 2350
F 0 "R13" H 10668 2396 50  0000 L CNN
F 1 "5.6k" H 10668 2305 50  0000 L CNN
F 2 "Resistor_SMD:R_0402_1005Metric" H 10600 2350 50  0001 C CNN
F 3 "~" H 10600 2350 50  0001 C CNN
	1    10600 2350
	1    0    0    -1  
$EndComp
$Comp
L Device:D_Zener D3
U 1 1 5EF8D85E
P 10600 2600
F 0 "D3" V 10646 2520 50  0000 R CNN
F 1 "MMSZ4684" V 10555 2520 50  0000 R CNN
F 2 "Diode_SMD:D_SOD-123" H 10600 2600 50  0001 C CNN
F 3 "~" H 10600 2600 50  0001 C CNN
	1    10600 2600
	0    -1   -1   0   
$EndComp
Text GLabel 10600 2250 1    50   Input ~ 0
EM2-
$Comp
L power:GND #PWR0144
U 1 1 5EF8D865
P 10600 2750
F 0 "#PWR0144" H 10600 2500 50  0001 C CNN
F 1 "GND" H 10605 2577 50  0000 C CNN
F 2 "" H 10600 2750 50  0001 C CNN
F 3 "" H 10600 2750 50  0001 C CNN
	1    10600 2750
	1    0    0    -1  
$EndComp
Text GLabel 10600 2450 0    50   Input ~ 0
CONT_2
Wire Notes Line
	10200 1950 10200 3000
Wire Notes Line
	8550 3000 8550 1950
Wire Notes Line
	11150 1950 11150 3000
Wire Notes Line
	8550 1950 11150 1950
Wire Notes Line
	8550 3000 11150 3000
Text Notes 9050 3100 0    50   ~ 0
EMATCH FIRING
Text Notes 10300 3100 0    50   ~ 0
EMATCH CONTINUITY
Text GLabel 9100 3800 0    50   Input ~ 0
EM3_FIRE
$Comp
L Device:Q_NMOS_SGD Q6
U 1 1 5EF8F00F
P 9600 3800
F 0 "Q6" H 9805 3846 50  0000 L CNN
F 1 "AO3400A" H 9805 3755 50  0000 L CNN
F 2 "Package_TO_SOT_SMD:SOT-23" H 9800 3900 50  0001 C CNN
F 3 "~" H 9600 3800 50  0001 C CNN
	1    9600 3800
	1    0    0    -1  
$EndComp
$Comp
L power:GND #PWR0145
U 1 1 5EF8F015
P 9700 4000
F 0 "#PWR0145" H 9700 3750 50  0001 C CNN
F 1 "GND" H 9705 3827 50  0000 C CNN
F 2 "" H 9700 4000 50  0001 C CNN
F 3 "" H 9700 4000 50  0001 C CNN
	1    9700 4000
	1    0    0    -1  
$EndComp
$Comp
L Device:R_Small_US R11
U 1 1 5EF8F01B
P 9200 3900
F 0 "R11" H 9132 3854 50  0000 R CNN
F 1 "5.6k" H 9132 3945 50  0000 R CNN
F 2 "Resistor_SMD:R_0402_1005Metric" H 9200 3900 50  0001 C CNN
F 3 "~" H 9200 3900 50  0001 C CNN
	1    9200 3900
	-1   0    0    1   
$EndComp
Wire Wire Line
	9100 3800 9200 3800
Wire Wire Line
	9200 3800 9400 3800
Connection ~ 9200 3800
$Comp
L power:GND #PWR0146
U 1 1 5EF8F024
P 9200 4000
F 0 "#PWR0146" H 9200 3750 50  0001 C CNN
F 1 "GND" H 9205 3827 50  0000 C CNN
F 2 "" H 9200 4000 50  0001 C CNN
F 3 "" H 9200 4000 50  0001 C CNN
	1    9200 4000
	1    0    0    -1  
$EndComp
Text GLabel 9700 3600 1    50   Input ~ 0
EM3-
Text Notes 9050 4450 0    50   ~ 0
EMATCH FIRING
Wire Notes Line
	8550 4350 8550 3300
Wire Notes Line
	10200 3300 10200 4350
Wire Notes Line
	8550 3300 10200 3300
Wire Notes Line
	10200 4350 8550 4350
Text Notes 8500 1200 1    50   ~ 0
E-MATCH 1
Text Notes 8500 2600 1    50   ~ 0
E-MATCH 2
Text Notes 8500 4000 1    50   ~ 0
E-MATCH 3
$Comp
L Connector:Screw_Terminal_01x02 J4
U 1 1 5EF9C232
P 8500 5100
F 0 "J4" H 8418 4775 50  0000 C CNN
F 1 "EM1" H 8418 4866 50  0000 C CNN
F 2 "TerminalBlock_Phoenix:TerminalBlock_Phoenix_MKDS-3-2-5.08_1x02_P5.08mm_Horizontal" H 8500 5100 50  0001 C CNN
F 3 "~" H 8500 5100 50  0001 C CNN
	1    8500 5100
	-1   0    0    1   
$EndComp
Text GLabel 8700 5100 2    50   Input ~ 0
EM1-
$Comp
L power:+BATT #PWR0147
U 1 1 5EF9D8AB
P 8700 5000
F 0 "#PWR0147" H 8700 4850 50  0001 C CNN
F 1 "+BATT" V 8715 5128 50  0000 L CNN
F 2 "" H 8700 5000 50  0001 C CNN
F 3 "" H 8700 5000 50  0001 C CNN
	1    8700 5000
	0    1    1    0   
$EndComp
$Comp
L Connector:Screw_Terminal_01x02 J5
U 1 1 5EF9FCE6
P 9300 5100
F 0 "J5" H 9218 4775 50  0000 C CNN
F 1 "EM2" H 9218 4866 50  0000 C CNN
F 2 "TerminalBlock_Phoenix:TerminalBlock_Phoenix_MKDS-3-2-5.08_1x02_P5.08mm_Horizontal" H 9300 5100 50  0001 C CNN
F 3 "~" H 9300 5100 50  0001 C CNN
	1    9300 5100
	-1   0    0    1   
$EndComp
Text GLabel 9500 5100 2    50   Input ~ 0
EM2-
$Comp
L power:+BATT #PWR0148
U 1 1 5EF9FCED
P 9500 5000
F 0 "#PWR0148" H 9500 4850 50  0001 C CNN
F 1 "+BATT" V 9515 5128 50  0000 L CNN
F 2 "" H 9500 5000 50  0001 C CNN
F 3 "" H 9500 5000 50  0001 C CNN
	1    9500 5000
	0    1    1    0   
$EndComp
$Comp
L Connector:Screw_Terminal_01x02 J6
U 1 1 5EFA03A5
P 10050 5100
F 0 "J6" H 9968 4775 50  0000 C CNN
F 1 "EM3" H 9968 4866 50  0000 C CNN
F 2 "TerminalBlock_Phoenix:TerminalBlock_Phoenix_MKDS-3-2-5.08_1x02_P5.08mm_Horizontal" H 10050 5100 50  0001 C CNN
F 3 "~" H 10050 5100 50  0001 C CNN
	1    10050 5100
	-1   0    0    1   
$EndComp
Text GLabel 10250 5100 2    50   Input ~ 0
EM3-
$Comp
L power:+BATT #PWR0149
U 1 1 5EFA03AC
P 10250 5000
F 0 "#PWR0149" H 10250 4850 50  0001 C CNN
F 1 "+BATT" V 10265 5128 50  0000 L CNN
F 2 "" H 10250 5000 50  0001 C CNN
F 3 "" H 10250 5000 50  0001 C CNN
	1    10250 5000
	0    1    1    0   
$EndComp
Wire Notes Line
	8350 4700 8350 5250
Wire Notes Line
	8350 5250 10650 5250
Wire Notes Line
	10650 5250 10650 4700
Wire Notes Line
	10650 4700 8350 4700
Text Notes 8750 5400 0    79   ~ 0
E-MATCH CONNECTIONS\n
Wire Notes Line
	4950 550  4950 2100
Wire Notes Line
	4950 2100 7950 2100
Wire Notes Line
	7950 2100 7950 550 
Wire Notes Line
	7950 550  4950 550 
Text Notes 5850 2300 0    79   ~ 0
USB-C HEADER
Text GLabel 3850 1750 2    50   Input ~ 0
Charge_Stat
$Comp
L Device:R_Small_US R8
U 1 1 5EFA73FA
P 3850 1850
F 0 "R8" H 3782 1804 50  0000 R CNN
F 1 "10k" H 3782 1895 50  0000 R CNN
F 2 "Resistor_SMD:R_0402_1005Metric" H 3850 1850 50  0001 C CNN
F 3 "~" H 3850 1850 50  0001 C CNN
	1    3850 1850
	1    0    0    1   
$EndComp
$Comp
L power:GND #PWR0150
U 1 1 5EFA7EF9
P 3850 1950
F 0 "#PWR0150" H 3850 1700 50  0001 C CNN
F 1 "GND" H 3855 1777 50  0000 C CNN
F 2 "" H 3850 1950 50  0001 C CNN
F 3 "" H 3850 1950 50  0001 C CNN
	1    3850 1950
	1    0    0    -1  
$EndComp
Wire Wire Line
	3750 1400 3850 1400
Wire Wire Line
	3850 1400 3850 1750
Wire Notes Line
	4500 550  4500 2150
Wire Notes Line
	4500 2150 2250 2150
Wire Notes Line
	2250 2150 2250 550 
Wire Notes Line
	2250 550  4500 550 
Text Notes 2850 2300 0    79   ~ 0
LI-PO CHARGER
Text Notes 7500 7500 0    67   Italic 0
POWER SYSTEMS
Text Notes 10600 7650 0    67   Italic 0
0
$Comp
L power:PWR_FLAG #FLG0101
U 1 1 5EFAF0B4
P 7200 1600
F 0 "#FLG0101" H 7200 1675 50  0001 C CNN
F 1 "PWR_FLAG" H 7200 1773 50  0000 C CNN
F 2 "" H 7200 1600 50  0001 C CNN
F 3 "~" H 7200 1600 50  0001 C CNN
	1    7200 1600
	-1   0    0    1   
$EndComp
$Comp
L power:VBUS #PWR0151
U 1 1 5EFAF718
P 7200 1600
F 0 "#PWR0151" H 7200 1450 50  0001 C CNN
F 1 "VBUS" H 7215 1773 50  0000 C CNN
F 2 "" H 7200 1600 50  0001 C CNN
F 3 "" H 7200 1600 50  0001 C CNN
	1    7200 1600
	1    0    0    -1  
$EndComp
Text GLabel 1750 3250 2    50   Input ~ 0
SDA
Text GLabel 1750 3150 2    50   Input ~ 0
SCL
$Comp
L power:GND #PWR?
U 1 1 5F03F9AF
P 1900 3350
AR Path="/5F0277E6/5F03F9AF" Ref="#PWR?"  Part="1" 
AR Path="/5EF7CF02/5F03F9AF" Ref="#PWR01"  Part="1" 
F 0 "#PWR01" H 1900 3100 50  0001 C CNN
F 1 "GND" V 1905 3222 50  0000 R CNN
F 2 "" H 1900 3350 50  0001 C CNN
F 3 "" H 1900 3350 50  0001 C CNN
	1    1900 3350
	0    -1   -1   0   
$EndComp
Wire Wire Line
	1900 3350 1750 3350
$Comp
L power:+BATT #PWR?
U 1 1 5F03F9B6
P 2000 3050
AR Path="/5F0277E6/5F03F9B6" Ref="#PWR?"  Part="1" 
AR Path="/5EF7CF02/5F03F9B6" Ref="#PWR03"  Part="1" 
F 0 "#PWR03" H 2000 2900 50  0001 C CNN
F 1 "+BATT" H 2015 3223 50  0000 C CNN
F 2 "" H 2000 3050 50  0001 C CNN
F 3 "" H 2000 3050 50  0001 C CNN
	1    2000 3050
	1    0    0    -1  
$EndComp
Wire Wire Line
	2000 3050 1750 3050
Text GLabel 1750 3950 2    50   Input ~ 0
TX
$Comp
L power:GND #PWR?
U 1 1 5F03F9C4
P 1900 4150
AR Path="/5F0277E6/5F03F9C4" Ref="#PWR?"  Part="1" 
AR Path="/5EF7CF02/5F03F9C4" Ref="#PWR02"  Part="1" 
F 0 "#PWR02" H 1900 3900 50  0001 C CNN
F 1 "GND" V 1905 4022 50  0000 R CNN
F 2 "" H 1900 4150 50  0001 C CNN
F 3 "" H 1900 4150 50  0001 C CNN
	1    1900 4150
	0    -1   -1   0   
$EndComp
Wire Wire Line
	1900 4150 1750 4150
$Comp
L power:+BATT #PWR?
U 1 1 5F03F9CB
P 2000 3850
AR Path="/5F0277E6/5F03F9CB" Ref="#PWR?"  Part="1" 
AR Path="/5EF7CF02/5F03F9CB" Ref="#PWR04"  Part="1" 
F 0 "#PWR04" H 2000 3700 50  0001 C CNN
F 1 "+BATT" H 2015 4023 50  0000 C CNN
F 2 "" H 2000 3850 50  0001 C CNN
F 3 "" H 2000 3850 50  0001 C CNN
	1    2000 3850
	1    0    0    -1  
$EndComp
Wire Wire Line
	2000 3850 1750 3850
Text GLabel 1750 4050 2    50   Input ~ 0
RX
$Comp
L Connector:Screw_Terminal_01x04 J7
U 1 1 5F0400EB
P 1550 3250
F 0 "J7" H 1468 2825 50  0000 C CNN
F 1 "i2c connector" H 1468 2916 50  0000 C CNN
F 2 "" H 1550 3250 50  0001 C CNN
F 3 "~" H 1550 3250 50  0001 C CNN
	1    1550 3250
	-1   0    0    1   
$EndComp
$Comp
L Connector:Screw_Terminal_01x04 J8
U 1 1 5F040C4B
P 1550 4050
F 0 "J8" H 1468 3625 50  0000 C CNN
F 1 "xBee connector" H 1550 3700 50  0000 C CNN
F 2 "" H 1550 4050 50  0001 C CNN
F 3 "~" H 1550 4050 50  0001 C CNN
	1    1550 4050
	-1   0    0    1   
$EndComp
$EndSCHEMATC
