(module Bosch_Sensortec-BMX055-MFG (layer F.Cu) (tedit 5EF1E94A)
(fp_line (start -2.3000000000 1.5500000000) (end -2.3000000000 -1.5500000000) (layer F.Fab) (width 0.15))
(fp_line (start -2.3000000000 -1.5500000000) (end 2.3000000000 -1.5500000000) (layer F.Fab) (width 0.15))
(fp_line (start 2.3000000000 -1.5500000000) (end 2.3000000000 1.5500000000) (layer F.Fab) (width 0.15))
(fp_line (start 2.3000000000 1.5500000000) (end -2.3000000000 1.5500000000) (layer F.Fab) (width 0.15))
(fp_line (start 2.7499990000 -2.0250000000) (end 2.7499990000 -2.0250000000) (layer F.CrtYd) (width 0.15))
(fp_line (start 2.7499990000 -2.0250000000) (end -2.7499990000 -2.0250000000) (layer F.CrtYd) (width 0.15))
(fp_line (start -2.7499990000 -2.0250000000) (end -2.7499990000 2.0250000000) (layer F.CrtYd) (width 0.15))
(fp_line (start -2.7499990000 2.0250000000) (end 2.7499990000 2.0250000000) (layer F.CrtYd) (width 0.15))
(fp_line (start 2.7499990000 2.0250000000) (end 2.7499990000 -2.0250000000) (layer F.CrtYd) (width 0.15))
(fp_line (start -2.3000000000 -1.5500000000) (end -2.0000000000 -1.5500000000) (layer F.SilkS) (width 0.15))
(fp_line (start 2.0000000000 -1.5500000000) (end 2.3000000000 -1.5500000000) (layer F.SilkS) (width 0.15))
(fp_line (start 2.3000000000 1.5500000000) (end 2.3000000000 1.0000000000) (layer F.SilkS) (width 0.15))
(fp_line (start 2.3000000000 -1.0000000000) (end 2.3000000000 -1.5500000000) (layer F.SilkS) (width 0.15))
(fp_line (start -2.3000000000 1.5500000000) (end -2.0000000000 1.5500000000) (layer F.SilkS) (width 0.15))
(fp_line (start 2.0000000000 1.5500000000) (end 2.3000000000 1.5500000000) (layer F.SilkS) (width 0.15))
(fp_line (start -2.3000000000 1.5500000000) (end -2.3000000000 1.0000000000) (layer F.SilkS) (width 0.15))
(fp_line (start -2.3000000000 -1.0000000000) (end -2.3000000000 -1.5500000000) (layer F.SilkS) (width 0.15))
(fp_text reference REF** (at -3.0250000000 -2.6500000000 0.0000000000) (layer F.SilkS) (effects (justify left) (font (size 1.0 1.0) (thickness 0.15))))
(fp_circle (center -1.5000000000 -2.1750000000) (end -1.3750000000 -2.1750000000) (layer F.SilkS) (width 0.25))
(pad 1 smd rect (at -1.5000000000 -1.2625000000 )(size 0.2500000000 0.6750000000)(layers F.Mask F.Paste F.Cu))
(pad 2 smd rect (at -1.0000000000 -1.2625000000 )(size 0.2500000000 0.6750000000)(layers F.Mask F.Paste F.Cu))
(pad 3 smd rect (at -0.5000000000 -1.2625000000 )(size 0.2500000000 0.6750000000)(layers F.Mask F.Paste F.Cu))
(pad 4 smd rect (at 0.0000000000 -1.2625000000 )(size 0.2500000000 0.6750000000)(layers F.Mask F.Paste F.Cu))
(pad 5 smd rect (at 0.5000000000 -1.2625000000 )(size 0.2500000000 0.6750000000)(layers F.Mask F.Paste F.Cu))
(pad 6 smd rect (at 1.0000000000 -1.2625000000 )(size 0.2500000000 0.6750000000)(layers F.Mask F.Paste F.Cu))
(pad 7 smd rect (at 1.5000000000 -1.2625000000 )(size 0.2500000000 0.6750000000)(layers F.Mask F.Paste F.Cu))
(pad 11 smd rect (at 1.5000000000 1.2625000000 )(size 0.2500000000 0.6750000000)(layers F.Mask F.Paste F.Cu))
(pad 12 smd rect (at 1.0000000000 1.2625000000 )(size 0.2500000000 0.6750000000)(layers F.Mask F.Paste F.Cu))
(pad 13 smd rect (at 0.5000000000 1.2625000000 )(size 0.2500000000 0.6750000000)(layers F.Mask F.Paste F.Cu))
(pad 14 smd rect (at 0.0000000000 1.2625000000 )(size 0.2500000000 0.6750000000)(layers F.Mask F.Paste F.Cu))
(pad 15 smd rect (at -0.5000000000 1.2625000000 )(size 0.2500000000 0.6750000000)(layers F.Mask F.Paste F.Cu))
(pad 16 smd rect (at -1.0000000000 1.2625000000 )(size 0.2500000000 0.6750000000)(layers F.Mask F.Paste F.Cu))
(pad 17 smd rect (at -1.5000000000 1.2625000000 )(size 0.2500000000 0.6750000000)(layers F.Mask F.Paste F.Cu))
(pad 8 smd rect (at 2.0499990000 -0.5000000000 )(size 0.5500000000 0.2500000000)(layers F.Mask F.Paste F.Cu))
(pad 9 smd rect (at 2.0499990000 0.0000000000 )(size 0.5500000000 0.2500000000)(layers F.Mask F.Paste F.Cu))
(pad 10 smd rect (at 2.0499990000 0.5000000000 )(size 0.5500000000 0.2500000000)(layers F.Mask F.Paste F.Cu))
(pad 18 smd rect (at -2.0499990000 0.5000000000 )(size 0.5500000000 0.2500000000)(layers F.Mask F.Paste F.Cu))
(pad 19 smd rect (at -2.0499990000 0.0000000000 )(size 0.5500000000 0.2500000000)(layers F.Mask F.Paste F.Cu))
(pad 20 smd rect (at -2.0499990000 -0.5000000000 )(size 0.5500000000 0.2500000000)(layers F.Mask F.Paste F.Cu))
(model eec.models/Bosch_Sensortec_-_BMX055.step
      (at (xyz 0.0000000000 0.0000000000 0.0000000000))
      (rotate (xyz 0.0000000000 0.0000000000 0.0000000000))
      (scale (xyz 1 1 1))
    )
)
