PCBNEW-LibModule-V1  2020-07-25 01:05:28
# encoding utf-8
Units mm
$INDEX
TS1187ACDB
$EndINDEX
$MODULE TS1187ACDB
Po 0 0 0 15 5f1b7748 00000000 ~~
Li TS1187ACDB
Cd TS-1187A-C-D-B-2
Kw Switch
Sc 0
At SMD
AR 
Op 0 0 0
T0 -0.350 -0 1.27 1.27 0 0.254 N V 21 N "S**"
T1 -0.350 -0 1.27 1.27 0 0.254 N I 21 N "TS1187ACDB"
DS -2.55 2.55 2.55 2.55 0.2 24
DS 2.55 2.55 2.55 -2.55 0.2 24
DS 2.55 -2.55 -2.55 -2.55 0.2 24
DS -2.55 -2.55 -2.55 2.55 0.2 24
DS -2 -2.55 2 -2.55 0.1 21
DS 2 -2.55 2 -2.55 0.1 21
DS 2 -2.55 -2 -2.55 0.1 21
DS -2 -2.55 -2 -2.55 0.1 21
DS -2 2.55 2 2.55 0.1 21
DS 2 2.55 2 2.55 0.1 21
DS 2 2.55 -2 2.55 0.1 21
DS -2 2.55 -2 2.55 0.1 21
DS 2.55 -1 2.55 -1 0.1 21
DS 2.55 -1 2.55 1 0.1 21
DS 2.55 1 2.55 1 0.1 21
DS 2.55 1 2.55 -1 0.1 21
DS -2.55 -1 -2.55 -1 0.1 21
DS -2.55 -1 -2.55 1 0.1 21
DS -2.55 1 -2.55 1 0.1 21
DS -2.55 1 -2.55 -1 0.1 21
DS -5.2 -3.55 4.5 -3.55 0.1 24
DS 4.5 -3.55 4.5 3.55 0.1 24
DS 4.5 3.55 -5.2 3.55 0.1 24
DS -5.2 3.55 -5.2 -3.55 0.1 24
DS -4.2 -1.8 -4.2 -1.8 0.2 21
DS -4.1 -1.8 -4.1 -1.8 0.2 21
DS -4.2 -1.8 -4.2 -1.8 0.2 21
DA -4.15 -1.8 -4.200 -1.8 -1800 0.2 21
DA -4.15 -1.8 -4.100 -1.8 -1800 0.2 21
DA -4.15 -1.8 -4.200 -1.8 -1800 0.2 21
$PAD
Po -3.000 -1.875
Sh "A1" R 0.750 1.000 0 0 900
At SMD N 00888000
Ne 0 ""
$EndPAD
$PAD
Po 3.000 -1.875
Sh "B1" R 0.750 1.000 0 0 900
At SMD N 00888000
Ne 0 ""
$EndPAD
$PAD
Po -3.000 1.875
Sh "C1" R 0.750 1.000 0 0 900
At SMD N 00888000
Ne 0 ""
$EndPAD
$PAD
Po 3.000 1.875
Sh "D1" R 0.750 1.000 0 0 900
At SMD N 00888000
Ne 0 ""
$EndPAD
$EndMODULE TS1187ACDB
$EndLIBRARY
