EESchema Schematic File Version 4
EELAYER 30 0
EELAYER END
$Descr A4 11693 8268
encoding utf-8
Sheet 1 1
Title ""
Date ""
Rev ""
Comp ""
Comment1 ""
Comment2 ""
Comment3 ""
Comment4 ""
$EndDescr
$Comp
L dk_RF-Transceiver-Modules:XB24CZ7PIT-004 MOD1
U 1 1 5F03F9B9
P 2950 3550
F 0 "MOD1" H 2000 4550 60  0000 C CNN
F 1 "XB3-24Z8PT-J" H 2250 4450 60  0000 C CNN
F 2 "digikey-footprints:XBEE-20_THT" H 3150 3750 60  0001 L CNN
F 3 "https://www.digi.com/resources/documentation/digidocs/pdfs/90001500.pdf" H 3150 3850 60  0001 L CNN
F 4 "602-1557-ND" H 3150 3950 60  0001 L CNN "Digi-Key_PN"
F 5 "XB24CZ7PIT-004" H 3150 4050 60  0001 L CNN "MPN"
F 6 "RF/IF and RFID" H 3150 4150 60  0001 L CNN "Category"
F 7 "RF Transceiver Modules" H 3150 4250 60  0001 L CNN "Family"
F 8 "https://www.digi.com/resources/documentation/digidocs/pdfs/90001500.pdf" H 3150 4350 60  0001 L CNN "DK_Datasheet_Link"
F 9 "/product-detail/en/digi-international/XB24CZ7PIT-004/602-1557-ND/5322371" H 3150 4450 60  0001 L CNN "DK_Detail_Page"
F 10 "RF TXRX MOD 802.15.4 TRACE ANT" H 3150 4550 60  0001 L CNN "Description"
F 11 "Digi International" H 3150 4650 60  0001 L CNN "Manufacturer"
F 12 "Active" H 3150 4750 60  0001 L CNN "Status"
	1    2950 3550
	1    0    0    -1  
$EndComp
$Comp
L power:GND #PWR0101
U 1 1 5F2B5BB4
P 2750 3950
F 0 "#PWR0101" H 2750 3700 50  0001 C CNN
F 1 "GND" H 2755 3777 50  0000 C CNN
F 2 "" H 2750 3950 50  0001 C CNN
F 3 "" H 2750 3950 50  0001 C CNN
	1    2750 3950
	1    0    0    -1  
$EndComp
Text GLabel 2150 2950 0    50   Input ~ 0
RX
Text GLabel 3550 2950 2    50   Output ~ 0
TX
NoConn ~ 3550 3750
NoConn ~ 3550 3650
NoConn ~ 3550 3550
NoConn ~ 3550 3450
NoConn ~ 3550 3350
NoConn ~ 3550 3250
NoConn ~ 3550 3150
NoConn ~ 3550 3050
NoConn ~ 2150 3750
NoConn ~ 2150 3650
NoConn ~ 2150 3550
NoConn ~ 2150 3450
NoConn ~ 2150 3350
NoConn ~ 2150 3250
NoConn ~ 2150 3050
Wire Wire Line
	2350 1900 1950 1900
$Comp
L dk_Rectangular-Connectors-Headers-Male-Pins:B4B-PH-K-S_LF__SN_ J1
U 1 1 5F2B165A
P 1850 1900
F 0 "J1" V 1625 1908 50  0000 C CNN
F 1 "B4B-PH-K-S_LF__SN_" V 1716 1908 50  0000 C CNN
F 2 "digikey-footprints:PinHeader_1x4_P2mm_Drill1mm" H 2050 2100 60  0001 L CNN
F 3 "http://www.jst-mfg.com/product/pdf/eng/ePH.pdf" H 2050 2200 60  0001 L CNN
F 4 "455-1706-ND" H 2050 2300 60  0001 L CNN "Digi-Key_PN"
F 5 "B4B-PH-K-S(LF)(SN)" H 2050 2400 60  0001 L CNN "MPN"
F 6 "Connectors, Interconnects" H 2050 2500 60  0001 L CNN "Category"
F 7 "Rectangular Connectors - Headers, Male Pins" H 2050 2600 60  0001 L CNN "Family"
F 8 "http://www.jst-mfg.com/product/pdf/eng/ePH.pdf" H 2050 2700 60  0001 L CNN "DK_Datasheet_Link"
F 9 "/product-detail/en/jst-sales-america-inc/B4B-PH-K-S(LF)(SN)/455-1706-ND/926613" H 2050 2800 60  0001 L CNN "DK_Detail_Page"
F 10 "CONN HEADER VERT 4POS 2MM" H 2050 2900 60  0001 L CNN "Description"
F 11 "JST Sales America Inc." H 2050 3000 60  0001 L CNN "Manufacturer"
F 12 "Active" H 2050 3100 60  0001 L CNN "Status"
	1    1850 1900
	0    1    1    0   
$EndComp
Text GLabel 1950 2000 2    50   Output ~ 0
RX
Text GLabel 1950 2100 2    50   Input ~ 0
TX
$Comp
L power:GND #PWR0102
U 1 1 5F2B747F
P 2350 2200
F 0 "#PWR0102" H 2350 1950 50  0001 C CNN
F 1 "GND" V 2355 2072 50  0000 R CNN
F 2 "" H 2350 2200 50  0001 C CNN
F 3 "" H 2350 2200 50  0001 C CNN
	1    2350 2200
	0    -1   -1   0   
$EndComp
Wire Wire Line
	2350 2200 2300 2200
$Comp
L power:PWR_FLAG #FLG0101
U 1 1 5F304785
P 3450 1800
F 0 "#FLG0101" H 3450 1875 50  0001 C CNN
F 1 "PWR_FLAG" H 3450 1973 50  0000 C CNN
F 2 "" H 3450 1800 50  0001 C CNN
F 3 "~" H 3450 1800 50  0001 C CNN
	1    3450 1800
	-1   0    0    1   
$EndComp
Wire Notes Line
	3150 1550 3750 1550
Wire Notes Line
	3750 1550 3750 2050
Wire Notes Line
	3750 2050 3150 2050
Wire Notes Line
	3150 2050 3150 1550
$Comp
L power:+3.3V #PWR02
U 1 1 5F306521
P 2850 2750
F 0 "#PWR02" H 2850 2600 50  0001 C CNN
F 1 "+3.3V" H 2865 2923 50  0000 C CNN
F 2 "" H 2850 2750 50  0001 C CNN
F 3 "" H 2850 2750 50  0001 C CNN
	1    2850 2750
	1    0    0    -1  
$EndComp
$Comp
L Device:LED D1
U 1 1 5F307879
P 4500 2900
F 0 "D1" V 4539 2782 50  0000 R CNN
F 1 "LED" V 4448 2782 50  0000 R CNN
F 2 "LED_SMD:LED_1206_3216Metric_Pad1.42x1.75mm_HandSolder" H 4500 2900 50  0001 C CNN
F 3 "~" H 4500 2900 50  0001 C CNN
F 4 "475-2488-1-ND" V 4500 2900 50  0001 C CNN "digikey part"
F 5 "LO R976-PS-1" V 4500 2900 50  0001 C CNN "manu part no"
	1    4500 2900
	0    -1   -1   0   
$EndComp
$Comp
L Device:R_Small_US R1
U 1 1 5F3086EA
P 4500 2650
F 0 "R1" H 4568 2696 50  0000 L CNN
F 1 "68R" H 4568 2605 50  0000 L CNN
F 2 "Resistor_SMD:R_0805_2012Metric_Pad1.15x1.40mm_HandSolder" H 4500 2650 50  0001 C CNN
F 3 "~" H 4500 2650 50  0001 C CNN
F 4 "A126383CT-ND" H 4500 2650 50  0001 C CNN "manu part numper"
F 5 "CRG0805F68R" H 4500 2650 50  0001 C CNN "Digikey part number"
	1    4500 2650
	1    0    0    -1  
$EndComp
$Comp
L power:GND #PWR05
U 1 1 5F308E27
P 4500 3050
F 0 "#PWR05" H 4500 2800 50  0001 C CNN
F 1 "GND" H 4505 2877 50  0000 C CNN
F 2 "" H 4500 3050 50  0001 C CNN
F 3 "" H 4500 3050 50  0001 C CNN
	1    4500 3050
	1    0    0    -1  
$EndComp
$Comp
L Device:Jumper_NC_Small JP1
U 1 1 5F309680
P 4500 2450
F 0 "JP1" V 4454 2524 50  0000 L CNN
F 1 "Jumper_NC_Small" V 4545 2524 50  0000 L CNN
F 2 "Jumper:SolderJumper-2_P1.3mm_Bridged2Bar_Pad1.0x1.5mm" H 4500 2450 50  0001 C CNN
F 3 "~" H 4500 2450 50  0001 C CNN
	1    4500 2450
	0    1    1    0   
$EndComp
$Comp
L power:+3.3V #PWR04
U 1 1 5F309CDC
P 4500 2350
F 0 "#PWR04" H 4500 2200 50  0001 C CNN
F 1 "+3.3V" H 4515 2523 50  0000 C CNN
F 2 "" H 4500 2350 50  0001 C CNN
F 3 "" H 4500 2350 50  0001 C CNN
	1    4500 2350
	1    0    0    -1  
$EndComp
$Comp
L power:PWR_FLAG #FLG0102
U 1 1 5F30A6A6
P 2300 2200
F 0 "#FLG0102" H 2300 2275 50  0001 C CNN
F 1 "PWR_FLAG" H 2300 2373 50  0000 C CNN
F 2 "" H 2300 2200 50  0001 C CNN
F 3 "~" H 2300 2200 50  0001 C CNN
	1    2300 2200
	-1   0    0    1   
$EndComp
Connection ~ 2300 2200
Wire Wire Line
	2300 2200 1950 2200
$Comp
L Mechanical:MountingHole H1
U 1 1 5F30C489
P 900 3150
F 0 "H1" H 1000 3196 50  0000 L CNN
F 1 "MountingHole" H 1000 3105 50  0000 L CNN
F 2 "MountingHole:MountingHole_4.3mm_M4" H 900 3150 50  0001 C CNN
F 3 "~" H 900 3150 50  0001 C CNN
	1    900  3150
	1    0    0    -1  
$EndComp
$Comp
L Mechanical:MountingHole H2
U 1 1 5F30D06B
P 900 3350
F 0 "H2" H 1000 3396 50  0000 L CNN
F 1 "MountingHole" H 1000 3305 50  0000 L CNN
F 2 "MountingHole:MountingHole_4.3mm_M4" H 900 3350 50  0001 C CNN
F 3 "~" H 900 3350 50  0001 C CNN
	1    900  3350
	1    0    0    -1  
$EndComp
$Comp
L Mechanical:MountingHole H3
U 1 1 5F30D2AD
P 900 3550
F 0 "H3" H 1000 3596 50  0000 L CNN
F 1 "MountingHole" H 1000 3505 50  0000 L CNN
F 2 "MountingHole:MountingHole_4.3mm_M4" H 900 3550 50  0001 C CNN
F 3 "~" H 900 3550 50  0001 C CNN
	1    900  3550
	1    0    0    -1  
$EndComp
$Comp
L Mechanical:MountingHole H4
U 1 1 5F30D448
P 900 3750
F 0 "H4" H 1000 3796 50  0000 L CNN
F 1 "MountingHole" H 1000 3705 50  0000 L CNN
F 2 "MountingHole:MountingHole_4.3mm_M4" H 900 3750 50  0001 C CNN
F 3 "~" H 900 3750 50  0001 C CNN
	1    900  3750
	1    0    0    -1  
$EndComp
$Comp
L power:GND #PWR08
U 1 1 5F321C5A
P 4450 4150
F 0 "#PWR08" H 4450 3900 50  0001 C CNN
F 1 "GND" H 4455 3977 50  0000 C CNN
F 2 "" H 4450 4150 50  0001 C CNN
F 3 "" H 4450 4150 50  0001 C CNN
	1    4450 4150
	1    0    0    -1  
$EndComp
$Comp
L power:+BATT #PWR01
U 1 1 5F3220F2
P 2350 1900
F 0 "#PWR01" H 2350 1750 50  0001 C CNN
F 1 "+BATT" V 2365 2028 50  0000 L CNN
F 2 "" H 2350 1900 50  0001 C CNN
F 3 "" H 2350 1900 50  0001 C CNN
	1    2350 1900
	0    1    1    0   
$EndComp
$Comp
L power:+BATT #PWR03
U 1 1 5F32248D
P 3450 1800
F 0 "#PWR03" H 3450 1650 50  0001 C CNN
F 1 "+BATT" H 3465 1973 50  0000 C CNN
F 2 "" H 3450 1800 50  0001 C CNN
F 3 "" H 3450 1800 50  0001 C CNN
	1    3450 1800
	1    0    0    -1  
$EndComp
Text Notes 3150 1500 0    50   ~ 0
Batt 3.7 - 4.3V
$Comp
L Regulator_Linear:AP2204K-3.3 U1
U 1 1 5F320F2B
P 4450 3850
F 0 "U1" H 4450 4192 50  0000 C CNN
F 1 "AP2204K-3.3" H 4450 4101 50  0000 C CNN
F 2 "Package_TO_SOT_SMD:SOT-23-5" H 4450 4175 50  0001 C CNN
F 3 "https://www.diodes.com/assets/Datasheets/AP2204.pdf" H 4450 3950 50  0001 C CNN
	1    4450 3850
	1    0    0    -1  
$EndComp
Wire Wire Line
	4150 3750 4150 3850
$Comp
L power:+3.3V #PWR010
U 1 1 5F324928
P 4900 3750
F 0 "#PWR010" H 4900 3600 50  0001 C CNN
F 1 "+3.3V" H 4915 3923 50  0000 C CNN
F 2 "" H 4900 3750 50  0001 C CNN
F 3 "" H 4900 3750 50  0001 C CNN
	1    4900 3750
	1    0    0    -1  
$EndComp
$Comp
L Device:C_Small C2
U 1 1 5F3256E6
P 4800 3850
F 0 "C2" H 4892 3896 50  0000 L CNN
F 1 "2.2uF" H 4892 3805 50  0000 L CNN
F 2 "Capacitor_SMD:C_0805_2012Metric_Pad1.15x1.40mm_HandSolder" H 4800 3850 50  0001 C CNN
F 3 "~" H 4800 3850 50  0001 C CNN
F 4 "CL21B225KOFVPNE" H 4800 3850 50  0001 C CNN "Product number"
F 5 "1276-6596" H 4800 3850 50  0001 C CNN "DigiKey Part number"
	1    4800 3850
	1    0    0    -1  
$EndComp
Wire Wire Line
	4750 3750 4800 3750
Wire Wire Line
	4900 3750 4800 3750
Connection ~ 4800 3750
$Comp
L power:GND #PWR09
U 1 1 5F3263C0
P 4800 3950
F 0 "#PWR09" H 4800 3700 50  0001 C CNN
F 1 "GND" H 4805 3777 50  0000 C CNN
F 2 "" H 4800 3950 50  0001 C CNN
F 3 "" H 4800 3950 50  0001 C CNN
	1    4800 3950
	1    0    0    -1  
$EndComp
$Comp
L Device:C_Small C1
U 1 1 5F3266AE
P 4050 3850
F 0 "C1" H 3959 3804 50  0000 R CNN
F 1 "0.1uF" H 3959 3895 50  0000 R CNN
F 2 "Capacitor_SMD:C_0805_2012Metric_Pad1.15x1.40mm_HandSolder" H 4050 3850 50  0001 C CNN
F 3 "~" H 4050 3850 50  0001 C CNN
F 4 "LMK212SD104JG-T" H 4050 3850 50  0001 C CNN "Manufacturer part number"
F 5 "587-1133-1" H 4050 3850 50  0001 C CNN "DigiKey part number"
	1    4050 3850
	1    0    0    1   
$EndComp
$Comp
L power:GND #PWR07
U 1 1 5F327002
P 4050 3950
F 0 "#PWR07" H 4050 3700 50  0001 C CNN
F 1 "GND" H 4055 3777 50  0000 C CNN
F 2 "" H 4050 3950 50  0001 C CNN
F 3 "" H 4050 3950 50  0001 C CNN
	1    4050 3950
	1    0    0    -1  
$EndComp
Wire Wire Line
	4050 3750 4150 3750
Connection ~ 4150 3750
$Comp
L power:+BATT #PWR06
U 1 1 5F32771F
P 4050 3750
F 0 "#PWR06" H 4050 3600 50  0001 C CNN
F 1 "+BATT" H 4065 3923 50  0000 C CNN
F 2 "" H 4050 3750 50  0001 C CNN
F 3 "" H 4050 3750 50  0001 C CNN
	1    4050 3750
	1    0    0    -1  
$EndComp
Connection ~ 4050 3750
$EndSCHEMATC
