%TF.GenerationSoftware,KiCad,Pcbnew,(5.1.6)-1*%
%TF.CreationDate,2020-08-10T20:28:45-04:00*%
%TF.ProjectId,Poets,506f6574-732e-46b6-9963-61645f706362,rev?*%
%TF.SameCoordinates,Original*%
%TF.FileFunction,Legend,Top*%
%TF.FilePolarity,Positive*%
%FSLAX46Y46*%
G04 Gerber Fmt 4.6, Leading zero omitted, Abs format (unit mm)*
G04 Created by KiCad (PCBNEW (5.1.6)-1) date 2020-08-10 20:28:45*
%MOMM*%
%LPD*%
G01*
G04 APERTURE LIST*
%ADD10C,0.120000*%
%ADD11C,0.300000*%
%ADD12C,0.150000*%
%ADD13C,0.100000*%
G04 APERTURE END LIST*
D10*
X143292901Y-111631000D02*
X143650044Y-111631000D01*
X143194687Y-111845285D02*
X143538437Y-111095285D01*
X143694687Y-111845285D01*
X143944687Y-111845285D02*
X144007187Y-111345285D01*
X143989330Y-111488142D02*
X144033973Y-111416714D01*
X144074151Y-111381000D01*
X144150044Y-111345285D01*
X144221473Y-111345285D01*
X144699151Y-111809571D02*
X144623258Y-111845285D01*
X144480401Y-111845285D01*
X144413437Y-111809571D01*
X144386651Y-111738142D01*
X144422366Y-111452428D01*
X144467008Y-111381000D01*
X144542901Y-111345285D01*
X144685758Y-111345285D01*
X144752723Y-111381000D01*
X144779508Y-111452428D01*
X144770580Y-111523857D01*
X144404508Y-111595285D01*
X145944687Y-111845285D02*
X146038437Y-111095285D01*
X145949151Y-111809571D02*
X145873258Y-111845285D01*
X145730401Y-111845285D01*
X145663437Y-111809571D01*
X145632187Y-111773857D01*
X145605401Y-111702428D01*
X145632187Y-111488142D01*
X145676830Y-111416714D01*
X145717008Y-111381000D01*
X145792901Y-111345285D01*
X145935758Y-111345285D01*
X146002723Y-111381000D01*
X146408973Y-111845285D02*
X146342008Y-111809571D01*
X146310758Y-111773857D01*
X146283973Y-111702428D01*
X146310758Y-111488142D01*
X146355401Y-111416714D01*
X146395580Y-111381000D01*
X146471473Y-111345285D01*
X146578616Y-111345285D01*
X146645580Y-111381000D01*
X146676830Y-111416714D01*
X146703616Y-111488142D01*
X146676830Y-111702428D01*
X146632187Y-111773857D01*
X146592008Y-111809571D01*
X146516116Y-111845285D01*
X146408973Y-111845285D01*
X146980401Y-111845285D02*
X147042901Y-111345285D01*
X147074151Y-111095285D02*
X147033973Y-111131000D01*
X147065223Y-111166714D01*
X147105401Y-111131000D01*
X147074151Y-111095285D01*
X147065223Y-111166714D01*
X147400044Y-111345285D02*
X147337544Y-111845285D01*
X147391116Y-111416714D02*
X147431294Y-111381000D01*
X147507187Y-111345285D01*
X147614330Y-111345285D01*
X147681294Y-111381000D01*
X147708080Y-111452428D01*
X147658973Y-111845285D01*
X148400044Y-111345285D02*
X148324151Y-111952428D01*
X148279508Y-112023857D01*
X148239330Y-112059571D01*
X148163437Y-112095285D01*
X148056294Y-112095285D01*
X147989330Y-112059571D01*
X148342008Y-111809571D02*
X148266116Y-111845285D01*
X148123258Y-111845285D01*
X148056294Y-111809571D01*
X148025044Y-111773857D01*
X147998258Y-111702428D01*
X148025044Y-111488142D01*
X148069687Y-111416714D01*
X148109866Y-111381000D01*
X148185758Y-111345285D01*
X148328616Y-111345285D01*
X148395580Y-111381000D01*
X148703616Y-111773857D02*
X148734866Y-111809571D01*
X148694687Y-111845285D01*
X148663437Y-111809571D01*
X148703616Y-111773857D01*
X148694687Y-111845285D01*
X149060758Y-111773857D02*
X149092008Y-111809571D01*
X149051830Y-111845285D01*
X149020580Y-111809571D01*
X149060758Y-111773857D01*
X149051830Y-111845285D01*
X149417901Y-111773857D02*
X149449151Y-111809571D01*
X149408973Y-111845285D01*
X149377723Y-111809571D01*
X149417901Y-111773857D01*
X149408973Y-111845285D01*
D11*
X129493333Y-110632761D02*
X129493333Y-108632761D01*
X130255238Y-108632761D01*
X130445714Y-108728000D01*
X130540952Y-108823238D01*
X130636190Y-109013714D01*
X130636190Y-109299428D01*
X130540952Y-109489904D01*
X130445714Y-109585142D01*
X130255238Y-109680380D01*
X129493333Y-109680380D01*
X131779047Y-110632761D02*
X131588571Y-110537523D01*
X131493333Y-110442285D01*
X131398095Y-110251809D01*
X131398095Y-109680380D01*
X131493333Y-109489904D01*
X131588571Y-109394666D01*
X131779047Y-109299428D01*
X132064761Y-109299428D01*
X132255238Y-109394666D01*
X132350476Y-109489904D01*
X132445714Y-109680380D01*
X132445714Y-110251809D01*
X132350476Y-110442285D01*
X132255238Y-110537523D01*
X132064761Y-110632761D01*
X131779047Y-110632761D01*
X134064761Y-110537523D02*
X133874285Y-110632761D01*
X133493333Y-110632761D01*
X133302857Y-110537523D01*
X133207619Y-110347047D01*
X133207619Y-109585142D01*
X133302857Y-109394666D01*
X133493333Y-109299428D01*
X133874285Y-109299428D01*
X134064761Y-109394666D01*
X134160000Y-109585142D01*
X134160000Y-109775619D01*
X133207619Y-109966095D01*
X134731428Y-109299428D02*
X135493333Y-109299428D01*
X135017142Y-108632761D02*
X135017142Y-110347047D01*
X135112380Y-110537523D01*
X135302857Y-110632761D01*
X135493333Y-110632761D01*
X136064761Y-110537523D02*
X136255238Y-110632761D01*
X136636190Y-110632761D01*
X136826666Y-110537523D01*
X136921904Y-110347047D01*
X136921904Y-110251809D01*
X136826666Y-110061333D01*
X136636190Y-109966095D01*
X136350476Y-109966095D01*
X136160000Y-109870857D01*
X136064761Y-109680380D01*
X136064761Y-109585142D01*
X136160000Y-109394666D01*
X136350476Y-109299428D01*
X136636190Y-109299428D01*
X136826666Y-109394666D01*
X139017142Y-108632761D02*
X139683809Y-110632761D01*
X140350476Y-108632761D01*
X142064761Y-110632761D02*
X140921904Y-110632761D01*
X141493333Y-110632761D02*
X141493333Y-108632761D01*
X141302857Y-108918476D01*
X141112380Y-109108952D01*
X140921904Y-109204190D01*
X142921904Y-110442285D02*
X143017142Y-110537523D01*
X142921904Y-110632761D01*
X142826666Y-110537523D01*
X142921904Y-110442285D01*
X142921904Y-110632761D01*
X144255238Y-108632761D02*
X144445714Y-108632761D01*
X144636190Y-108728000D01*
X144731428Y-108823238D01*
X144826666Y-109013714D01*
X144921904Y-109394666D01*
X144921904Y-109870857D01*
X144826666Y-110251809D01*
X144731428Y-110442285D01*
X144636190Y-110537523D01*
X144445714Y-110632761D01*
X144255238Y-110632761D01*
X144064761Y-110537523D01*
X143969523Y-110442285D01*
X143874285Y-110251809D01*
X143779047Y-109870857D01*
X143779047Y-109394666D01*
X143874285Y-109013714D01*
X143969523Y-108823238D01*
X144064761Y-108728000D01*
X144255238Y-108632761D01*
D10*
X126063973Y-108035285D02*
X126157723Y-107285285D01*
X126336294Y-107285285D01*
X126438973Y-107321000D01*
X126501473Y-107392428D01*
X126528258Y-107463857D01*
X126546116Y-107606714D01*
X126532723Y-107713857D01*
X126479151Y-107856714D01*
X126434508Y-107928142D01*
X126354151Y-107999571D01*
X126242544Y-108035285D01*
X126063973Y-108035285D01*
X126921116Y-108035285D02*
X126854151Y-107999571D01*
X126822901Y-107963857D01*
X126796116Y-107892428D01*
X126822901Y-107678142D01*
X126867544Y-107606714D01*
X126907723Y-107571000D01*
X126983616Y-107535285D01*
X127090758Y-107535285D01*
X127157723Y-107571000D01*
X127188973Y-107606714D01*
X127215758Y-107678142D01*
X127188973Y-107892428D01*
X127144330Y-107963857D01*
X127104151Y-107999571D01*
X127028258Y-108035285D01*
X126921116Y-108035285D01*
X127555044Y-107535285D02*
X127492544Y-108035285D01*
X127546116Y-107606714D02*
X127586294Y-107571000D01*
X127662187Y-107535285D01*
X127769330Y-107535285D01*
X127836294Y-107571000D01*
X127863080Y-107642428D01*
X127813973Y-108035285D01*
X128300580Y-107285285D02*
X128211294Y-107428142D01*
X128483616Y-107535285D02*
X128769330Y-107535285D01*
X128622008Y-107285285D02*
X128541651Y-107928142D01*
X128568437Y-107999571D01*
X128635401Y-108035285D01*
X128706830Y-108035285D01*
X129483616Y-107535285D02*
X129769330Y-107535285D01*
X129622008Y-107285285D02*
X129541651Y-107928142D01*
X129568437Y-107999571D01*
X129635401Y-108035285D01*
X129706830Y-108035285D01*
X130247008Y-107999571D02*
X130171116Y-108035285D01*
X130028258Y-108035285D01*
X129961294Y-107999571D01*
X129934508Y-107928142D01*
X129970223Y-107642428D01*
X130014866Y-107571000D01*
X130090758Y-107535285D01*
X130233616Y-107535285D01*
X130300580Y-107571000D01*
X130327366Y-107642428D01*
X130318437Y-107713857D01*
X129952366Y-107785285D01*
X130706830Y-108035285D02*
X130639866Y-107999571D01*
X130613080Y-107928142D01*
X130693437Y-107285285D01*
X131099687Y-108035285D02*
X131032723Y-107999571D01*
X131005937Y-107928142D01*
X131086294Y-107285285D01*
X131956830Y-108035285D02*
X132019330Y-107535285D01*
X132010401Y-107606714D02*
X132050580Y-107571000D01*
X132126473Y-107535285D01*
X132233616Y-107535285D01*
X132300580Y-107571000D01*
X132327366Y-107642428D01*
X132278258Y-108035285D01*
X132327366Y-107642428D02*
X132372008Y-107571000D01*
X132447901Y-107535285D01*
X132555044Y-107535285D01*
X132622008Y-107571000D01*
X132648794Y-107642428D01*
X132599687Y-108035285D01*
X133247008Y-107999571D02*
X133171116Y-108035285D01*
X133028258Y-108035285D01*
X132961294Y-107999571D01*
X132934508Y-107928142D01*
X132970223Y-107642428D01*
X133014866Y-107571000D01*
X133090758Y-107535285D01*
X133233616Y-107535285D01*
X133300580Y-107571000D01*
X133327366Y-107642428D01*
X133318437Y-107713857D01*
X132952366Y-107785285D01*
X134162187Y-107535285D02*
X134242544Y-108035285D01*
X134430044Y-107678142D01*
X134528258Y-108035285D01*
X134733616Y-107535285D01*
X134956830Y-108035285D02*
X135050580Y-107285285D01*
X135278258Y-108035285D02*
X135327366Y-107642428D01*
X135300580Y-107571000D01*
X135233616Y-107535285D01*
X135126473Y-107535285D01*
X135050580Y-107571000D01*
X135010401Y-107606714D01*
X135956830Y-108035285D02*
X136005937Y-107642428D01*
X135979151Y-107571000D01*
X135912187Y-107535285D01*
X135769330Y-107535285D01*
X135693437Y-107571000D01*
X135961294Y-107999571D02*
X135885401Y-108035285D01*
X135706830Y-108035285D01*
X135639866Y-107999571D01*
X135613080Y-107928142D01*
X135622008Y-107856714D01*
X135666651Y-107785285D01*
X135742544Y-107749571D01*
X135921116Y-107749571D01*
X135997008Y-107713857D01*
X136269330Y-107535285D02*
X136555044Y-107535285D01*
X136407723Y-107285285D02*
X136327366Y-107928142D01*
X136354151Y-107999571D01*
X136421116Y-108035285D01*
X136492544Y-108035285D01*
X137269330Y-107535285D02*
X137555044Y-107535285D01*
X137407723Y-107285285D02*
X137327366Y-107928142D01*
X137354151Y-107999571D01*
X137421116Y-108035285D01*
X137492544Y-108035285D01*
X137742544Y-108035285D02*
X137836294Y-107285285D01*
X138063973Y-108035285D02*
X138113080Y-107642428D01*
X138086294Y-107571000D01*
X138019330Y-107535285D01*
X137912187Y-107535285D01*
X137836294Y-107571000D01*
X137796116Y-107606714D01*
X138711294Y-107999571D02*
X138635401Y-108035285D01*
X138492544Y-108035285D01*
X138425580Y-107999571D01*
X138398794Y-107928142D01*
X138434508Y-107642428D01*
X138479151Y-107571000D01*
X138555044Y-107535285D01*
X138697901Y-107535285D01*
X138764866Y-107571000D01*
X138791651Y-107642428D01*
X138782723Y-107713857D01*
X138416651Y-107785285D01*
D12*
X160218380Y-94277794D02*
X159218380Y-94152794D01*
X159218380Y-93771842D01*
X159266000Y-93682556D01*
X159313619Y-93640889D01*
X159408857Y-93605175D01*
X159551714Y-93623032D01*
X159646952Y-93682556D01*
X159694571Y-93736127D01*
X159742190Y-93837318D01*
X159742190Y-94218270D01*
X159218380Y-93248032D02*
X160218380Y-93134937D01*
X159504095Y-92855175D01*
X160218380Y-92753985D01*
X159218380Y-92390889D01*
X160218380Y-91563508D02*
X159742190Y-91837318D01*
X160218380Y-92134937D02*
X159218380Y-92009937D01*
X159218380Y-91628985D01*
X159266000Y-91539699D01*
X159313619Y-91498032D01*
X159408857Y-91462318D01*
X159551714Y-91480175D01*
X159646952Y-91539699D01*
X159694571Y-91593270D01*
X159742190Y-91694461D01*
X159742190Y-92075413D01*
X160218380Y-90373032D02*
X159551714Y-90289699D01*
X159218380Y-90248032D02*
X159266000Y-90301604D01*
X159313619Y-90259937D01*
X159266000Y-90206366D01*
X159218380Y-90248032D01*
X159313619Y-90259937D01*
X159551714Y-89813508D02*
X160218380Y-89896842D01*
X159646952Y-89825413D02*
X159599333Y-89771842D01*
X159551714Y-89670651D01*
X159551714Y-89527794D01*
X159599333Y-89438508D01*
X159694571Y-89402794D01*
X160218380Y-89468270D01*
X160218380Y-88563508D02*
X159218380Y-88438508D01*
X160170761Y-88557556D02*
X160218380Y-88658747D01*
X160218380Y-88849223D01*
X160170761Y-88938508D01*
X160123142Y-88980175D01*
X160027904Y-89015889D01*
X159742190Y-88980175D01*
X159646952Y-88920651D01*
X159599333Y-88867080D01*
X159551714Y-88765889D01*
X159551714Y-88575413D01*
X159599333Y-88486127D01*
X160218380Y-88087318D02*
X159551714Y-88003985D01*
X159218380Y-87962318D02*
X159266000Y-88015889D01*
X159313619Y-87974223D01*
X159266000Y-87920651D01*
X159218380Y-87962318D01*
X159313619Y-87974223D01*
X160170761Y-87176604D02*
X160218380Y-87277794D01*
X160218380Y-87468270D01*
X160170761Y-87557556D01*
X160123142Y-87599223D01*
X160027904Y-87634937D01*
X159742190Y-87599223D01*
X159646952Y-87539699D01*
X159599333Y-87486127D01*
X159551714Y-87384937D01*
X159551714Y-87194461D01*
X159599333Y-87105175D01*
X160218380Y-86325413D02*
X159694571Y-86259937D01*
X159599333Y-86295651D01*
X159551714Y-86384937D01*
X159551714Y-86575413D01*
X159599333Y-86676604D01*
X160170761Y-86319461D02*
X160218380Y-86420651D01*
X160218380Y-86658747D01*
X160170761Y-86748032D01*
X160075523Y-86783747D01*
X159980285Y-86771842D01*
X159885047Y-86712318D01*
X159837428Y-86611127D01*
X159837428Y-86373032D01*
X159789809Y-86271842D01*
X159551714Y-85908747D02*
X159551714Y-85527794D01*
X159218380Y-85724223D02*
X160075523Y-85831366D01*
X160170761Y-85795651D01*
X160218380Y-85706366D01*
X160218380Y-85611127D01*
X160218380Y-85134937D02*
X160170761Y-85224223D01*
X160123142Y-85265889D01*
X160027904Y-85301604D01*
X159742190Y-85265889D01*
X159646952Y-85206366D01*
X159599333Y-85152794D01*
X159551714Y-85051604D01*
X159551714Y-84908747D01*
X159599333Y-84819461D01*
X159646952Y-84777794D01*
X159742190Y-84742080D01*
X160027904Y-84777794D01*
X160123142Y-84837318D01*
X160170761Y-84890889D01*
X160218380Y-84992080D01*
X160218380Y-85134937D01*
X160218380Y-84373032D02*
X159551714Y-84289699D01*
X159742190Y-84313508D02*
X159646952Y-84253985D01*
X159599333Y-84200413D01*
X159551714Y-84099223D01*
X159551714Y-84003985D01*
X124150380Y-99015985D02*
X123150380Y-98890985D01*
X123150380Y-98510032D01*
X123198000Y-98420747D01*
X123245619Y-98379080D01*
X123340857Y-98343366D01*
X123483714Y-98361223D01*
X123578952Y-98420747D01*
X123626571Y-98474318D01*
X123674190Y-98575508D01*
X123674190Y-98956461D01*
X124150380Y-98015985D02*
X123150380Y-97890985D01*
X124150380Y-97587413D02*
X123626571Y-97521937D01*
X123531333Y-97557651D01*
X123483714Y-97646937D01*
X123483714Y-97789794D01*
X123531333Y-97890985D01*
X123578952Y-97944556D01*
X124150380Y-96682651D02*
X123626571Y-96617175D01*
X123531333Y-96652889D01*
X123483714Y-96742175D01*
X123483714Y-96932651D01*
X123531333Y-97033842D01*
X124102761Y-96676699D02*
X124150380Y-96777889D01*
X124150380Y-97015985D01*
X124102761Y-97105270D01*
X124007523Y-97140985D01*
X123912285Y-97129080D01*
X123817047Y-97069556D01*
X123769428Y-96968366D01*
X123769428Y-96730270D01*
X123721809Y-96629080D01*
X123483714Y-96123127D02*
X124150380Y-96206461D01*
X123578952Y-96135032D02*
X123531333Y-96081461D01*
X123483714Y-95980270D01*
X123483714Y-95837413D01*
X123531333Y-95748127D01*
X123626571Y-95712413D01*
X124150380Y-95777889D01*
X123483714Y-95361223D02*
X123483714Y-94980270D01*
X123150380Y-95176699D02*
X124007523Y-95283842D01*
X124102761Y-95248127D01*
X124150380Y-95158842D01*
X124150380Y-95063604D01*
X124150380Y-94587413D02*
X124102761Y-94676699D01*
X124055142Y-94718366D01*
X123959904Y-94754080D01*
X123674190Y-94718366D01*
X123578952Y-94658842D01*
X123531333Y-94605270D01*
X123483714Y-94504080D01*
X123483714Y-94361223D01*
X123531333Y-94271937D01*
X123578952Y-94230270D01*
X123674190Y-94194556D01*
X123959904Y-94230270D01*
X124055142Y-94289794D01*
X124102761Y-94343366D01*
X124150380Y-94444556D01*
X124150380Y-94587413D01*
X124150380Y-93825508D02*
X123483714Y-93742175D01*
X123578952Y-93754080D02*
X123531333Y-93700508D01*
X123483714Y-93599318D01*
X123483714Y-93456461D01*
X123531333Y-93367175D01*
X123626571Y-93331461D01*
X124150380Y-93396937D01*
X123626571Y-93331461D02*
X123531333Y-93271937D01*
X123483714Y-93170747D01*
X123483714Y-93027889D01*
X123531333Y-92938604D01*
X123626571Y-92902889D01*
X124150380Y-92968366D01*
X124150380Y-91730270D02*
X123150380Y-91605270D01*
X123150380Y-91224318D01*
X123198000Y-91135032D01*
X123245619Y-91093366D01*
X123340857Y-91057651D01*
X123483714Y-91075508D01*
X123578952Y-91135032D01*
X123626571Y-91188604D01*
X123674190Y-91289794D01*
X123674190Y-91670747D01*
X124150380Y-90587413D02*
X124102761Y-90676699D01*
X124055142Y-90718366D01*
X123959904Y-90754080D01*
X123674190Y-90718366D01*
X123578952Y-90658842D01*
X123531333Y-90605270D01*
X123483714Y-90504080D01*
X123483714Y-90361223D01*
X123531333Y-90271937D01*
X123578952Y-90230270D01*
X123674190Y-90194556D01*
X123959904Y-90230270D01*
X124055142Y-90289794D01*
X124102761Y-90343366D01*
X124150380Y-90444556D01*
X124150380Y-90587413D01*
X123483714Y-89837413D02*
X124150380Y-89730270D01*
X123674190Y-89480270D01*
X124150380Y-89349318D01*
X123483714Y-89075508D01*
X124102761Y-88390985D02*
X124150380Y-88492175D01*
X124150380Y-88682651D01*
X124102761Y-88771937D01*
X124007523Y-88807651D01*
X123626571Y-88760032D01*
X123531333Y-88700508D01*
X123483714Y-88599318D01*
X123483714Y-88408842D01*
X123531333Y-88319556D01*
X123626571Y-88283842D01*
X123721809Y-88295747D01*
X123817047Y-88783842D01*
X124150380Y-87920747D02*
X123483714Y-87837413D01*
X123674190Y-87861223D02*
X123578952Y-87801699D01*
X123531333Y-87748127D01*
X123483714Y-87646937D01*
X123483714Y-87551699D01*
X124055142Y-85956461D02*
X124102761Y-86010032D01*
X124150380Y-86158842D01*
X124150380Y-86254080D01*
X124102761Y-86390985D01*
X124007523Y-86474318D01*
X123912285Y-86510032D01*
X123721809Y-86533842D01*
X123578952Y-86515985D01*
X123388476Y-86444556D01*
X123293238Y-86385032D01*
X123198000Y-86277889D01*
X123150380Y-86129080D01*
X123150380Y-86033842D01*
X123198000Y-85896937D01*
X123245619Y-85855270D01*
X124150380Y-85396937D02*
X124102761Y-85486223D01*
X124055142Y-85527889D01*
X123959904Y-85563604D01*
X123674190Y-85527889D01*
X123578952Y-85468366D01*
X123531333Y-85414794D01*
X123483714Y-85313604D01*
X123483714Y-85170747D01*
X123531333Y-85081461D01*
X123578952Y-85039794D01*
X123674190Y-85004080D01*
X123959904Y-85039794D01*
X124055142Y-85099318D01*
X124102761Y-85152889D01*
X124150380Y-85254080D01*
X124150380Y-85396937D01*
X123483714Y-84551699D02*
X124150380Y-84635032D01*
X123578952Y-84563604D02*
X123531333Y-84510032D01*
X123483714Y-84408842D01*
X123483714Y-84265985D01*
X123531333Y-84176699D01*
X123626571Y-84140985D01*
X124150380Y-84206461D01*
X123483714Y-83646937D02*
X124150380Y-83730270D01*
X123578952Y-83658842D02*
X123531333Y-83605270D01*
X123483714Y-83504080D01*
X123483714Y-83361223D01*
X123531333Y-83271937D01*
X123626571Y-83236223D01*
X124150380Y-83301699D01*
X124102761Y-82438604D02*
X124150380Y-82539794D01*
X124150380Y-82730270D01*
X124102761Y-82819556D01*
X124007523Y-82855270D01*
X123626571Y-82807651D01*
X123531333Y-82748127D01*
X123483714Y-82646937D01*
X123483714Y-82456461D01*
X123531333Y-82367175D01*
X123626571Y-82331461D01*
X123721809Y-82343366D01*
X123817047Y-82831461D01*
X124102761Y-81533842D02*
X124150380Y-81635032D01*
X124150380Y-81825508D01*
X124102761Y-81914794D01*
X124055142Y-81956461D01*
X123959904Y-81992175D01*
X123674190Y-81956461D01*
X123578952Y-81896937D01*
X123531333Y-81843366D01*
X123483714Y-81742175D01*
X123483714Y-81551699D01*
X123531333Y-81462413D01*
X123483714Y-81170747D02*
X123483714Y-80789794D01*
X123150380Y-80986223D02*
X124007523Y-81093366D01*
X124102761Y-81057651D01*
X124150380Y-80968366D01*
X124150380Y-80873127D01*
D10*
%TO.C,R1*%
X158317000Y-89932252D02*
X158317000Y-89409748D01*
X156897000Y-89932252D02*
X156897000Y-89409748D01*
%TO.C,JP1*%
X156607000Y-94872000D02*
X156607000Y-92072000D01*
X156607000Y-92072000D02*
X158607000Y-92072000D01*
X158607000Y-92072000D02*
X158607000Y-94872000D01*
X158607000Y-94872000D02*
X156607000Y-94872000D01*
%TO.C,D1*%
X156472000Y-82539500D02*
X156472000Y-86599500D01*
X158742000Y-82539500D02*
X156472000Y-82539500D01*
X158742000Y-86599500D02*
X158742000Y-82539500D01*
D13*
%TO.C,MOD1*%
X150143000Y-103809000D02*
X149643000Y-103809000D01*
X150143000Y-103809000D02*
X150143000Y-103309000D01*
X125443000Y-103809000D02*
X125943000Y-103809000D01*
X125443000Y-103809000D02*
X125443000Y-103309000D01*
X125393000Y-83609000D02*
X125393000Y-84109000D01*
X125393000Y-83609000D02*
X125793000Y-83209000D01*
X150193000Y-83609000D02*
X149793000Y-83209000D01*
X150193000Y-83609000D02*
X150193000Y-84109000D01*
X132993000Y-76009000D02*
X132593000Y-76409000D01*
X132993000Y-76009000D02*
X133493000Y-76009000D01*
X142593000Y-76009000D02*
X142093000Y-76009000D01*
X142593000Y-76009000D02*
X142993000Y-76409000D01*
X125393000Y-93109000D02*
X125393000Y-96909000D01*
X150193000Y-93109000D02*
X150193000Y-96909000D01*
%TO.C,J1*%
X122796000Y-84641000D02*
X122796000Y-85141000D01*
X122796000Y-84641000D02*
X122296000Y-84641000D01*
X117996000Y-84641000D02*
X117996000Y-85141000D01*
X117996000Y-84641000D02*
X118496000Y-84641000D01*
X117996000Y-94841000D02*
X118496000Y-94841000D01*
X117996000Y-94841000D02*
X117996000Y-94341000D01*
X122796000Y-94841000D02*
X122796000Y-94341000D01*
X122796000Y-94841000D02*
X122296000Y-94841000D01*
%TO.C,R1*%
D12*
X156409380Y-89837666D02*
X155933190Y-90171000D01*
X156409380Y-90409095D02*
X155409380Y-90409095D01*
X155409380Y-90028142D01*
X155457000Y-89932904D01*
X155504619Y-89885285D01*
X155599857Y-89837666D01*
X155742714Y-89837666D01*
X155837952Y-89885285D01*
X155885571Y-89932904D01*
X155933190Y-90028142D01*
X155933190Y-90409095D01*
X156409380Y-88885285D02*
X156409380Y-89456714D01*
X156409380Y-89171000D02*
X155409380Y-89171000D01*
X155552238Y-89266238D01*
X155647476Y-89361476D01*
X155695095Y-89456714D01*
%TO.C,JP1*%
X155259380Y-94305333D02*
X155973666Y-94305333D01*
X156116523Y-94352952D01*
X156211761Y-94448190D01*
X156259380Y-94591047D01*
X156259380Y-94686285D01*
X156259380Y-93829142D02*
X155259380Y-93829142D01*
X155259380Y-93448190D01*
X155307000Y-93352952D01*
X155354619Y-93305333D01*
X155449857Y-93257714D01*
X155592714Y-93257714D01*
X155687952Y-93305333D01*
X155735571Y-93352952D01*
X155783190Y-93448190D01*
X155783190Y-93829142D01*
X156259380Y-92305333D02*
X156259380Y-92876761D01*
X156259380Y-92591047D02*
X155259380Y-92591047D01*
X155402238Y-92686285D01*
X155497476Y-92781523D01*
X155545095Y-92876761D01*
%TO.C,D1*%
X156154380Y-85574095D02*
X155154380Y-85574095D01*
X155154380Y-85336000D01*
X155202000Y-85193142D01*
X155297238Y-85097904D01*
X155392476Y-85050285D01*
X155582952Y-85002666D01*
X155725809Y-85002666D01*
X155916285Y-85050285D01*
X156011523Y-85097904D01*
X156106761Y-85193142D01*
X156154380Y-85336000D01*
X156154380Y-85574095D01*
X156154380Y-84050285D02*
X156154380Y-84621714D01*
X156154380Y-84336000D02*
X155154380Y-84336000D01*
X155297238Y-84431238D01*
X155392476Y-84526476D01*
X155440095Y-84621714D01*
%TD*%
M02*
