%TF.GenerationSoftware,KiCad,Pcbnew,(5.1.6)-1*%
%TF.CreationDate,2020-08-10T20:28:58-04:00*%
%TF.ProjectId,Poets,506f6574-732e-46b6-9963-61645f706362,rev?*%
%TF.SameCoordinates,Original*%
%TF.FileFunction,Soldermask,Top*%
%TF.FilePolarity,Negative*%
%FSLAX46Y46*%
G04 Gerber Fmt 4.6, Leading zero omitted, Abs format (unit mm)*
G04 Created by KiCad (PCBNEW (5.1.6)-1) date 2020-08-10 20:28:58*
%MOMM*%
%LPD*%
G01*
G04 APERTURE LIST*
%ADD10C,4.400000*%
%ADD11R,1.600000X1.100000*%
%ADD12C,1.800000*%
%ADD13C,1.600000*%
G04 APERTURE END LIST*
D10*
%TO.C,H4*%
X157480000Y-105029000D03*
%TD*%
%TO.C,H3*%
X157480000Y-76200000D03*
%TD*%
%TO.C,H2*%
X117856000Y-76708000D03*
%TD*%
%TO.C,H1*%
X118237000Y-105029000D03*
%TD*%
%TO.C,R1*%
G36*
G01*
X158085262Y-89271000D02*
X157128738Y-89271000D01*
G75*
G02*
X156857000Y-88999262I0J271738D01*
G01*
X156857000Y-88292738D01*
G75*
G02*
X157128738Y-88021000I271738J0D01*
G01*
X158085262Y-88021000D01*
G75*
G02*
X158357000Y-88292738I0J-271738D01*
G01*
X158357000Y-88999262D01*
G75*
G02*
X158085262Y-89271000I-271738J0D01*
G01*
G37*
G36*
G01*
X158085262Y-91321000D02*
X157128738Y-91321000D01*
G75*
G02*
X156857000Y-91049262I0J271738D01*
G01*
X156857000Y-90342738D01*
G75*
G02*
X157128738Y-90071000I271738J0D01*
G01*
X158085262Y-90071000D01*
G75*
G02*
X158357000Y-90342738I0J-271738D01*
G01*
X158357000Y-91049262D01*
G75*
G02*
X158085262Y-91321000I-271738J0D01*
G01*
G37*
%TD*%
D11*
%TO.C,JP1*%
X157607000Y-92822000D03*
X157607000Y-94122000D03*
%TD*%
%TO.C,D1*%
G36*
G01*
X156949544Y-85724500D02*
X158264456Y-85724500D01*
G75*
G02*
X158532000Y-85992044I0J-267544D01*
G01*
X158532000Y-86981956D01*
G75*
G02*
X158264456Y-87249500I-267544J0D01*
G01*
X156949544Y-87249500D01*
G75*
G02*
X156682000Y-86981956I0J267544D01*
G01*
X156682000Y-85992044D01*
G75*
G02*
X156949544Y-85724500I267544J0D01*
G01*
G37*
G36*
G01*
X156949544Y-82749500D02*
X158264456Y-82749500D01*
G75*
G02*
X158532000Y-83017044I0J-267544D01*
G01*
X158532000Y-84006956D01*
G75*
G02*
X158264456Y-84274500I-267544J0D01*
G01*
X156949544Y-84274500D01*
G75*
G02*
X156682000Y-84006956I0J267544D01*
G01*
X156682000Y-83017044D01*
G75*
G02*
X156949544Y-82749500I267544J0D01*
G01*
G37*
%TD*%
D12*
%TO.C,MOD1*%
X148793000Y-84109000D03*
X148793000Y-86109000D03*
X148793000Y-88109000D03*
X148793000Y-90109000D03*
X148793000Y-92109000D03*
X148793000Y-94109000D03*
X148793000Y-96109000D03*
X148793000Y-98109000D03*
X148793000Y-100109000D03*
X148793000Y-102109000D03*
X126793000Y-102109000D03*
X126793000Y-100109000D03*
X126793000Y-98109000D03*
X126793000Y-96109000D03*
X126793000Y-94109000D03*
X126793000Y-92109000D03*
X126793000Y-90109000D03*
X126793000Y-88109000D03*
X126793000Y-86109000D03*
X126793000Y-84109000D03*
%TD*%
D13*
%TO.C,J1*%
X120396000Y-92741000D03*
X120396000Y-90741000D03*
X120396000Y-88741000D03*
X120396000Y-86741000D03*
%TD*%
M02*
