M48
; DRILL file {KiCad (5.1.6)-1} date 08/10/20 20:29:03
; FORMAT={-:-/ absolute / inch / decimal}
; #@! TF.CreationDate,2020-08-10T20:29:03-04:00
; #@! TF.GenerationSoftware,Kicad,Pcbnew,(5.1.6)-1
FMAT,2
INCH
T1C0.0276
T2C0.0394
T3C0.1693
%
G90
G05
T1
X4.9919Y-3.3114
X4.9919Y-3.3901
X4.9919Y-3.4689
X4.9919Y-3.5476
X4.9919Y-3.6263
X4.9919Y-3.7051
X4.9919Y-3.7838
X4.9919Y-3.8626
X4.9919Y-3.9413
X4.9919Y-4.02
X5.858Y-3.3114
X5.858Y-3.3901
X5.858Y-3.4689
X5.858Y-3.5476
X5.858Y-3.6263
X5.858Y-3.7051
X5.858Y-3.7838
X5.858Y-3.8626
X5.858Y-3.9413
X5.858Y-4.02
T2
X4.74Y-3.415
X4.74Y-3.4937
X4.74Y-3.5725
X4.74Y-3.6512
T3
X4.655Y-4.135
X4.64Y-3.02
X6.2Y-3.0
X6.2Y-4.135
T0
M30
